2019-08-28 09:07:32 - Rozpoczynam import 
2019-08-28 09:07:32 - Pobieranie pliku aktualizacji 
2019-08-28 09:09:13 - Rozpoczynam import 
2019-08-28 09:09:13 - Pobieranie pliku aktualizacji 
2019-08-28 09:09:13 - Pobrano plik aktualizacji 
2019-08-28 09:09:13 - Pobieram klientów istniejących w sytemie 
2019-08-28 09:09:13 - Zakończono pobieranie istniejących klientów w systemie 
2019-08-28 09:09:13 - Pobieram serwisy przypisane do klientów 
2019-08-28 09:09:13 - Zakończono pobieranie serwisów przypisanych do klientów 
2019-08-28 09:09:13 - Rozpoczynam aktualizację danych 
2019-08-28 09:09:13 - Poberanie handlowca email = artur.naydowski@electrolux.com 
2019-08-28 09:09:13 - Znaleziono handlowca email = artur.naydowski@electrolux.com 
2019-08-28 09:09:13 - Pobrano z systemu firmę NIP = 9231604895 
2019-08-28 09:09:13 - Import został zakończony 
