2019-10-02 08:57:09 - Rozpoczęcie importu 
2019-10-02 08:57:09 - Pobranie pliku aktualizacji 
2019-10-02 08:57:09 - Poprawnie pobrano plik aktualizacyjny 
2019-10-02 08:57:09 - Rozpoczęcie aktualizacji produktów. 
2019-10-02 08:57:09 - Rozpoczęcie iterowania po arkuszu 
2019-10-02 08:57:09 - Aktualizacja produktu 1211 
2019-10-02 08:57:09 - Aktualizacja produktu 1265 
2019-10-02 08:57:10 - Aktualizacja produktu 1243 
2019-10-02 08:57:10 - Aktualizacja produktu 1208 
2019-10-02 08:57:10 - Aktualizacja produktu 1219 
2019-10-02 08:57:10 - Aktualizacja produktu 1212 
2019-10-02 08:57:10 - Aktualizacja produktu 1217 
2019-10-02 08:57:10 - Aktualizacja produktu 1207 
2019-10-02 08:57:10 - Aktualizacja produktu 1205 
2019-10-02 08:57:10 - Aktualizacja produktu 1261 
2019-10-02 08:57:10 - Aktualizacja produktu 1236 
2019-10-02 08:57:10 - Aktualizacja produktu 1253 
2019-10-02 08:57:10 - Aktualizacja produktu 1204 
2019-10-02 08:57:10 - Aktualizacja produktu 1206 
2019-10-02 08:57:10 - Aktualizacja produktu 1213 
2019-10-02 08:57:10 - Aktualizacja produktu 1230 
2019-10-02 08:57:10 - Aktualizacja produktu 1226 
2019-10-02 08:57:11 - Aktualizacja produktu 1220 
2019-10-02 08:57:11 - Aktualizacja produktu 1248 
2019-10-02 08:57:11 - Aktualizacja produktu 1250 
2019-10-02 08:57:11 - Aktualizacja produktu 1255 
2019-10-02 08:57:11 - Aktualizacja produktu 1223 
2019-10-02 08:57:11 - Aktualizacja produktu 1260 
2019-10-02 08:57:11 - Aktualizacja produktu 1244 
2019-10-02 08:57:11 - Aktualizacja produktu 1239 
2019-10-02 08:57:11 - Aktualizacja produktu 1228 
2019-10-02 08:57:11 - Aktualizacja produktu 1254 
2019-10-02 08:57:11 - Aktualizacja produktu 1262 
2019-10-02 08:57:11 - Aktualizacja produktu 1252 
2019-10-02 08:57:11 - Aktualizacja produktu 1245 
2019-10-02 08:57:11 - Aktualizacja produktu 1232 
2019-10-02 08:57:12 - Aktualizacja produktu 1210 
2019-10-02 08:57:12 - Aktualizacja produktu 1251 
2019-10-02 08:57:12 - Aktualizacja produktu 1221 
2019-10-02 08:57:12 - Aktualizacja produktu 1227 
2019-10-02 08:57:12 - Aktualizacja produktu 1218 
2019-10-02 08:57:12 - Aktualizacja produktu 1214 
2019-10-02 08:57:12 - Aktualizacja produktu 1209 
2019-10-02 08:57:12 - Aktualizacja produktu 1215 
2019-10-02 08:57:12 - Aktualizacja produktu 1216 
2019-10-02 08:57:12 - Aktualizacja produktu 1231 
2019-10-02 08:57:12 - Aktualizacja produktu 1247 
2019-10-02 08:57:12 - Aktualizacja produktu 1264 
2019-10-02 08:57:12 - Aktualizacja produktu 1238 
2019-10-02 08:57:12 - Aktualizacja produktu 1225 
2019-10-02 08:57:12 - Aktualizacja produktu 1224 
2019-10-02 08:57:12 - Aktualizacja produktu 1246 
2019-10-02 08:57:13 - Aktualizacja produktu 1203 
2019-10-02 08:57:13 - Aktualizacja produktu 1234 
2019-10-02 08:57:13 - Aktualizacja produktu 1263 
2019-10-02 08:57:13 - Aktualizacja produktu 1251 
2019-10-02 08:57:13 - Aktualizacja produktu 1370 
2019-10-02 08:57:13 - Aktualizacja produktu 1371 
2019-10-02 08:57:13 - Aktualizacja produktu 1379 
2019-10-02 08:57:13 - Aktualizacja produktu 1363 
2019-10-02 08:57:13 - Aktualizacja produktu 1383 
2019-10-02 08:57:13 - Aktualizacja produktu 1382 
2019-10-02 08:57:13 - Aktualizacja produktu 1366 
2019-10-02 08:57:13 - Aktualizacja produktu 1374 
2019-10-02 08:57:13 - Aktualizacja produktu 1384 
2019-10-02 08:57:13 - Aktualizacja produktu 1367 
2019-10-02 08:57:13 - Aktualizacja produktu 1369 
2019-10-02 08:57:13 - Aktualizacja produktu 1365 
2019-10-02 08:57:14 - Aktualizacja produktu 1381 
2019-10-02 08:57:14 - Aktualizacja produktu 1368 
2019-10-02 08:57:14 - Aktualizacja produktu 1376 
2019-10-02 08:57:14 - Aktualizacja produktu 1385 
2019-10-02 08:57:14 - Aktualizacja produktu 1373 
2019-10-02 08:57:14 - Aktualizacja produktu 1364 
2019-10-02 08:57:14 - Aktualizacja produktu 1377 
2019-10-02 08:57:14 - Aktualizacja produktu 1375 
2019-10-02 08:57:14 - Aktualizacja produktu 1372 
2019-10-02 08:57:14 - Aktualizacja produktu 1378 
2019-10-02 08:57:14 - Aktualizacja produktu 1380 
2019-10-02 08:57:14 - Aktualizacja produktu 1387 
2019-10-02 08:57:14 - Aktualizacja produktu 1388 
2019-10-02 08:57:14 - Aktualizacja produktu 1386 
2019-10-02 08:57:14 - Aktualizacja produktu 1370 
2019-10-02 08:57:15 - Aktualizacja produktu 1285 
2019-10-02 08:57:15 - Aktualizacja produktu 1281 
2019-10-02 08:57:15 - Aktualizacja produktu 1284 
2019-10-02 08:57:15 - Aktualizacja produktu 1288 
2019-10-02 08:57:15 - Aktualizacja produktu 1297 
2019-10-02 08:57:15 - Aktualizacja produktu 1287 
2019-10-02 08:57:15 - Aktualizacja produktu 1280 
2019-10-02 08:57:15 - Aktualizacja produktu 1303 
2019-10-02 08:57:15 - Aktualizacja produktu 1290 
2019-10-02 08:57:15 - Aktualizacja produktu 1294 
2019-10-02 08:57:15 - Aktualizacja produktu 1282 
2019-10-02 08:57:15 - Aktualizacja produktu 1283 
2019-10-02 08:57:15 - Aktualizacja produktu 1289 
2019-10-02 08:57:15 - Aktualizacja produktu 1296 
2019-10-02 08:57:15 - Aktualizacja produktu 1315 
2019-10-02 08:57:16 - Aktualizacja produktu 1311 
2019-10-02 08:57:16 - Aktualizacja produktu 1312 
2019-10-02 08:57:16 - Aktualizacja produktu 1345 
2019-10-02 08:57:16 - Aktualizacja produktu 1298 
2019-10-02 08:57:16 - Aktualizacja produktu 1302 
2019-10-02 08:57:16 - Aktualizacja produktu 1304 
2019-10-02 08:57:16 - Aktualizacja produktu 1277 
2019-10-02 08:57:16 - Aktualizacja produktu 1292 
2019-10-02 08:57:16 - Aktualizacja produktu 1291 
2019-10-02 08:57:16 - Aktualizacja produktu 1300 
2019-10-02 08:57:16 - Aktualizacja produktu 1305 
2019-10-02 08:57:16 - Aktualizacja produktu 1295 
2019-10-02 08:57:16 - Aktualizacja produktu 1286 
2019-10-02 08:57:16 - Aktualizacja produktu 1276 
2019-10-02 08:57:16 - Aktualizacja produktu 1293 
2019-10-02 08:57:17 - Aktualizacja produktu 1278 
2019-10-02 08:57:17 - Aktualizacja produktu 1299 
2019-10-02 08:57:17 - Aktualizacja produktu 1279 
2019-10-02 08:57:17 - Aktualizacja produktu 1301 
2019-10-02 08:57:17 - Aktualizacja produktu 1306 
2019-10-02 08:57:17 - Aktualizacja produktu 1308 
2019-10-02 08:57:17 - Aktualizacja produktu 1307 
2019-10-02 08:57:17 - Aktualizacja produktu 1314 
2019-10-02 08:57:17 - Aktualizacja produktu 1309 
2019-10-02 08:57:17 - Aktualizacja produktu 1310 
2019-10-02 08:57:17 - Aktualizacja produktu 1313 
2019-10-02 08:57:17 - Aktualizacja produktu 1459 
2019-10-02 08:57:17 - Aktualizacja produktu 1458 
2019-10-02 08:57:18 - Aktualizacja produktu 1460 
2019-10-02 08:57:18 - Aktualizacja produktu 1457 
2019-10-02 08:57:18 - Aktualizacja produktu 1456 
2019-10-02 08:57:18 - Aktualizacja produktu 1317 
2019-10-02 08:57:18 - Aktualizacja produktu 1316 
2019-10-02 08:57:18 - Aktualizacja produktu 1318 
2019-10-02 08:57:18 - Aktualizacja produktu 1319 
2019-10-02 08:57:18 - Aktualizacja produktu 1320 
2019-10-02 08:57:18 - Aktualizacja produktu 1343 
2019-10-02 08:57:18 - Aktualizacja produktu 1344 
2019-10-02 08:57:18 - Aktualizacja produktu 1327 
2019-10-02 08:57:18 - Aktualizacja produktu 1321 
2019-10-02 08:57:18 - Aktualizacja produktu 1339 
2019-10-02 08:57:18 - Aktualizacja produktu 1340 
2019-10-02 08:57:18 - Aktualizacja produktu 1341 
2019-10-02 08:57:18 - Aktualizacja produktu 1325 
2019-10-02 08:57:18 - Aktualizacja produktu 1326 
2019-10-02 08:57:19 - Aktualizacja produktu 1324 
2019-10-02 08:57:19 - Aktualizacja produktu 1322 
2019-10-02 08:57:19 - Aktualizacja produktu 1323 
2019-10-02 08:57:19 - Aktualizacja produktu 1338 
2019-10-02 08:57:19 - Aktualizacja produktu 1342 
2019-10-02 08:57:19 - Aktualizacja produktu 1356 
2019-10-02 08:57:19 - Aktualizacja produktu 1350 
2019-10-02 08:57:19 - Aktualizacja produktu 1357 
2019-10-02 08:57:19 - Aktualizacja produktu 1354 
2019-10-02 08:57:19 - Aktualizacja produktu 1353 
2019-10-02 08:57:19 - Aktualizacja produktu 1347 
2019-10-02 08:57:19 - Aktualizacja produktu 1355 
2019-10-02 08:57:19 - Aktualizacja produktu 1348 
2019-10-02 08:57:19 - Aktualizacja produktu 1259 
2019-10-02 08:57:19 - Aktualizacja produktu 1257 
2019-10-02 08:57:19 - Aktualizacja produktu 1256 
2019-10-02 08:57:19 - Aktualizacja produktu 1349 
2019-10-02 08:57:20 - Aktualizacja produktu 1351 
2019-10-02 08:57:20 - Aktualizacja produktu 1346 
2019-10-02 08:57:20 - Aktualizacja produktu 1352 
2019-10-02 08:57:20 - Aktualizacja produktu 1222 
2019-10-02 08:57:20 - Aktualizacja produktu 1240 
2019-10-02 08:57:20 - Aktualizacja produktu 1241 
2019-10-02 08:57:20 - Aktualizacja produktu 1258 
2019-10-02 08:57:20 - Aktualizacja produktu 1229 
2019-10-02 08:57:20 - Aktualizacja produktu 1461 
2019-10-02 08:57:20 - Aktualizacja produktu 1188 
2019-10-02 08:57:20 - Aktualizacja produktu 1190 
2019-10-02 08:57:20 - Aktualizacja produktu 1189 
2019-10-02 08:57:20 - Aktualizacja produktu 1191 
2019-10-02 08:57:20 - Aktualizacja produktu 1192 
2019-10-02 08:57:20 - Aktualizacja produktu 1199 
2019-10-02 08:57:21 - Aktualizacja produktu 1200 
2019-10-02 08:57:21 - Aktualizacja produktu 1179 
2019-10-02 08:57:21 - Aktualizacja produktu 1187 
2019-10-02 08:57:21 - Aktualizacja produktu 1184 
2019-10-02 08:57:21 - Aktualizacja produktu 1180 
2019-10-02 08:57:21 - Aktualizacja produktu 1181 
2019-10-02 08:57:21 - Aktualizacja produktu 1186 
2019-10-02 08:57:21 - Aktualizacja produktu 1182 
2019-10-02 08:57:21 - Aktualizacja produktu 1185 
2019-10-02 08:57:21 - Aktualizacja produktu 1178 
2019-10-02 08:57:21 - Aktualizacja produktu 1183 
2019-10-02 08:57:21 - Aktualizacja produktu 1197 
2019-10-02 08:57:21 - Aktualizacja produktu 1195 
2019-10-02 08:57:21 - Aktualizacja produktu 1194 
2019-10-02 08:57:22 - Aktualizacja produktu 1444 
2019-10-02 08:57:22 - Aktualizacja produktu 1442 
2019-10-02 08:57:22 - Aktualizacja produktu 1446 
2019-10-02 08:57:22 - Aktualizacja produktu 1441 
2019-10-02 08:57:22 - Aktualizacja produktu 1443 
2019-10-02 08:57:22 - Aktualizacja produktu 1179 
2019-10-02 08:57:22 - Aktualizacja produktu 1445 
2019-10-02 08:57:22 - Aktualizacja produktu 1448 
2019-10-02 08:57:22 - Aktualizacja produktu 1449 
2019-10-02 08:57:22 - Aktualizacja produktu 1447 
2019-10-02 08:57:22 - Aktualizacja produktu 1451 
2019-10-02 08:57:22 - Aktualizacja produktu 1450 
2019-10-02 08:57:22 - Aktualizacja produktu 1452 
2019-10-02 08:57:22 - Aktualizacja produktu 1454 
2019-10-02 08:57:22 - Aktualizacja produktu 1453 
2019-10-02 08:57:23 - Aktualizacja produktu 1362 
2019-10-02 08:57:23 - Aktualizacja produktu 1359 
2019-10-02 08:57:23 - Aktualizacja produktu 1358 
2019-10-02 08:57:23 - Aktualizacja produktu 1360 
2019-10-02 08:57:23 - Aktualizacja produktu 1361 
2019-10-02 08:57:23 - Aktualizacja produktu 1201 
2019-10-02 08:57:23 - Aktualizacja produktu 1202 
2019-10-02 08:57:23 - Aktualizacja produktu 1196 
2019-10-02 08:57:23 - Aktualizacja produktu 1193 
2019-10-02 08:57:23 - Aktualizacja produktu 1198 
2019-10-02 08:57:23 - Aktualizacja produktu 1272 
2019-10-02 08:57:23 - Aktualizacja produktu 1270 
2019-10-02 08:57:23 - Aktualizacja produktu 1275 
2019-10-02 08:57:24 - Aktualizacja produktu 1273 
2019-10-02 08:57:24 - Aktualizacja produktu 1267 
2019-10-02 08:57:24 - Aktualizacja produktu 1268 
2019-10-02 08:57:24 - Aktualizacja produktu 1271 
2019-10-02 08:57:24 - Aktualizacja produktu 1266 
2019-10-02 08:57:24 - Aktualizacja produktu 1274 
2019-10-02 08:57:24 - Aktualizacja produktu 1269 
2019-10-02 08:57:24 - Aktualizacja produktu 1393 
2019-10-02 08:57:24 - Aktualizacja produktu 1390 
2019-10-02 08:57:24 - Aktualizacja produktu 1392 
2019-10-02 08:57:24 - Aktualizacja produktu 1389 
2019-10-02 08:57:24 - Aktualizacja produktu 1413 
2019-10-02 08:57:24 - Aktualizacja produktu 1407 
2019-10-02 08:57:24 - Aktualizacja produktu 1404 
2019-10-02 08:57:24 - Aktualizacja produktu 1399 
2019-10-02 08:57:25 - Aktualizacja produktu 1401 
2019-10-02 08:57:25 - Aktualizacja produktu 1409 
2019-10-02 08:57:25 - Aktualizacja produktu 1462 
2019-10-02 08:57:25 - Aktualizacja produktu 1463 
2019-10-02 08:57:25 - Aktualizacja produktu 1464 
2019-10-02 08:57:25 - Aktualizacja produktu 1403 
2019-10-02 08:57:25 - Aktualizacja produktu 1408 
2019-10-02 08:57:25 - Aktualizacja produktu 1465 
2019-10-02 08:57:25 - Aktualizacja produktu 1414 
2019-10-02 08:57:25 - Aktualizacja produktu 1412 
2019-10-02 08:57:25 - Aktualizacja produktu 1410 
2019-10-02 08:57:25 - Aktualizacja produktu 1417 
2019-10-02 08:57:25 - Aktualizacja produktu 1415 
2019-10-02 08:57:26 - Aktualizacja produktu 1416 
2019-10-02 08:57:26 - Aktualizacja produktu 1418 
2019-10-02 08:57:26 - Aktualizacja produktu 1420 
2019-10-02 08:57:26 - Aktualizacja produktu 1421 
2019-10-02 08:57:26 - Aktualizacja produktu 1429 
2019-10-02 08:57:26 - Aktualizacja produktu 1423 
2019-10-02 08:57:26 - Aktualizacja produktu 1427 
2019-10-02 08:57:26 - Aktualizacja produktu 1428 
2019-10-02 08:57:26 - Aktualizacja produktu 1426 
2019-10-02 08:57:26 - Aktualizacja produktu 1433 
2019-10-02 08:57:26 - Aktualizacja produktu 1431 
2019-10-02 08:57:26 - Aktualizacja produktu 1432 
2019-10-02 08:57:26 - Aktualizacja produktu 1436 
2019-10-02 08:57:26 - Aktualizacja produktu 1438 
2019-10-02 08:57:26 - Aktualizacja produktu 1434 
2019-10-02 08:57:26 - Aktualizacja produktu 1424 
2019-10-02 08:57:27 - Aktualizacja produktu 1425 
2019-10-02 08:57:27 - Aktualizacja produktu 1435 
2019-10-02 08:57:27 - Aktualizacja produktu 1430 
2019-10-02 08:57:27 - Aktualizacja produktu 1422 
2019-10-02 08:57:27 - Aktualizacja produktu 1437 
2019-10-02 08:57:27 - Aktualizacja produktu 1423 
2019-10-02 08:57:27 - Aktualizacja produktu 1433 
2019-10-02 08:57:27 - Aktualizacja produktu 1431 
2019-10-02 08:57:27 - Aktualizacja produktu 1432 
2019-10-02 08:57:27 - Aktualizacja produktu 1436 
2019-10-02 08:57:27 - Aktualizacja produktu 1438 
2019-10-02 08:57:27 - Aktualizacja produktu 1434 
2019-10-02 08:57:27 - Aktualizacja produktu 1425 
2019-10-02 08:57:27 - Aktualizacja produktu 1430 
2019-10-02 08:57:27 - Aktualizacja produktu 1422 
2019-10-02 08:57:27 - Aktualizacja produktu 1437 
2019-10-02 08:57:27 - Aktualizacja produktu 1429 
2019-10-02 08:57:27 - Aktualizacja produktu 1427 
2019-10-02 08:57:27 - Aktualizacja produktu 1428 
2019-10-02 08:57:27 - Aktualizacja produktu 1426 
2019-10-02 08:57:27 - Aktualizacja produktu 1424 
2019-10-02 08:57:27 - Aktualizacja produktu 1437 
2019-10-02 08:57:27 - Zakończono aktualizację produktów. 
2019-10-02 09:46:48 - Rozpoczęcie importu 
2019-10-02 09:46:48 - Pobranie pliku aktualizacji 
2019-10-02 09:46:48 - Poprawnie pobrano plik aktualizacyjny 
2019-10-02 09:46:48 - Rozpoczęcie aktualizacji produktów. 
2019-10-02 09:46:48 - Rozpoczęcie iterowania po arkuszu 
2019-10-02 09:46:48 - Aktualizacja produktu 1211 
2019-10-02 09:46:48 - Aktualizacja produktu 1265 
2019-10-02 09:46:48 - Aktualizacja produktu 1243 
2019-10-02 09:46:49 - Aktualizacja produktu 1208 
2019-10-02 09:46:49 - Aktualizacja produktu 1219 
2019-10-02 09:46:49 - Aktualizacja produktu 1212 
2019-10-02 09:46:49 - Aktualizacja produktu 1217 
2019-10-02 09:46:49 - Aktualizacja produktu 1207 
2019-10-02 09:46:49 - Aktualizacja produktu 1205 
2019-10-02 09:46:49 - Aktualizacja produktu 1261 
2019-10-02 09:46:49 - Aktualizacja produktu 1236 
2019-10-02 09:46:49 - Aktualizacja produktu 1253 
2019-10-02 09:46:49 - Aktualizacja produktu 1204 
2019-10-02 09:46:49 - Aktualizacja produktu 1206 
2019-10-02 09:46:50 - Aktualizacja produktu 1213 
2019-10-02 09:46:50 - Aktualizacja produktu 1230 
2019-10-02 09:46:50 - Aktualizacja produktu 1226 
2019-10-02 09:46:50 - Aktualizacja produktu 1220 
2019-10-02 09:46:50 - Aktualizacja produktu 1248 
2019-10-02 09:46:50 - Aktualizacja produktu 1250 
2019-10-02 09:46:50 - Aktualizacja produktu 1255 
2019-10-02 09:46:50 - Aktualizacja produktu 1223 
2019-10-02 09:46:50 - Aktualizacja produktu 1260 
2019-10-02 09:46:50 - Aktualizacja produktu 1244 
2019-10-02 09:46:51 - Aktualizacja produktu 1239 
2019-10-02 09:46:51 - Aktualizacja produktu 1228 
2019-10-02 09:46:51 - Aktualizacja produktu 1254 
2019-10-02 09:46:51 - Aktualizacja produktu 1262 
2019-10-02 09:46:51 - Aktualizacja produktu 1252 
2019-10-02 09:46:51 - Aktualizacja produktu 1245 
2019-10-02 09:46:51 - Aktualizacja produktu 1232 
2019-10-02 09:46:51 - Aktualizacja produktu 1210 
2019-10-02 09:46:51 - Aktualizacja produktu 1251 
2019-10-02 09:46:51 - Aktualizacja produktu 1221 
2019-10-02 09:46:51 - Aktualizacja produktu 1227 
2019-10-02 09:46:51 - Aktualizacja produktu 1218 
2019-10-02 09:46:52 - Aktualizacja produktu 1214 
2019-10-02 09:46:52 - Aktualizacja produktu 1209 
2019-10-02 09:46:52 - Aktualizacja produktu 1215 
2019-10-02 09:46:52 - Aktualizacja produktu 1216 
2019-10-02 09:46:52 - Aktualizacja produktu 1231 
2019-10-02 09:46:52 - Aktualizacja produktu 1247 
2019-10-02 09:46:52 - Aktualizacja produktu 1264 
2019-10-02 09:46:52 - Aktualizacja produktu 1238 
2019-10-02 09:46:52 - Aktualizacja produktu 1225 
2019-10-02 09:46:52 - Aktualizacja produktu 1224 
2019-10-02 09:46:52 - Aktualizacja produktu 1246 
2019-10-02 09:46:52 - Aktualizacja produktu 1203 
2019-10-02 09:46:52 - Aktualizacja produktu 1234 
2019-10-02 09:46:53 - Aktualizacja produktu 1263 
2019-10-02 09:46:53 - Aktualizacja produktu 1251 
2019-10-02 09:46:53 - Aktualizacja produktu 1370 
2019-10-02 09:46:53 - Aktualizacja produktu 1371 
2019-10-02 09:46:53 - Aktualizacja produktu 1379 
2019-10-02 09:46:53 - Aktualizacja produktu 1363 
2019-10-02 09:46:53 - Aktualizacja produktu 1383 
2019-10-02 09:46:53 - Aktualizacja produktu 1382 
2019-10-02 09:46:53 - Aktualizacja produktu 1366 
2019-10-02 09:46:53 - Aktualizacja produktu 1374 
2019-10-02 09:46:54 - Aktualizacja produktu 1384 
2019-10-02 09:46:54 - Aktualizacja produktu 1367 
2019-10-02 09:46:54 - Aktualizacja produktu 1369 
2019-10-02 09:46:54 - Aktualizacja produktu 1365 
2019-10-02 09:46:54 - Aktualizacja produktu 1381 
2019-10-02 09:46:54 - Aktualizacja produktu 1368 
2019-10-02 09:46:54 - Aktualizacja produktu 1376 
2019-10-02 09:46:54 - Aktualizacja produktu 1385 
2019-10-02 09:46:54 - Aktualizacja produktu 1373 
2019-10-02 09:46:54 - Aktualizacja produktu 1364 
2019-10-02 09:46:55 - Aktualizacja produktu 1377 
2019-10-02 09:46:55 - Aktualizacja produktu 1375 
2019-10-02 09:46:55 - Aktualizacja produktu 1372 
2019-10-02 09:46:55 - Aktualizacja produktu 1378 
2019-10-02 09:46:55 - Aktualizacja produktu 1380 
2019-10-02 09:46:55 - Aktualizacja produktu 1387 
2019-10-02 09:46:55 - Aktualizacja produktu 1388 
2019-10-02 09:46:55 - Aktualizacja produktu 1386 
2019-10-02 09:46:55 - Aktualizacja produktu 1370 
2019-10-02 09:46:55 - Aktualizacja produktu 1285 
2019-10-02 09:46:56 - Aktualizacja produktu 1281 
2019-10-02 09:46:56 - Aktualizacja produktu 1284 
2019-10-02 09:46:56 - Aktualizacja produktu 1288 
2019-10-02 09:46:56 - Aktualizacja produktu 1297 
2019-10-02 09:46:56 - Aktualizacja produktu 1287 
2019-10-02 09:46:56 - Aktualizacja produktu 1280 
2019-10-02 09:46:56 - Aktualizacja produktu 1303 
2019-10-02 09:46:56 - Aktualizacja produktu 1290 
2019-10-02 09:46:56 - Aktualizacja produktu 1294 
2019-10-02 09:46:56 - Aktualizacja produktu 1282 
2019-10-02 09:46:57 - Aktualizacja produktu 1283 
2019-10-02 09:46:57 - Aktualizacja produktu 1289 
2019-10-02 09:46:57 - Aktualizacja produktu 1296 
2019-10-02 09:46:57 - Aktualizacja produktu 1315 
2019-10-02 09:46:57 - Aktualizacja produktu 1311 
2019-10-02 09:46:57 - Aktualizacja produktu 1312 
2019-10-02 09:46:57 - Rozpoczęcie importu 
2019-10-02 09:46:57 - Pobranie pliku aktualizacji 
2019-10-02 09:46:57 - Aktualizacja produktu 1345 
2019-10-02 09:46:57 - Aktualizacja produktu 1298 
2019-10-02 09:46:57 - Aktualizacja produktu 1302 
2019-10-02 09:46:57 - Aktualizacja produktu 1304 
2019-10-02 09:46:57 - Poprawnie pobrano plik aktualizacyjny 
2019-10-02 09:46:57 - Rozpoczęcie aktualizacji produktów. 
2019-10-02 09:46:57 - Rozpoczęcie iterowania po arkuszu 
2019-10-02 09:46:57 - Aktualizacja produktu 1211 
2019-10-02 09:46:57 - Aktualizacja produktu 1265 
2019-10-02 09:46:57 - Aktualizacja produktu 1243 
2019-10-02 09:46:57 - Aktualizacja produktu 1208 
2019-10-02 09:46:57 - Aktualizacja produktu 1219 
2019-10-02 09:46:57 - Aktualizacja produktu 1212 
2019-10-02 09:46:57 - Aktualizacja produktu 1217 
2019-10-02 09:46:57 - Aktualizacja produktu 1207 
2019-10-02 09:46:57 - Aktualizacja produktu 1205 
2019-10-02 09:46:57 - Aktualizacja produktu 1261 
2019-10-02 09:46:57 - Aktualizacja produktu 1236 
2019-10-02 09:46:57 - Aktualizacja produktu 1253 
2019-10-02 09:46:57 - Aktualizacja produktu 1204 
2019-10-02 09:46:57 - Aktualizacja produktu 1206 
2019-10-02 09:46:57 - Aktualizacja produktu 1213 
2019-10-02 09:46:57 - Aktualizacja produktu 1230 
2019-10-02 09:46:57 - Aktualizacja produktu 1226 
2019-10-02 09:46:57 - Aktualizacja produktu 1220 
2019-10-02 09:46:57 - Aktualizacja produktu 1248 
2019-10-02 09:46:57 - Aktualizacja produktu 1250 
2019-10-02 09:46:57 - Aktualizacja produktu 1255 
2019-10-02 09:46:57 - Aktualizacja produktu 1223 
2019-10-02 09:46:57 - Aktualizacja produktu 1260 
2019-10-02 09:46:57 - Aktualizacja produktu 1244 
2019-10-02 09:46:57 - Aktualizacja produktu 1239 
2019-10-02 09:46:57 - Aktualizacja produktu 1228 
2019-10-02 09:46:57 - Aktualizacja produktu 1254 
2019-10-02 09:46:57 - Aktualizacja produktu 1262 
2019-10-02 09:46:57 - Aktualizacja produktu 1252 
2019-10-02 09:46:57 - Aktualizacja produktu 1245 
2019-10-02 09:46:57 - Aktualizacja produktu 1232 
2019-10-02 09:46:57 - Aktualizacja produktu 1210 
2019-10-02 09:46:57 - Aktualizacja produktu 1251 
2019-10-02 09:46:57 - Aktualizacja produktu 1277 
2019-10-02 09:46:57 - Aktualizacja produktu 1221 
2019-10-02 09:46:57 - Aktualizacja produktu 1227 
2019-10-02 09:46:57 - Aktualizacja produktu 1218 
2019-10-02 09:46:57 - Aktualizacja produktu 1214 
2019-10-02 09:46:57 - Aktualizacja produktu 1209 
2019-10-02 09:46:57 - Aktualizacja produktu 1215 
2019-10-02 09:46:57 - Aktualizacja produktu 1216 
2019-10-02 09:46:57 - Aktualizacja produktu 1231 
2019-10-02 09:46:57 - Aktualizacja produktu 1247 
2019-10-02 09:46:57 - Aktualizacja produktu 1264 
2019-10-02 09:46:57 - Aktualizacja produktu 1238 
2019-10-02 09:46:57 - Aktualizacja produktu 1225 
2019-10-02 09:46:57 - Aktualizacja produktu 1224 
2019-10-02 09:46:57 - Aktualizacja produktu 1246 
2019-10-02 09:46:57 - Aktualizacja produktu 1203 
2019-10-02 09:46:57 - Aktualizacja produktu 1234 
2019-10-02 09:46:57 - Aktualizacja produktu 1263 
2019-10-02 09:46:57 - Aktualizacja produktu 1251 
2019-10-02 09:46:57 - Aktualizacja produktu 1292 
2019-10-02 09:46:57 - Aktualizacja produktu 1370 
2019-10-02 09:46:57 - Aktualizacja produktu 1291 
2019-10-02 09:46:58 - Aktualizacja produktu 1371 
2019-10-02 09:46:58 - Aktualizacja produktu 1379 
2019-10-02 09:46:58 - Aktualizacja produktu 1363 
2019-10-02 09:46:58 - Aktualizacja produktu 1383 
2019-10-02 09:46:58 - Aktualizacja produktu 1382 
2019-10-02 09:46:58 - Aktualizacja produktu 1366 
2019-10-02 09:46:58 - Aktualizacja produktu 1374 
2019-10-02 09:46:58 - Aktualizacja produktu 1384 
2019-10-02 09:46:58 - Aktualizacja produktu 1367 
2019-10-02 09:46:58 - Aktualizacja produktu 1369 
2019-10-02 09:46:58 - Aktualizacja produktu 1365 
2019-10-02 09:46:58 - Aktualizacja produktu 1381 
2019-10-02 09:46:58 - Aktualizacja produktu 1368 
2019-10-02 09:46:58 - Aktualizacja produktu 1376 
2019-10-02 09:46:58 - Aktualizacja produktu 1385 
2019-10-02 09:46:58 - Aktualizacja produktu 1373 
2019-10-02 09:46:58 - Aktualizacja produktu 1364 
2019-10-02 09:46:58 - Aktualizacja produktu 1377 
2019-10-02 09:46:58 - Aktualizacja produktu 1375 
2019-10-02 09:46:58 - Aktualizacja produktu 1372 
2019-10-02 09:46:58 - Aktualizacja produktu 1378 
2019-10-02 09:46:58 - Aktualizacja produktu 1380 
2019-10-02 09:46:58 - Aktualizacja produktu 1387 
2019-10-02 09:46:58 - Aktualizacja produktu 1388 
2019-10-02 09:46:58 - Aktualizacja produktu 1386 
2019-10-02 09:46:58 - Aktualizacja produktu 1370 
2019-10-02 09:46:58 - Aktualizacja produktu 1300 
2019-10-02 09:46:58 - Aktualizacja produktu 1285 
2019-10-02 09:46:58 - Aktualizacja produktu 1281 
2019-10-02 09:46:58 - Aktualizacja produktu 1284 
2019-10-02 09:46:58 - Aktualizacja produktu 1288 
2019-10-02 09:46:58 - Aktualizacja produktu 1297 
2019-10-02 09:46:58 - Aktualizacja produktu 1287 
2019-10-02 09:46:58 - Aktualizacja produktu 1280 
2019-10-02 09:46:58 - Aktualizacja produktu 1303 
2019-10-02 09:46:58 - Aktualizacja produktu 1290 
2019-10-02 09:46:58 - Aktualizacja produktu 1294 
2019-10-02 09:46:58 - Aktualizacja produktu 1282 
2019-10-02 09:46:58 - Aktualizacja produktu 1283 
2019-10-02 09:46:58 - Aktualizacja produktu 1289 
2019-10-02 09:46:58 - Aktualizacja produktu 1296 
2019-10-02 09:46:58 - Aktualizacja produktu 1315 
2019-10-02 09:46:58 - Aktualizacja produktu 1311 
2019-10-02 09:46:58 - Aktualizacja produktu 1312 
2019-10-02 09:46:58 - Aktualizacja produktu 1345 
2019-10-02 09:46:58 - Aktualizacja produktu 1298 
2019-10-02 09:46:58 - Aktualizacja produktu 1302 
2019-10-02 09:46:58 - Aktualizacja produktu 1304 
2019-10-02 09:46:58 - Aktualizacja produktu 1277 
2019-10-02 09:46:58 - Aktualizacja produktu 1292 
2019-10-02 09:46:58 - Aktualizacja produktu 1291 
2019-10-02 09:46:58 - Aktualizacja produktu 1300 
2019-10-02 09:46:58 - Aktualizacja produktu 1305 
2019-10-02 09:46:58 - Aktualizacja produktu 1305 
2019-10-02 09:46:58 - Aktualizacja produktu 1295 
2019-10-02 09:46:58 - Aktualizacja produktu 1295 
2019-10-02 09:46:58 - Aktualizacja produktu 1286 
2019-10-02 09:46:58 - Aktualizacja produktu 1286 
2019-10-02 09:46:58 - Aktualizacja produktu 1276 
2019-10-02 09:46:58 - Aktualizacja produktu 1276 
2019-10-02 09:46:58 - Aktualizacja produktu 1293 
2019-10-02 09:46:58 - Aktualizacja produktu 1293 
2019-10-02 09:46:58 - Aktualizacja produktu 1278 
2019-10-02 09:46:58 - Aktualizacja produktu 1278 
2019-10-02 09:46:58 - Aktualizacja produktu 1299 
2019-10-02 09:46:58 - Aktualizacja produktu 1299 
2019-10-02 09:46:58 - Aktualizacja produktu 1279 
2019-10-02 09:46:58 - Aktualizacja produktu 1279 
2019-10-02 09:46:58 - Aktualizacja produktu 1301 
2019-10-02 09:46:58 - Aktualizacja produktu 1301 
2019-10-02 09:46:58 - Aktualizacja produktu 1306 
2019-10-02 09:46:58 - Aktualizacja produktu 1306 
2019-10-02 09:46:58 - Aktualizacja produktu 1308 
2019-10-02 09:46:58 - Aktualizacja produktu 1308 
2019-10-02 09:46:58 - Aktualizacja produktu 1307 
2019-10-02 09:46:58 - Aktualizacja produktu 1307 
2019-10-02 09:46:58 - Aktualizacja produktu 1314 
2019-10-02 09:46:58 - Aktualizacja produktu 1314 
2019-10-02 09:46:58 - Aktualizacja produktu 1309 
2019-10-02 09:46:58 - Aktualizacja produktu 1309 
2019-10-02 09:46:59 - Aktualizacja produktu 1310 
2019-10-02 09:46:59 - Aktualizacja produktu 1310 
2019-10-02 09:46:59 - Aktualizacja produktu 1313 
2019-10-02 09:46:59 - Aktualizacja produktu 1313 
2019-10-02 09:46:59 - Aktualizacja produktu 1459 
2019-10-02 09:46:59 - Aktualizacja produktu 1459 
2019-10-02 09:46:59 - Aktualizacja produktu 1458 
2019-10-02 09:46:59 - Aktualizacja produktu 1458 
2019-10-02 09:46:59 - Aktualizacja produktu 1460 
2019-10-02 09:46:59 - Aktualizacja produktu 1460 
2019-10-02 09:46:59 - Aktualizacja produktu 1457 
2019-10-02 09:46:59 - Aktualizacja produktu 1457 
2019-10-02 09:46:59 - Aktualizacja produktu 1456 
2019-10-02 09:46:59 - Aktualizacja produktu 1456 
2019-10-02 09:46:59 - Aktualizacja produktu 1317 
2019-10-02 09:46:59 - Aktualizacja produktu 1317 
2019-10-02 09:46:59 - Aktualizacja produktu 1316 
2019-10-02 09:46:59 - Aktualizacja produktu 1316 
2019-10-02 09:46:59 - Aktualizacja produktu 1318 
2019-10-02 09:46:59 - Aktualizacja produktu 1318 
2019-10-02 09:46:59 - Aktualizacja produktu 1319 
2019-10-02 09:46:59 - Aktualizacja produktu 1319 
2019-10-02 09:46:59 - Aktualizacja produktu 1320 
2019-10-02 09:46:59 - Aktualizacja produktu 1320 
2019-10-02 09:46:59 - Aktualizacja produktu 1343 
2019-10-02 09:46:59 - Aktualizacja produktu 1343 
2019-10-02 09:46:59 - Aktualizacja produktu 1344 
2019-10-02 09:46:59 - Aktualizacja produktu 1344 
2019-10-02 09:46:59 - Aktualizacja produktu 1327 
2019-10-02 09:46:59 - Aktualizacja produktu 1327 
2019-10-02 09:46:59 - Aktualizacja produktu 1321 
2019-10-02 09:46:59 - Aktualizacja produktu 1321 
2019-10-02 09:46:59 - Aktualizacja produktu 1339 
2019-10-02 09:46:59 - Aktualizacja produktu 1339 
2019-10-02 09:46:59 - Aktualizacja produktu 1340 
2019-10-02 09:46:59 - Aktualizacja produktu 1340 
2019-10-02 09:47:00 - Aktualizacja produktu 1341 
2019-10-02 09:47:00 - Aktualizacja produktu 1341 
2019-10-02 09:47:00 - Aktualizacja produktu 1325 
2019-10-02 09:47:00 - Aktualizacja produktu 1325 
2019-10-02 09:47:00 - Aktualizacja produktu 1326 
2019-10-02 09:47:00 - Aktualizacja produktu 1326 
2019-10-02 09:47:00 - Aktualizacja produktu 1324 
2019-10-02 09:47:00 - Aktualizacja produktu 1324 
2019-10-02 09:47:00 - Aktualizacja produktu 1322 
2019-10-02 09:47:00 - Aktualizacja produktu 1322 
2019-10-02 09:47:00 - Aktualizacja produktu 1323 
2019-10-02 09:47:00 - Aktualizacja produktu 1323 
2019-10-02 09:47:00 - Aktualizacja produktu 1338 
2019-10-02 09:47:00 - Aktualizacja produktu 1338 
2019-10-02 09:47:00 - Aktualizacja produktu 1342 
2019-10-02 09:47:00 - Aktualizacja produktu 1342 
2019-10-02 09:47:00 - Aktualizacja produktu 1356 
2019-10-02 09:47:00 - Aktualizacja produktu 1356 
2019-10-02 09:47:00 - Aktualizacja produktu 1350 
2019-10-02 09:47:00 - Aktualizacja produktu 1350 
2019-10-02 09:47:00 - Aktualizacja produktu 1357 
2019-10-02 09:47:00 - Aktualizacja produktu 1357 
2019-10-02 09:47:00 - Aktualizacja produktu 1354 
2019-10-02 09:47:00 - Aktualizacja produktu 1354 
2019-10-02 09:47:01 - Aktualizacja produktu 1353 
2019-10-02 09:47:01 - Aktualizacja produktu 1353 
2019-10-02 09:47:01 - Aktualizacja produktu 1347 
2019-10-02 09:47:01 - Aktualizacja produktu 1347 
2019-10-02 09:47:01 - Aktualizacja produktu 1355 
2019-10-02 09:47:01 - Aktualizacja produktu 1355 
2019-10-02 09:47:01 - Aktualizacja produktu 1348 
2019-10-02 09:47:01 - Aktualizacja produktu 1348 
2019-10-02 09:47:01 - Aktualizacja produktu 1259 
2019-10-02 09:47:01 - Aktualizacja produktu 1259 
2019-10-02 09:47:01 - Aktualizacja produktu 1257 
2019-10-02 09:47:01 - Aktualizacja produktu 1257 
2019-10-02 09:47:01 - Aktualizacja produktu 1256 
2019-10-02 09:47:01 - Aktualizacja produktu 1256 
2019-10-02 09:47:01 - Aktualizacja produktu 1349 
2019-10-02 09:47:01 - Aktualizacja produktu 1349 
2019-10-02 09:47:01 - Aktualizacja produktu 1351 
2019-10-02 09:47:01 - Aktualizacja produktu 1351 
2019-10-02 09:47:01 - Aktualizacja produktu 1346 
2019-10-02 09:47:01 - Aktualizacja produktu 1346 
2019-10-02 09:47:01 - Aktualizacja produktu 1352 
2019-10-02 09:47:01 - Aktualizacja produktu 1352 
2019-10-02 09:47:01 - Aktualizacja produktu 1222 
2019-10-02 09:47:01 - Aktualizacja produktu 1222 
2019-10-02 09:47:01 - Aktualizacja produktu 1240 
2019-10-02 09:47:01 - Aktualizacja produktu 1240 
2019-10-02 09:47:01 - Aktualizacja produktu 1241 
2019-10-02 09:47:01 - Aktualizacja produktu 1241 
2019-10-02 09:47:01 - Aktualizacja produktu 1258 
2019-10-02 09:47:01 - Aktualizacja produktu 1258 
2019-10-02 09:47:02 - Aktualizacja produktu 1229 
2019-10-02 09:47:02 - Aktualizacja produktu 1229 
2019-10-02 09:47:02 - Aktualizacja produktu 1461 
2019-10-02 09:47:02 - Aktualizacja produktu 1461 
2019-10-02 09:47:02 - Aktualizacja produktu 1188 
2019-10-02 09:47:02 - Aktualizacja produktu 1188 
2019-10-02 09:47:02 - Aktualizacja produktu 1190 
2019-10-02 09:47:02 - Aktualizacja produktu 1190 
2019-10-02 09:47:02 - Aktualizacja produktu 1189 
2019-10-02 09:47:02 - Aktualizacja produktu 1189 
2019-10-02 09:47:02 - Aktualizacja produktu 1191 
2019-10-02 09:47:02 - Aktualizacja produktu 1191 
2019-10-02 09:47:02 - Aktualizacja produktu 1192 
2019-10-02 09:47:02 - Aktualizacja produktu 1192 
2019-10-02 09:47:02 - Aktualizacja produktu 1199 
2019-10-02 09:47:02 - Aktualizacja produktu 1199 
2019-10-02 09:47:02 - Aktualizacja produktu 1200 
2019-10-02 09:47:02 - Aktualizacja produktu 1200 
2019-10-02 09:47:02 - Aktualizacja produktu 1179 
2019-10-02 09:47:02 - Aktualizacja produktu 1179 
2019-10-02 09:47:02 - Aktualizacja produktu 1187 
2019-10-02 09:47:02 - Aktualizacja produktu 1187 
2019-10-02 09:47:02 - Aktualizacja produktu 1184 
2019-10-02 09:47:02 - Aktualizacja produktu 1184 
2019-10-02 09:47:02 - Aktualizacja produktu 1180 
2019-10-02 09:47:02 - Aktualizacja produktu 1180 
2019-10-02 09:47:02 - Aktualizacja produktu 1181 
2019-10-02 09:47:02 - Aktualizacja produktu 1181 
2019-10-02 09:47:02 - Aktualizacja produktu 1186 
2019-10-02 09:47:02 - Aktualizacja produktu 1186 
2019-10-02 09:47:02 - Aktualizacja produktu 1182 
2019-10-02 09:47:02 - Aktualizacja produktu 1182 
2019-10-02 09:47:03 - Aktualizacja produktu 1185 
2019-10-02 09:47:03 - Aktualizacja produktu 1185 
2019-10-02 09:47:03 - Aktualizacja produktu 1178 
2019-10-02 09:47:03 - Aktualizacja produktu 1178 
2019-10-02 09:47:03 - Aktualizacja produktu 1183 
2019-10-02 09:47:03 - Aktualizacja produktu 1183 
2019-10-02 09:47:03 - Aktualizacja produktu 1197 
2019-10-02 09:47:03 - Aktualizacja produktu 1197 
2019-10-02 09:47:03 - Aktualizacja produktu 1195 
2019-10-02 09:47:03 - Aktualizacja produktu 1195 
2019-10-02 09:47:03 - Aktualizacja produktu 1194 
2019-10-02 09:47:03 - Aktualizacja produktu 1194 
2019-10-02 09:47:03 - Aktualizacja produktu 1444 
2019-10-02 09:47:03 - Aktualizacja produktu 1444 
2019-10-02 09:47:03 - Aktualizacja produktu 1442 
2019-10-02 09:47:03 - Aktualizacja produktu 1442 
2019-10-02 09:47:03 - Aktualizacja produktu 1446 
2019-10-02 09:47:03 - Aktualizacja produktu 1446 
2019-10-02 09:47:03 - Aktualizacja produktu 1441 
2019-10-02 09:47:03 - Aktualizacja produktu 1441 
2019-10-02 09:47:03 - Aktualizacja produktu 1443 
2019-10-02 09:47:03 - Aktualizacja produktu 1443 
2019-10-02 09:47:03 - Aktualizacja produktu 1179 
2019-10-02 09:47:03 - Aktualizacja produktu 1179 
2019-10-02 09:47:03 - Aktualizacja produktu 1445 
2019-10-02 09:47:03 - Aktualizacja produktu 1445 
2019-10-02 09:47:03 - Aktualizacja produktu 1448 
2019-10-02 09:47:03 - Aktualizacja produktu 1448 
2019-10-02 09:47:03 - Aktualizacja produktu 1449 
2019-10-02 09:47:03 - Aktualizacja produktu 1449 
2019-10-02 09:47:03 - Aktualizacja produktu 1447 
2019-10-02 09:47:03 - Aktualizacja produktu 1447 
2019-10-02 09:47:04 - Aktualizacja produktu 1451 
2019-10-02 09:47:04 - Aktualizacja produktu 1451 
2019-10-02 09:47:04 - Aktualizacja produktu 1450 
2019-10-02 09:47:04 - Aktualizacja produktu 1450 
2019-10-02 09:47:04 - Aktualizacja produktu 1452 
2019-10-02 09:47:04 - Aktualizacja produktu 1452 
2019-10-02 09:47:04 - Aktualizacja produktu 1454 
2019-10-02 09:47:04 - Aktualizacja produktu 1454 
2019-10-02 09:47:04 - Aktualizacja produktu 1453 
2019-10-02 09:47:04 - Aktualizacja produktu 1453 
2019-10-02 09:47:04 - Aktualizacja produktu 1362 
2019-10-02 09:47:04 - Aktualizacja produktu 1362 
2019-10-02 09:47:04 - Aktualizacja produktu 1359 
2019-10-02 09:47:04 - Aktualizacja produktu 1359 
2019-10-02 09:47:04 - Aktualizacja produktu 1358 
2019-10-02 09:47:04 - Aktualizacja produktu 1358 
2019-10-02 09:47:04 - Aktualizacja produktu 1360 
2019-10-02 09:47:04 - Aktualizacja produktu 1360 
2019-10-02 09:47:04 - Aktualizacja produktu 1361 
2019-10-02 09:47:04 - Aktualizacja produktu 1361 
2019-10-02 09:47:04 - Aktualizacja produktu 1201 
2019-10-02 09:47:04 - Aktualizacja produktu 1201 
2019-10-02 09:47:04 - Aktualizacja produktu 1202 
2019-10-02 09:47:04 - Aktualizacja produktu 1202 
2019-10-02 09:47:04 - Aktualizacja produktu 1196 
2019-10-02 09:47:04 - Aktualizacja produktu 1196 
2019-10-02 09:47:04 - Aktualizacja produktu 1193 
2019-10-02 09:47:04 - Aktualizacja produktu 1193 
2019-10-02 09:47:04 - Aktualizacja produktu 1198 
2019-10-02 09:47:04 - Aktualizacja produktu 1198 
2019-10-02 09:47:04 - Aktualizacja produktu 1272 
2019-10-02 09:47:04 - Aktualizacja produktu 1272 
2019-10-02 09:47:04 - Aktualizacja produktu 1270 
2019-10-02 09:47:04 - Aktualizacja produktu 1270 
2019-10-02 09:47:05 - Aktualizacja produktu 1275 
2019-10-02 09:47:05 - Aktualizacja produktu 1275 
2019-10-02 09:47:05 - Aktualizacja produktu 1273 
2019-10-02 09:47:05 - Aktualizacja produktu 1273 
2019-10-02 09:47:05 - Aktualizacja produktu 1267 
2019-10-02 09:47:05 - Aktualizacja produktu 1267 
2019-10-02 09:47:05 - Aktualizacja produktu 1268 
2019-10-02 09:47:05 - Aktualizacja produktu 1268 
2019-10-02 09:47:05 - Aktualizacja produktu 1271 
2019-10-02 09:47:05 - Aktualizacja produktu 1271 
2019-10-02 09:47:05 - Aktualizacja produktu 1266 
2019-10-02 09:47:05 - Aktualizacja produktu 1266 
2019-10-02 09:47:05 - Aktualizacja produktu 1274 
2019-10-02 09:47:05 - Aktualizacja produktu 1274 
2019-10-02 09:47:05 - Aktualizacja produktu 1269 
2019-10-02 09:47:05 - Aktualizacja produktu 1269 
2019-10-02 09:47:05 - Aktualizacja produktu 1393 
2019-10-02 09:47:05 - Aktualizacja produktu 1393 
2019-10-02 09:47:05 - Aktualizacja produktu 1390 
2019-10-02 09:47:05 - Aktualizacja produktu 1390 
2019-10-02 09:47:05 - Aktualizacja produktu 1392 
2019-10-02 09:47:05 - Aktualizacja produktu 1392 
2019-10-02 09:47:05 - Aktualizacja produktu 1389 
2019-10-02 09:47:05 - Aktualizacja produktu 1389 
2019-10-02 09:47:05 - Aktualizacja produktu 1413 
2019-10-02 09:47:05 - Aktualizacja produktu 1413 
2019-10-02 09:47:05 - Aktualizacja produktu 1407 
2019-10-02 09:47:05 - Aktualizacja produktu 1407 
2019-10-02 09:47:05 - Aktualizacja produktu 1404 
2019-10-02 09:47:05 - Aktualizacja produktu 1404 
2019-10-02 09:47:06 - Aktualizacja produktu 1399 
2019-10-02 09:47:06 - Aktualizacja produktu 1399 
2019-10-02 09:47:06 - Aktualizacja produktu 1401 
2019-10-02 09:47:06 - Aktualizacja produktu 1401 
2019-10-02 09:47:06 - Aktualizacja produktu 1409 
2019-10-02 09:47:06 - Aktualizacja produktu 1409 
2019-10-02 09:47:06 - Aktualizacja produktu 1462 
2019-10-02 09:47:06 - Aktualizacja produktu 1462 
2019-10-02 09:47:06 - Aktualizacja produktu 1463 
2019-10-02 09:47:06 - Aktualizacja produktu 1463 
2019-10-02 09:47:06 - Aktualizacja produktu 1464 
2019-10-02 09:47:06 - Aktualizacja produktu 1464 
2019-10-02 09:47:06 - Aktualizacja produktu 1403 
2019-10-02 09:47:06 - Aktualizacja produktu 1403 
2019-10-02 09:47:06 - Aktualizacja produktu 1408 
2019-10-02 09:47:06 - Aktualizacja produktu 1408 
2019-10-02 09:47:06 - Aktualizacja produktu 1465 
2019-10-02 09:47:06 - Aktualizacja produktu 1465 
2019-10-02 09:47:06 - Aktualizacja produktu 1414 
2019-10-02 09:47:06 - Aktualizacja produktu 1414 
2019-10-02 09:47:06 - Aktualizacja produktu 1412 
2019-10-02 09:47:06 - Aktualizacja produktu 1412 
2019-10-02 09:47:06 - Aktualizacja produktu 1410 
2019-10-02 09:47:06 - Aktualizacja produktu 1410 
2019-10-02 09:47:06 - Aktualizacja produktu 1417 
2019-10-02 09:47:06 - Aktualizacja produktu 1417 
2019-10-02 09:47:07 - Aktualizacja produktu 1415 
2019-10-02 09:47:07 - Aktualizacja produktu 1415 
2019-10-02 09:47:07 - Aktualizacja produktu 1416 
2019-10-02 09:47:07 - Aktualizacja produktu 1416 
2019-10-02 09:47:07 - Aktualizacja produktu 1418 
2019-10-02 09:47:07 - Aktualizacja produktu 1418 
2019-10-02 09:47:07 - Aktualizacja produktu 1420 
2019-10-02 09:47:07 - Aktualizacja produktu 1420 
2019-10-02 09:47:07 - Aktualizacja produktu 1421 
2019-10-02 09:47:07 - Aktualizacja produktu 1421 
2019-10-02 09:47:07 - Aktualizacja produktu 1429 
2019-10-02 09:47:07 - Aktualizacja produktu 1429 
2019-10-02 09:47:07 - Aktualizacja produktu 1423 
2019-10-02 09:47:07 - Aktualizacja produktu 1423 
2019-10-02 09:47:07 - Aktualizacja produktu 1427 
2019-10-02 09:47:07 - Aktualizacja produktu 1427 
2019-10-02 09:47:07 - Aktualizacja produktu 1428 
2019-10-02 09:47:07 - Aktualizacja produktu 1428 
2019-10-02 09:47:07 - Aktualizacja produktu 1426 
2019-10-02 09:47:07 - Aktualizacja produktu 1426 
2019-10-02 09:47:07 - Aktualizacja produktu 1433 
2019-10-02 09:47:07 - Aktualizacja produktu 1433 
2019-10-02 09:47:07 - Aktualizacja produktu 1431 
2019-10-02 09:47:07 - Aktualizacja produktu 1431 
2019-10-02 09:47:07 - Aktualizacja produktu 1432 
2019-10-02 09:47:07 - Aktualizacja produktu 1432 
2019-10-02 09:47:07 - Aktualizacja produktu 1436 
2019-10-02 09:47:07 - Aktualizacja produktu 1436 
2019-10-02 09:47:07 - Aktualizacja produktu 1438 
2019-10-02 09:47:07 - Aktualizacja produktu 1438 
2019-10-02 09:47:07 - Aktualizacja produktu 1434 
2019-10-02 09:47:07 - Aktualizacja produktu 1434 
2019-10-02 09:47:07 - Aktualizacja produktu 1424 
2019-10-02 09:47:07 - Aktualizacja produktu 1424 
2019-10-02 09:47:07 - Aktualizacja produktu 1425 
2019-10-02 09:47:07 - Aktualizacja produktu 1425 
2019-10-02 09:47:08 - Aktualizacja produktu 1435 
2019-10-02 09:47:08 - Aktualizacja produktu 1435 
2019-10-02 09:47:08 - Aktualizacja produktu 1430 
2019-10-02 09:47:08 - Aktualizacja produktu 1430 
2019-10-02 09:47:08 - Aktualizacja produktu 1422 
2019-10-02 09:47:08 - Aktualizacja produktu 1422 
2019-10-02 09:47:08 - Aktualizacja produktu 1437 
2019-10-02 09:47:08 - Aktualizacja produktu 1437 
2019-10-02 09:47:08 - Aktualizacja produktu 1423 
2019-10-02 09:47:08 - Aktualizacja produktu 1423 
2019-10-02 09:47:08 - Aktualizacja produktu 1433 
2019-10-02 09:47:08 - Aktualizacja produktu 1433 
2019-10-02 09:47:08 - Aktualizacja produktu 1431 
2019-10-02 09:47:08 - Aktualizacja produktu 1431 
2019-10-02 09:47:08 - Aktualizacja produktu 1432 
2019-10-02 09:47:08 - Aktualizacja produktu 1432 
2019-10-02 09:47:08 - Aktualizacja produktu 1436 
2019-10-02 09:47:08 - Aktualizacja produktu 1436 
2019-10-02 09:47:08 - Aktualizacja produktu 1438 
2019-10-02 09:47:08 - Aktualizacja produktu 1438 
2019-10-02 09:47:08 - Aktualizacja produktu 1434 
2019-10-02 09:47:08 - Aktualizacja produktu 1434 
2019-10-02 09:47:08 - Aktualizacja produktu 1425 
2019-10-02 09:47:08 - Aktualizacja produktu 1425 
2019-10-02 09:47:08 - Aktualizacja produktu 1430 
2019-10-02 09:47:08 - Aktualizacja produktu 1430 
2019-10-02 09:47:08 - Aktualizacja produktu 1422 
2019-10-02 09:47:08 - Aktualizacja produktu 1422 
2019-10-02 09:47:08 - Aktualizacja produktu 1437 
2019-10-02 09:47:08 - Aktualizacja produktu 1437 
2019-10-02 09:47:08 - Aktualizacja produktu 1429 
2019-10-02 09:47:08 - Aktualizacja produktu 1429 
2019-10-02 09:47:08 - Aktualizacja produktu 1427 
2019-10-02 09:47:08 - Aktualizacja produktu 1427 
2019-10-02 09:47:08 - Aktualizacja produktu 1428 
2019-10-02 09:47:08 - Aktualizacja produktu 1428 
2019-10-02 09:47:08 - Aktualizacja produktu 1426 
2019-10-02 09:47:08 - Aktualizacja produktu 1426 
2019-10-02 09:47:08 - Aktualizacja produktu 1424 
2019-10-02 09:47:08 - Aktualizacja produktu 1424 
2019-10-02 09:47:08 - Aktualizacja produktu 1437 
2019-10-02 09:47:08 - Aktualizacja produktu 1437 
2019-10-02 09:47:08 - Zakończono aktualizację produktów. 
2019-10-02 09:47:08 - Zakończono aktualizację produktów. 
