<?xml version="1.0" encoding="UTF-8"?>
<!-- Generator: Adobe Illustrator 19.1.0, SVG Export Plug-In . SVG Version: 6.00 Build 0)  -->
<svg version="1.0" id="Warstwa_1" xmlns="http://www.w3.org/2000/svg" xmlns:xlink="http://www.w3.org/1999/xlink" x="0px" y="0px" viewBox="0 0 4231 1494.8" style="enable-background:new 0 0 4231 1494.8;" xml:space="preserve">
<style type="text/css">
	.st0{fill-rule:evenodd;clip-rule:evenodd;fill:#57A8DC;}
	.st1{fill:#AAC5E2;}
	.st2{fill-rule:evenodd;clip-rule:evenodd;fill:#E8E8E8;}
	.st3{fill-rule:evenodd;clip-rule:evenodd;fill:#FFFFFF;}
	.st4{fill:#E8E8E8;}
	.st5{fill:#FFFFFF;}
	.st6{fill:#57A8DC;}
	.st7{fill-rule:evenodd;clip-rule:evenodd;fill:url(#SVGID_1_);}
	.st8{fill-rule:evenodd;clip-rule:evenodd;fill:url(#SVGID_2_);}
	.st9{display:none;fill-rule:evenodd;clip-rule:evenodd;fill:#FFFFFF;}
	.st10{display:none;fill-rule:evenodd;clip-rule:evenodd;}
</style>
<path class="st0" d="M1233.7,393.2l37.7,15l-17.7,39.3l16.5,48.7L60.7,478.8l-51-69.5l40.6-14.6l0.4-73.6  c383.4,12.7,720.4,9.7,1182.7-5.1"/>
<path class="st1" d="M472.1,491.8c0.1,5.1-3.9,9.4-9,9.5c-5.1,0.1-9.4-3.9-9.5-9c-5.5-225,41.9-378.6,103.1-448.1  C581.5,16,608.8,1,636.3,0.1c27.7-1,54.9,12.2,79.2,40.2c55.7,64.2,97.3,210.2,92.5,447.2c-0.1,5.1-4.3,9.2-9.4,9.1  c-5.1-0.1-9.2-4.3-9.1-9.4c4.7-232-34.9-373.5-88-434.7c-20.4-23.5-42.6-34.6-64.6-33.8c-22.2,0.8-45,13.6-66.3,37.8  C512.1,123,466.8,271.9,472.1,491.8L472.1,491.8z"/>
<path class="st2" d="M1062,364.1c-7.9-1.5-8.4-8.1-1.2-9.7l170.6-37.2C861.5,333,475.5,335.6,71.2,323.3l153.6,33.1  c6.3,1.4,6,8.2,0,9.3L51.4,397.3l-17.1,20.6l42,102.5l334.2-14.9c0.2-0.9,0.6-1.7,1.3-2.3c1.6-1.3,3.1-2.9,4.9-3.9  c1.9-1,3.7-2.2,6-2c2.3,0.2,4.1,1.4,4.8,3.7c0.4,1.2,0.2,2.6-0.5,3.8l7.6-0.3c-1.4-0.9-2.3-2.4-2.3-4.2c-0.1-2.6,2.4-5.1,5-5  c0.1,0,0.1,0,0.2,0c0.2,0,0.3,0,0.5,0c0.6,0,1.1,0.1,1.5,0.2c2.8,0.4,5.6,1.3,7.7,3.1c0.1,0.1,0.3,0.2,0.4,0.3  c0.3,0.2,0.6,0.4,0.9,0.7c0,0,0.1,0.1,0.1,0.1c0,0,0,0.1,0.1,0.1c0.2,0.2,0.4,0.4,0.5,0.7c0.2,0.2,0.4,0.3,0.6,0.5  c0.1,0.1,0.2,0.2,0.3,0.3c0,0,0.1,0,0.1,0.1c0,0,0,0,0.1,0c0.2,0.1,0.4,0.3,0.5,0.5c0,0,0,0,0,0c0.1,0.1,0.3,0.3,0.4,0.5  c0.4,0.4,0.7,0.9,0.9,1.5l100.7-4.5l261.9,7.7c0.3-0.8,0.8-1.5,1.5-2.1c0.6-1.6,1.9-2.8,4-2.9c0.2-0.1,0.3-0.2,0.5-0.2  c0.8-0.8,1.9-1.3,3.4-1.3c3.4,0,5,2.7,4.8,5.4c0,0.5,0,1.1-0.2,1.6l11.6,0.3c-1.5-3,0-7.4,4.3-7.4c1.6,0,2.8,0.6,3.6,1.6  c1,0.2,1.7,0.6,2.3,1.2c2.6,0.5,3.8,2.8,3.8,5.1l66.3,2l311-82.4l2-21.6l-5.2-10.2L1062,364.1z"/>
<path class="st3" d="M837.6,503.8c24.6,0,44.6,18.5,44.6,41.4c0,22.8-20,41.4-44.6,41.4c-24.6,0-44.6-18.5-44.6-41.4  C793,522.3,813,503.8,837.6,503.8L837.6,503.8z"/>
<path class="st3" d="M432.5,500.9c24.6,0,44.6,18.5,44.6,41.4c0,22.8-20,41.4-44.6,41.4c-24.6,0-44.6-18.5-44.6-41.4  C387.9,519.4,407.9,500.9,432.5,500.9L432.5,500.9z"/>
<path class="st0" d="M417.8,498.1c-2.6-37.3-0.3-76.1,2.6-115.7c-162.8,2.5-318.1,7.2-410.7,25.9C6.5,770.4,17,1140.7,0,1494.8  c430.3-6.1,860-5.7,1289.2,0c-22.1-321.7-11.9-724.3-17.8-1086.5c-138.5-11.7-280.2-19.3-426.3-21.3c2.5,37.7,3.3,72.6,1.7,111.4"/>
<path class="st0" d="M820.6,503.6c0.3-45.5,4.6-89.3-1.1-116.4c-11.4-0.5-359-5.1-371-4.5c-4.3,36.6-4.1,93.7-0.8,118.5"/>
<ellipse class="st4" cx="431.4" cy="515.3" rx="26.6" ry="23"/>
<ellipse class="st5" cx="431.4" cy="515.3" rx="22.3" ry="19.4"/>
<g>
	<g>
		<path class="st6" d="M429.8,517.1c7.7,0,7.7-12,0-12C422.1,505.1,422.1,517.1,429.8,517.1L429.8,517.1z"/>
	</g>
</g>
<ellipse class="st4" cx="835" cy="512.4" rx="26.6" ry="23"/>
<ellipse class="st5" cx="835" cy="512.4" rx="22.3" ry="19.4"/>
<path class="st6" d="M440,515.5c0.1,5.1-3.9,9.4-9,9.5c-5.1,0.1-9.4-3.9-9.5-9C415,289.7,471.6,135.2,545,64.8  c29.5-28.3,62-43.4,94.4-44.4c32.6-1,64.8,12.2,93.8,40.3c66.8,65,116.6,211.9,110.9,450.4c-0.1,5.1-4.4,9.2-9.5,9  c-5.1-0.1-9.2-4.4-9-9.5c5.6-232.7-41.7-374.8-105.3-436.6c-25.1-24.4-52.7-35.9-80.3-35.1c-27.8,0.8-55.9,14.1-82.1,39.2  C487.8,145.4,433.6,295,440,515.5L440,515.5z"/>
<linearGradient id="SVGID_1_" gradientUnits="userSpaceOnUse" x1="47.6753" y1="381.6939" x2="229.3667" y2="381.6939">
	<stop offset="0" style="stop-color:#EAF1F7"/>
	<stop offset="0.2669" style="stop-color:#E7EEF4"/>
	<stop offset="0.4975" style="stop-color:#DCE5EC"/>
	<stop offset="0.7146" style="stop-color:#CAD5DF"/>
	<stop offset="0.9223" style="stop-color:#B1C0CD"/>
	<stop offset="1" style="stop-color:#A6B6C4"/>
</linearGradient>
<path class="st7" d="M229.4,361.6l0,25.7L192,389c-49.6,1.1-97.9,7.3-144.3,12.8l3.7-4.5l120.6-22l52.7-9.6c1.1-0.2,2.2-0.6,3-1.4  C228.6,363.6,229.1,362.7,229.4,361.6L229.4,361.6z"/>
<linearGradient id="SVGID_2_" gradientUnits="userSpaceOnUse" x1="1055.1094" y1="382.2434" x2="1233.8052" y2="382.2434">
	<stop offset="0" style="stop-color:#A6B6C4"/>
	<stop offset="8.077520e-002" style="stop-color:#B2C0CD"/>
	<stop offset="0.2859" style="stop-color:#CBD6DF"/>
	<stop offset="0.501" style="stop-color:#DCE5ED"/>
	<stop offset="0.7307" style="stop-color:#E7EEF4"/>
	<stop offset="1" style="stop-color:#EAF1F7"/>
</linearGradient>
<path class="st8" d="M1055.7,359.3l-0.6,34.4l37.4,2c49.7,2.3,80.9,5.1,141.3,9.5l-5.3-9.5l-0.8-0.1l-107.9-20.5l-49.8-9.5  c-1.1-0.2-9.6-1.5-10.4-2.2C1056.8,362.4,1055.9,360.4,1055.7,359.3L1055.7,359.3z"/>
<polygon class="st9" points="281.2,778.5 130,778.5 130,671.6 562.6,671.6 562.6,778.5 408.9,778.5 408.9,1234.5 281.2,1234.5   281.2,778.5 "/>
<path class="st9" d="M786.7,1234.5L606.4,671.6h139.5l68.5,238c19.2,66.8,36.7,131.1,50,201.3h2.5c14.2-67.7,31.7-134.5,50.9-198.8  l71.9-240.5H1125l-189.6,562.9H786.7L786.7,1234.5z"/>
<path class="st10" d="M1520.5,976.6c0,110.3,51.8,187.8,136.8,187.8c86,0,135.2-81.8,135.2-191.2c0-100.9-48.4-187.7-136-187.7  C1570.6,785.6,1520.5,867.4,1520.5,976.6L1520.5,976.6z M1926.9,969.2c0,184.4-111.8,296.3-276.2,296.3  c-166.9,0-264.5-126.1-264.5-286.3c0-168.5,107.6-294.5,273.7-294.5C1832.6,684.7,1926.9,814,1926.9,969.2L1926.9,969.2z"/>
<path class="st10" d="M2010.7,693.8h126v248.6h2.5c12.5-21.7,25.9-41.7,38.4-61.7l127.7-186.9h156l-186,239.5l196.1,322.9h-148.5  l-137.7-242.8l-48.4,59.3v183.6h-126V693.8L2010.7,693.8z"/>
<path class="st10" d="M2807.9,1016.8l-35.1-119.3c-10-33.4-20-75.1-28.4-108.5h-1.6c-8.3,33.4-16.7,75.9-25.9,108.5l-33.4,119.3  H2807.9L2807.9,1016.8z M2665.2,1111.9l-40.1,144.3h-131.8l171.9-562.4h166.9l174.4,562.4h-136.9l-43.4-144.3H2665.2L2665.2,1111.9z  "/>
<polygon class="st10" points="3050.9,1187.9 3318.8,802.3 3318.8,799 3076,799 3076,693.8 3484,693.8 3484,767.3 3222,1147.8   3222,1151.1 3488.3,1151.1 3488.3,1256.2 3050.9,1256.2 3050.9,1187.9 "/>
<path class="st10" d="M3697.2,693.8h126.8v355.5c0,160.2-76.7,216.2-200.2,216.2c-29.3,0-67.6-5-92.6-13.4l14.1-102.7  c17.5,5.8,40.1,10.1,65.1,10.1c53.4,0,86.8-24.2,86.8-111.8V693.8L3697.2,693.8z"/>
<polygon class="st10" points="4264.7,1018.4 4057.9,1018.4 4057.9,1152 4289,1152 4289,1256.2 3930.2,1256.2 3930.2,693.8   4277.3,693.8 4277.3,798.1 4057.9,798.1 4057.9,915 4264.7,915 4264.7,1018.4 "/>
<g>
	<path class="st5" d="M283.2,777.6h-152V670.7h432.5v106.9H410.1v455.9H283.2V777.6z"/>
	<path class="st5" d="M787.5,1233.5L607.1,670.7h139.4l68.5,238c19.2,67.6,36.7,131.1,50.1,201.2h2.5   c14.2-67.6,31.7-134.4,50.9-198.7l71.8-240.5h135.3l-189.5,562.8H787.5z"/>
	<path d="M1593.3,1242.7c-166.2,0-264.7-126.1-264.7-286.4c0-168.7,108.6-294.8,273.9-294.8c172.8,0,267.2,129.4,267.2,284.7   c0,185.4-111.1,296.4-275.6,296.4H1593.3z M1599.9,1141.7c86,0,135.3-81,135.3-191.2c0-101-47.6-187.9-135.3-187.9   S1463,847.7,1463,952.9c0,106,50.9,188.7,136.1,188.7H1599.9z"/>
	<path d="M1953.1,670.7h126.1v248.8h1.7c12.5-21.7,25.9-41.8,39.2-61.8l126.9-187h157l-186.2,239.6l195.4,323.1h-147.8l-138.6-243   l-47.6,59.3v183.7h-126.1V670.7z"/>
	<path d="M2606.9,1089l-39.2,144.5h-131.9l172-562.8h166.2l175.4,562.8h-136.9l-43.4-144.5H2606.9z M2749.7,993.9l-35.1-119.4   c-9.2-33.4-19.2-76-27.6-108.6h-2.5c-7.5,33.4-16.7,76-25.1,108.6l-34.2,119.4H2749.7z"/>
	<path d="M2994.3,1165l268-386.6v-2.5h-243.8V670.7h408.3v73.5L3164.7,1125v3.3h266.4v105.2h-436.7V1165z"/>
	<path d="M3639.8,670.7h126.9v355.7c0,160.3-76.8,216.3-199.6,216.3c-30.1,0-68.5-5-93.5-13.4l14.2-102.7c17.5,5.8,40.1,10,65.1,10   c53.4,0,86.8-24.2,86.8-111.1V670.7z"/>
	<path d="M4207.6,995.5h-207.1v133.6h231.3v104.4h-358.2V670.7h346.5v104.4h-219.6V892h207.1V995.5z"/>
</g>
</svg>