<?xml version="1.0" encoding="utf-8"?>
<!-- Generator: Adobe Illustrator 16.0.0, SVG Export Plug-In . SVG Version: 6.00 Build 0)  -->
<!DOCTYPE svg PUBLIC "-//W3C//DTD SVG 1.1//EN" "http://www.w3.org/Graphics/SVG/1.1/DTD/svg11.dtd">
<svg version="1.1" id="Layer_1" xmlns="http://www.w3.org/2000/svg" xmlns:xlink="http://www.w3.org/1999/xlink" x="0px" y="0px"
	 width="96px" height="96px" viewBox="0 0 96 96" enable-background="new 0 0 96 96" xml:space="preserve">
<g>
	<path d="M93.382,45.781C92.558,44.857,72.906,23.129,48,23.129c-24.905,0-44.558,21.729-45.382,22.652L0.641,48l1.977,2.219
		C3.442,51.143,23.095,72.871,48,72.871c24.906,0,44.558-21.729,45.382-22.652L95.359,48L93.382,45.781z M48,66.151
		C30.591,66.151,15.415,53.28,9.922,48C15.417,42.719,30.593,29.849,48,29.849c17.409,0,32.585,12.871,38.078,18.151
		C80.583,53.281,65.407,66.151,48,66.151z"/>
	<path d="M30.592,48c0,9.483,7.793,17.172,17.408,17.172S65.408,57.483,65.408,48S57.614,30.828,48,30.828S30.592,38.517,30.592,48z
		 M59.042,45.431v5.139h-8.438v8.324h-5.209v-8.324h-8.438v-5.139h8.438v-8.324h5.209v8.324H59.042z"/>
</g>
</svg>
