%!PS-Adobe-3.0 EPSF-3.0
%%Creator: cairo 1.10.2 (http://cairographics.org)
%%CreationDate: Fri Jul  4 09:36:44 2014
%%Pages: 1
%%BoundingBox: 0 -1 73 73
%%DocumentData: Clean7Bit
%%LanguageLevel: 2
%%EndComments
%%BeginProlog
/cairo_eps_state save def
/dict_count countdictstack def
/op_count count 1 sub def
userdict begin
/q { gsave } bind def
/Q { grestore } bind def
/cm { 6 array astore concat } bind def
/w { setlinewidth } bind def
/J { setlinecap } bind def
/j { setlinejoin } bind def
/M { setmiterlimit } bind def
/d { setdash } bind def
/m { moveto } bind def
/l { lineto } bind def
/c { curveto } bind def
/h { closepath } bind def
/re { exch dup neg 3 1 roll 5 3 roll moveto 0 rlineto
      0 exch rlineto 0 rlineto closepath } bind def
/S { stroke } bind def
/f { fill } bind def
/f* { eofill } bind def
/n { newpath } bind def
/W { clip } bind def
/W* { eoclip } bind def
/BT { } bind def
/ET { } bind def
/pdfmark where { pop globaldict /?pdfmark /exec load put }
    { globaldict begin /?pdfmark /pop load def /pdfmark
    /cleartomark load def end } ifelse
/BDC { mark 3 1 roll /BDC pdfmark } bind def
/EMC { mark /EMC pdfmark } bind def
/cairo_store_point { /cairo_point_y exch def /cairo_point_x exch def } def
/Tj { show currentpoint cairo_store_point } bind def
/TJ {
  {
    dup
    type /stringtype eq
    { show } { -0.001 mul 0 cairo_font_matrix dtransform rmoveto } ifelse
  } forall
  currentpoint cairo_store_point
} bind def
/cairo_selectfont { cairo_font_matrix aload pop pop pop 0 0 6 array astore
    cairo_font exch selectfont cairo_point_x cairo_point_y moveto } bind def
/Tf { pop /cairo_font exch def /cairo_font_matrix where
      { pop cairo_selectfont } if } bind def
/Td { matrix translate cairo_font_matrix matrix concatmatrix dup
      /cairo_font_matrix exch def dup 4 get exch 5 get cairo_store_point
      /cairo_font where { pop cairo_selectfont } if } bind def
/Tm { 2 copy 8 2 roll 6 array astore /cairo_font_matrix exch def
      cairo_store_point /cairo_font where { pop cairo_selectfont } if } bind def
/g { setgray } bind def
/rg { setrgbcolor } bind def
/d1 { setcachedevice } bind def
%%EndProlog
%%Page: 1 1
%%BeginPageSetup
%%PageBoundingBox: 0 -1 73 73
%%EndPageSetup
q 0 -1 73 74 rectclip q
0 72.575 73 -73 re W n
0 g
71.508 16.575 m 54.73 30.536 l 54.152 31.016 53.398 31.219 52.66 31.09 
c 50.039 30.625 47.645 29.399 45.727 27.536 c 44.793 26.625 l 43.883 
25.743 43.105 24.743 42.477 23.657 c 41.879 22.614 l 40.898 23.313 l 
34.105 28.164 28.016 34.254 23.164 41.047 c 22.465 42.028 l 23.508 
42.629 l 24.594 43.254 25.59 44.032 26.473 44.942 c 27.391 45.883 l 
29.25 47.797 30.48 50.192 30.941 52.813 c 31.07 53.551 30.867 54.305 
30.391 54.879 c 16.426 71.657 l 16.375 71.719 16.32 71.778 16.266 
71.832 c 15.812 72.286 15.207 72.547 14.562 72.571 c 11.66 72.68 5.664 
70.235 2.418 65.536 c 0.391 62.598 -1.402 57.614 1.578 50.555 c 1.617 
50.465 l 6.715 39.571 13.223 30.149 21.512 21.664 c 21.543 21.633 l 
30.008 13.36 39.418 6.864 50.316 1.77 c 50.402 1.731 l 57.465 -1.253 
62.449 0.543 65.387 2.571 c 70.086 5.817 72.531 11.809 72.422 14.715 c 
72.395 15.434 72.07 16.114 71.508 16.575 c h
71.508 16.575 m f
50.996 40.879 m 43.141 40.879 l 43.141 40.942 l 45.062 42.547 l 48.078 
45.239 50.613 48.032 50.613 51.528 c 50.613 55.313 48.012 58.071 43.301 
58.071 c 40.477 58.071 38.039 57.106 36.469 55.918 c 37.848 52.422 l 
38.938 53.258 40.512 54.157 42.305 54.157 c 44.711 54.157 45.738 52.809 
45.738 51.11 c 45.676 48.668 43.457 46.329 38.906 42.258 c 36.211 
39.821 l 36.211 36.872 l 50.996 36.872 l h
50.996 40.879 m f
62.648 36.872 m 67.266 36.872 l 67.266 41.844 l 69.77 41.844 l 69.77 
45.497 l 67.266 45.497 l 67.266 57.715 l 61.305 57.715 l 53.41 45.016 l 
53.41 41.84 l 62.648 41.84 l h
57.965 45.497 m 57.965 45.559 l 60.758 50.114 l 61.461 51.43 62.008 
52.649 62.68 53.997 c 62.809 53.997 l 62.711 52.649 62.648 51.364 
62.648 50.114 c 62.648 45.497 l h
57.965 45.497 m f
3.398 16.836 m 12.953 16.836 l 12.953 16.774 l 4.359 0 l 9.523 0 l 
18.117 17.77 l 18.117 20.848 l 3.398 20.848 l h
3.398 16.836 m f
Q Q
showpage
%%Trailer
count op_count sub {pop} repeat
countdictstack dict_count sub {end} repeat
cairo_eps_state restore
%%EOF
