%!PS-Adobe-3.0 EPSF-3.0
%%Creator: cairo 1.10.2 (http://cairographics.org)
%%CreationDate: Fri Jul  4 08:49:31 2014
%%Pages: 1
%%BoundingBox: 0 -1 75 47
%%DocumentData: Clean7Bit
%%LanguageLevel: 2
%%EndComments
%%BeginProlog
/cairo_eps_state save def
/dict_count countdictstack def
/op_count count 1 sub def
userdict begin
/q { gsave } bind def
/Q { grestore } bind def
/cm { 6 array astore concat } bind def
/w { setlinewidth } bind def
/J { setlinecap } bind def
/j { setlinejoin } bind def
/M { setmiterlimit } bind def
/d { setdash } bind def
/m { moveto } bind def
/l { lineto } bind def
/c { curveto } bind def
/h { closepath } bind def
/re { exch dup neg 3 1 roll 5 3 roll moveto 0 rlineto
      0 exch rlineto 0 rlineto closepath } bind def
/S { stroke } bind def
/f { fill } bind def
/f* { eofill } bind def
/n { newpath } bind def
/W { clip } bind def
/W* { eoclip } bind def
/BT { } bind def
/ET { } bind def
/pdfmark where { pop globaldict /?pdfmark /exec load put }
    { globaldict begin /?pdfmark /pop load def /pdfmark
    /cleartomark load def end } ifelse
/BDC { mark 3 1 roll /BDC pdfmark } bind def
/EMC { mark /EMC pdfmark } bind def
/cairo_store_point { /cairo_point_y exch def /cairo_point_x exch def } def
/Tj { show currentpoint cairo_store_point } bind def
/TJ {
  {
    dup
    type /stringtype eq
    { show } { -0.001 mul 0 cairo_font_matrix dtransform rmoveto } ifelse
  } forall
  currentpoint cairo_store_point
} bind def
/cairo_selectfont { cairo_font_matrix aload pop pop pop 0 0 6 array astore
    cairo_font exch selectfont cairo_point_x cairo_point_y moveto } bind def
/Tf { pop /cairo_font exch def /cairo_font_matrix where
      { pop cairo_selectfont } if } bind def
/Td { matrix translate cairo_font_matrix matrix concatmatrix dup
      /cairo_font_matrix exch def dup 4 get exch 5 get cairo_store_point
      /cairo_font where { pop cairo_selectfont } if } bind def
/Tm { 2 copy 8 2 roll 6 array astore /cairo_font_matrix exch def
      cairo_store_point /cairo_font where { pop cairo_selectfont } if } bind def
/g { setgray } bind def
/rg { setrgbcolor } bind def
/d1 { setcachedevice } bind def
%%EndProlog
%%Page: 1 1
%%BeginPageSetup
%%PageBoundingBox: 0 -1 75 47
%%EndPageSetup
q 0 -1 75 48 rectclip q
0 46.253 75 -47 re W n
0 g
26.492 20.604 m 15.23 -0.001 l 35.277 -0.001 l 33.633 20.604 l h
26.492 20.604 m f
38.727 -0.001 m 45.598 -0.001 l 47.973 20.604 l 37.078 20.604 l h
38.727 -0.001 m f
20.605 33.018 m 20.723 32.749 20.844 32.483 20.949 32.206 c 24.16 
33.429 l 23.203 35.932 21.82 38.026 20.605 39.565 c 20.605 39.737 l 
22.047 40.6 23.398 41.007 24.234 40.784 c 25.133 44.097 l 23.824 44.452 
22.262 44.257 20.605 43.577 c 20.605 46.253 l 0 46.253 l 0 39.765 l 
17.934 37.413 l 18.727 36.405 19.594 35.124 20.32 33.636 c 0 36.3 l 0 
23.843 l 20.605 25.03 l h
20.605 33.018 m f
49.395 -0.001 m 56.203 -0.001 l 56.203 20.604 l 51.773 20.604 l h
49.395 -0.001 m f
20.605 20.604 m 20.605 21.589 l 0 20.401 l 0 13.737 l 0 6.948 4.953 
1.311 11.43 0.21 c 22.578 20.604 l h
20.605 20.604 m f
73.918 11.589 m 73.918 12.425 73.566 13.171 73.008 13.702 c 74.02 14.21 
74.719 15.245 74.719 16.456 c 74.719 18.163 73.336 19.546 71.629 19.546 
c 59.895 19.546 l 59.895 1.061 l 69.625 1.061 l 71.238 1.061 72.543 
2.366 72.543 3.979 c 72.543 4.386 72.461 4.772 72.312 5.124 c 72.875 
5.655 73.23 6.405 73.23 7.241 c 73.23 7.96 72.961 8.608 72.531 9.116 c 
73.363 9.632 73.918 10.542 73.918 11.589 c h
73.918 11.589 m f
55.203 29.401 m 54.004 29.401 53.031 28.429 53.031 27.225 c 52.344 
22.96 l 56.691 22.96 l 57.379 27.225 l 57.379 28.429 56.406 29.401 
55.203 29.401 c h
55.203 29.401 m f
Q Q
showpage
%%Trailer
count op_count sub {pop} repeat
countdictstack dict_count sub {end} repeat
cairo_eps_state restore
%%EOF
