%!PS-Adobe-3.0 EPSF-3.0
%%Creator: cairo 1.10.2 (http://cairographics.org)
%%CreationDate: Fri Jul  4 08:49:26 2014
%%Pages: 1
%%BoundingBox: 0 -1 75 75
%%DocumentData: Clean7Bit
%%LanguageLevel: 2
%%EndComments
%%BeginProlog
/cairo_eps_state save def
/dict_count countdictstack def
/op_count count 1 sub def
userdict begin
/q { gsave } bind def
/Q { grestore } bind def
/cm { 6 array astore concat } bind def
/w { setlinewidth } bind def
/J { setlinecap } bind def
/j { setlinejoin } bind def
/M { setmiterlimit } bind def
/d { setdash } bind def
/m { moveto } bind def
/l { lineto } bind def
/c { curveto } bind def
/h { closepath } bind def
/re { exch dup neg 3 1 roll 5 3 roll moveto 0 rlineto
      0 exch rlineto 0 rlineto closepath } bind def
/S { stroke } bind def
/f { fill } bind def
/f* { eofill } bind def
/n { newpath } bind def
/W { clip } bind def
/W* { eoclip } bind def
/BT { } bind def
/ET { } bind def
/pdfmark where { pop globaldict /?pdfmark /exec load put }
    { globaldict begin /?pdfmark /pop load def /pdfmark
    /cleartomark load def end } ifelse
/BDC { mark 3 1 roll /BDC pdfmark } bind def
/EMC { mark /EMC pdfmark } bind def
/cairo_store_point { /cairo_point_y exch def /cairo_point_x exch def } def
/Tj { show currentpoint cairo_store_point } bind def
/TJ {
  {
    dup
    type /stringtype eq
    { show } { -0.001 mul 0 cairo_font_matrix dtransform rmoveto } ifelse
  } forall
  currentpoint cairo_store_point
} bind def
/cairo_selectfont { cairo_font_matrix aload pop pop pop 0 0 6 array astore
    cairo_font exch selectfont cairo_point_x cairo_point_y moveto } bind def
/Tf { pop /cairo_font exch def /cairo_font_matrix where
      { pop cairo_selectfont } if } bind def
/Td { matrix translate cairo_font_matrix matrix concatmatrix dup
      /cairo_font_matrix exch def dup 4 get exch 5 get cairo_store_point
      /cairo_font where { pop cairo_selectfont } if } bind def
/Tm { 2 copy 8 2 roll 6 array astore /cairo_font_matrix exch def
      cairo_store_point /cairo_font where { pop cairo_selectfont } if } bind def
/g { setgray } bind def
/rg { setrgbcolor } bind def
/d1 { setcachedevice } bind def
%%EndProlog
%%Page: 1 1
%%BeginPageSetup
%%PageBoundingBox: 0 -1 75 75
%%EndPageSetup
q 0 -1 75 76 rectclip q
0 74.525 75 -75 re W n
0 g
72.301 61.385 m 61.387 72.303 l 58.422 75.267 53.613 75.267 50.648 
72.303 c 2.223 23.877 l -0.742 20.912 -0.742 16.107 2.223 13.138 c 
13.141 2.224 l 16.105 -0.74 20.91 -0.74 23.879 2.224 c 72.301 50.646 l 
75.266 53.611 75.266 58.42 72.301 61.385 c h
46.215 31.896 m 46.09 32.428 45.828 32.928 45.418 33.338 c 44.234 
34.525 42.309 34.525 41.125 33.338 c 39.938 32.154 39.938 30.228 41.125 
29.045 c 41.535 28.631 42.039 28.373 42.566 28.248 c 34.832 20.513 l 
34.707 21.045 34.449 21.545 34.035 21.959 c 33.262 22.728 32.18 22.99 
31.191 22.756 c 26.781 27.166 l 27.016 28.154 26.754 29.236 25.984 
30.01 c 25.211 30.783 24.125 31.041 23.137 30.81 c 19.812 34.131 l 
22.25 36.568 l 22.375 36.041 22.633 35.537 23.047 35.127 c 24.23 33.939 
26.156 33.939 27.34 35.127 c 28.527 36.31 28.527 38.236 27.34 39.42 c 
26.93 39.834 26.426 40.092 25.898 40.217 c 33.883 48.201 l 34.008 
47.674 34.27 47.174 34.68 46.76 c 35.867 45.576 37.789 45.576 38.973 
46.76 c 40.16 47.947 40.16 49.869 38.973 51.056 c 38.562 51.467 38.062 
51.728 37.535 51.853 c 40.395 54.709 l 43.406 51.697 l 42.367 50.506 
42.402 48.701 43.539 47.564 c 44.676 46.431 46.48 46.392 47.672 47.431 
c 51.461 43.646 l 50.422 42.451 50.457 40.65 51.594 39.513 c 52.004 
39.099 52.508 38.842 53.035 38.717 c h
46.215 31.896 m f
47.918 40.853 m 47.918 39.178 46.559 37.818 44.883 37.818 c 43.203 
37.818 41.844 39.178 41.844 40.853 c 41.844 42.533 43.203 43.892 44.883 
43.892 c 46.559 43.892 47.918 42.533 47.918 40.853 c h
47.918 40.853 m f
36.281 29.221 m 36.281 27.545 34.922 26.181 33.246 26.181 c 31.57 
26.181 30.207 27.545 30.207 29.221 c 30.207 30.896 31.57 32.256 33.246 
32.256 c 34.922 32.256 36.281 30.896 36.281 29.221 c h
36.281 29.221 m f
38.254 39.244 m 38.254 37.568 36.895 36.209 35.219 36.209 c 33.539 
36.209 32.18 37.568 32.18 39.244 c 32.18 40.924 33.539 42.283 35.219 
42.283 c 36.895 42.283 38.254 40.924 38.254 39.244 c h
38.254 39.244 m f
Q Q
showpage
%%Trailer
count op_count sub {pop} repeat
countdictstack dict_count sub {end} repeat
cairo_eps_state restore
%%EOF
