%!PS-Adobe-3.0 EPSF-3.0
%%Creator: cairo 1.10.2 (http://cairographics.org)
%%CreationDate: Fri Jul  4 08:49:15 2014
%%Pages: 1
%%BoundingBox: 0 -1 76 52
%%DocumentData: Clean7Bit
%%LanguageLevel: 2
%%EndComments
%%BeginProlog
/cairo_eps_state save def
/dict_count countdictstack def
/op_count count 1 sub def
userdict begin
/q { gsave } bind def
/Q { grestore } bind def
/cm { 6 array astore concat } bind def
/w { setlinewidth } bind def
/J { setlinecap } bind def
/j { setlinejoin } bind def
/M { setmiterlimit } bind def
/d { setdash } bind def
/m { moveto } bind def
/l { lineto } bind def
/c { curveto } bind def
/h { closepath } bind def
/re { exch dup neg 3 1 roll 5 3 roll moveto 0 rlineto
      0 exch rlineto 0 rlineto closepath } bind def
/S { stroke } bind def
/f { fill } bind def
/f* { eofill } bind def
/n { newpath } bind def
/W { clip } bind def
/W* { eoclip } bind def
/BT { } bind def
/ET { } bind def
/pdfmark where { pop globaldict /?pdfmark /exec load put }
    { globaldict begin /?pdfmark /pop load def /pdfmark
    /cleartomark load def end } ifelse
/BDC { mark 3 1 roll /BDC pdfmark } bind def
/EMC { mark /EMC pdfmark } bind def
/cairo_store_point { /cairo_point_y exch def /cairo_point_x exch def } def
/Tj { show currentpoint cairo_store_point } bind def
/TJ {
  {
    dup
    type /stringtype eq
    { show } { -0.001 mul 0 cairo_font_matrix dtransform rmoveto } ifelse
  } forall
  currentpoint cairo_store_point
} bind def
/cairo_selectfont { cairo_font_matrix aload pop pop pop 0 0 6 array astore
    cairo_font exch selectfont cairo_point_x cairo_point_y moveto } bind def
/Tf { pop /cairo_font exch def /cairo_font_matrix where
      { pop cairo_selectfont } if } bind def
/Td { matrix translate cairo_font_matrix matrix concatmatrix dup
      /cairo_font_matrix exch def dup 4 get exch 5 get cairo_store_point
      /cairo_font where { pop cairo_selectfont } if } bind def
/Tm { 2 copy 8 2 roll 6 array astore /cairo_font_matrix exch def
      cairo_store_point /cairo_font where { pop cairo_selectfont } if } bind def
/g { setgray } bind def
/rg { setrgbcolor } bind def
/d1 { setcachedevice } bind def
%%EndProlog
%%Page: 1 1
%%BeginPageSetup
%%PageBoundingBox: 0 -1 76 52
%%EndPageSetup
q 0 -1 76 53 rectclip q
0 51.25 76 -52 re W n
0 g
0.004 20.774 m 33.383 32.661 l 33.383 31.508 l 20.91 0 l 19.078 0 l 
-0.68 0 0.004 20.774 0.004 20.774 c h
0.004 20.774 m f
58.895 22.325 m 52.566 24.188 l 41.516 0 l 60.293 0 l 60.293 0.157 l h
58.895 22.325 m f
47.941 25.547 m 36.273 0 l 26.02 0 l 37.09 28.743 l h
47.941 25.547 m f
75.207 10.207 m 75.207 7.012 72.617 4.422 69.422 4.422 c 63.285 4.422 l 
62.605 17.856 l 69.422 15.989 l 73.238 15.075 75.207 12.547 75.207 
10.207 c h
75.207 10.207 m f
34.074 41.082 m 35.395 42.168 36.695 42.778 37.57 42.676 c 37.98 46.145 
l 36.625 46.305 34.938 45.645 33.383 44.731 c 33.383 51.25 l 0.004 
51.25 l 0.004 44.633 l 33.324 44.633 l 32.141 39.864 l 0.004 39.864 l 
0.004 26.004 l 32.621 37.446 l 33.316 36.715 34.031 35.864 34.695 
34.895 c 35.074 34.321 l 35.234 34.067 35.395 33.817 35.543 33.551 c 
38.59 35.262 l 37.258 37.637 35.527 39.715 34.074 41.082 c h
34.074 41.082 m f
Q Q
showpage
%%Trailer
count op_count sub {pop} repeat
countdictstack dict_count sub {end} repeat
cairo_eps_state restore
%%EOF
