%!PS-Adobe-3.0 EPSF-3.0
%%Creator: cairo 1.10.2 (http://cairographics.org)
%%CreationDate: Fri Jul  4 08:48:46 2014
%%Pages: 1
%%BoundingBox: 0 -1 77 53
%%DocumentData: Clean7Bit
%%LanguageLevel: 2
%%EndComments
%%BeginProlog
/cairo_eps_state save def
/dict_count countdictstack def
/op_count count 1 sub def
userdict begin
/q { gsave } bind def
/Q { grestore } bind def
/cm { 6 array astore concat } bind def
/w { setlinewidth } bind def
/J { setlinecap } bind def
/j { setlinejoin } bind def
/M { setmiterlimit } bind def
/d { setdash } bind def
/m { moveto } bind def
/l { lineto } bind def
/c { curveto } bind def
/h { closepath } bind def
/re { exch dup neg 3 1 roll 5 3 roll moveto 0 rlineto
      0 exch rlineto 0 rlineto closepath } bind def
/S { stroke } bind def
/f { fill } bind def
/f* { eofill } bind def
/n { newpath } bind def
/W { clip } bind def
/W* { eoclip } bind def
/BT { } bind def
/ET { } bind def
/pdfmark where { pop globaldict /?pdfmark /exec load put }
    { globaldict begin /?pdfmark /pop load def /pdfmark
    /cleartomark load def end } ifelse
/BDC { mark 3 1 roll /BDC pdfmark } bind def
/EMC { mark /EMC pdfmark } bind def
/cairo_store_point { /cairo_point_y exch def /cairo_point_x exch def } def
/Tj { show currentpoint cairo_store_point } bind def
/TJ {
  {
    dup
    type /stringtype eq
    { show } { -0.001 mul 0 cairo_font_matrix dtransform rmoveto } ifelse
  } forall
  currentpoint cairo_store_point
} bind def
/cairo_selectfont { cairo_font_matrix aload pop pop pop 0 0 6 array astore
    cairo_font exch selectfont cairo_point_x cairo_point_y moveto } bind def
/Tf { pop /cairo_font exch def /cairo_font_matrix where
      { pop cairo_selectfont } if } bind def
/Td { matrix translate cairo_font_matrix matrix concatmatrix dup
      /cairo_font_matrix exch def dup 4 get exch 5 get cairo_store_point
      /cairo_font where { pop cairo_selectfont } if } bind def
/Tm { 2 copy 8 2 roll 6 array astore /cairo_font_matrix exch def
      cairo_store_point /cairo_font where { pop cairo_selectfont } if } bind def
/g { setgray } bind def
/rg { setrgbcolor } bind def
/d1 { setcachedevice } bind def
%%EndProlog
%%Page: 1 1
%%BeginPageSetup
%%PageBoundingBox: 0 -1 77 53
%%EndPageSetup
q 0 -1 77 54 rectclip q
0 52.965 77 -53 re W n
0 g
64.383 51.879 11.855 -3.406 re f
46.258 52.965 m 29.328 52.965 l 25.312 52.965 21.945 50.191 21.008 
46.465 c 5.109 46.465 l 5.109 47.738 l 5.109 49.152 3.965 50.297 2.555 
50.297 c 1.145 50.297 0 49.152 0 47.738 c 0 41.578 l 0 40.168 1.145 
39.023 2.555 39.023 c 2.566 39.023 2.574 39.027 2.586 39.027 c 2.586 
39.023 l 76.238 39.023 l 76.238 46.465 l 54.578 46.465 l 53.645 50.191 
50.273 52.965 46.258 52.965 c h
29.328 49.246 m 46.258 49.246 l 48.195 49.246 49.855 48.102 50.641 
46.465 c 24.945 46.465 l 25.73 48.102 27.395 49.246 29.328 49.246 c h
29.328 49.246 m f
67.055 11.617 m 66.02 11.617 65.051 11.34 64.211 10.867 c 64.211 13.609 
l 60.871 13.609 l 44.348 24.93 l 60.016 35.66 l 50.145 35.66 l 39.41 
28.309 l 28.676 35.66 l 18.809 35.66 l 34.477 24.93 l 17.953 13.609 l 
14.613 13.609 l 14.613 10.867 l 13.773 11.34 12.805 11.617 11.77 11.617 
c 8.562 11.617 5.961 9.016 5.961 5.809 c 5.961 2.602 8.562 -0 11.77 -0 
c 14.977 -0 17.574 2.602 17.574 5.809 c 17.574 6.598 17.418 7.352 
17.133 8.035 c 61.691 8.035 l 61.406 7.352 61.246 6.598 61.246 5.809 c 
61.246 2.602 63.848 -0 67.055 -0 c 70.262 -0 72.863 2.602 72.863 5.809 
c 72.863 9.016 70.262 11.617 67.055 11.617 c h
27.82 13.609 m 39.41 21.551 l 51.004 13.609 l h
27.82 13.609 m f
Q Q
showpage
%%Trailer
count op_count sub {pop} repeat
countdictstack dict_count sub {end} repeat
cairo_eps_state restore
%%EOF
