%!PS-Adobe-3.0 EPSF-3.0
%%Creator: cairo 1.10.2 (http://cairographics.org)
%%CreationDate: Fri Jul  4 08:49:01 2014
%%Pages: 1
%%BoundingBox: 0 -1 74 45
%%DocumentData: Clean7Bit
%%LanguageLevel: 2
%%EndComments
%%BeginProlog
/cairo_eps_state save def
/dict_count countdictstack def
/op_count count 1 sub def
userdict begin
/q { gsave } bind def
/Q { grestore } bind def
/cm { 6 array astore concat } bind def
/w { setlinewidth } bind def
/J { setlinecap } bind def
/j { setlinejoin } bind def
/M { setmiterlimit } bind def
/d { setdash } bind def
/m { moveto } bind def
/l { lineto } bind def
/c { curveto } bind def
/h { closepath } bind def
/re { exch dup neg 3 1 roll 5 3 roll moveto 0 rlineto
      0 exch rlineto 0 rlineto closepath } bind def
/S { stroke } bind def
/f { fill } bind def
/f* { eofill } bind def
/n { newpath } bind def
/W { clip } bind def
/W* { eoclip } bind def
/BT { } bind def
/ET { } bind def
/pdfmark where { pop globaldict /?pdfmark /exec load put }
    { globaldict begin /?pdfmark /pop load def /pdfmark
    /cleartomark load def end } ifelse
/BDC { mark 3 1 roll /BDC pdfmark } bind def
/EMC { mark /EMC pdfmark } bind def
/cairo_store_point { /cairo_point_y exch def /cairo_point_x exch def } def
/Tj { show currentpoint cairo_store_point } bind def
/TJ {
  {
    dup
    type /stringtype eq
    { show } { -0.001 mul 0 cairo_font_matrix dtransform rmoveto } ifelse
  } forall
  currentpoint cairo_store_point
} bind def
/cairo_selectfont { cairo_font_matrix aload pop pop pop 0 0 6 array astore
    cairo_font exch selectfont cairo_point_x cairo_point_y moveto } bind def
/Tf { pop /cairo_font exch def /cairo_font_matrix where
      { pop cairo_selectfont } if } bind def
/Td { matrix translate cairo_font_matrix matrix concatmatrix dup
      /cairo_font_matrix exch def dup 4 get exch 5 get cairo_store_point
      /cairo_font where { pop cairo_selectfont } if } bind def
/Tm { 2 copy 8 2 roll 6 array astore /cairo_font_matrix exch def
      cairo_store_point /cairo_font where { pop cairo_selectfont } if } bind def
/g { setgray } bind def
/rg { setrgbcolor } bind def
/d1 { setcachedevice } bind def
%%EndProlog
%%Page: 1 1
%%BeginPageSetup
%%PageBoundingBox: 0 -1 74 45
%%EndPageSetup
q 0 -1 74 46 rectclip q
0 44.525 75 -45 re W n
0 g
68.879 44.525 m 68.879 36.505 l 67.387 36.505 l 65.27 39.732 61.121 
41.927 56.352 41.927 c 27.762 41.927 l 25.766 43.548 23.223 44.525 
20.449 44.525 c 17.031 44.525 l 11.871 44.525 7.508 41.158 5.992 36.505 
c 5.121 36.505 l 5.121 44.525 l 0 44.525 l 0 19.685 l 5.422 19.685 l 
5.422 9.423 l 4.105 8.478 3.246 6.939 3.246 5.201 c 3.246 2.329 5.574 
0.001 8.445 0.001 c 11.32 0.001 13.645 2.329 13.645 5.201 c 13.645 
6.552 13.125 7.779 12.281 8.704 c 61.523 8.704 l 60.676 7.779 60.156 
6.552 60.156 5.201 c 60.156 2.329 62.484 0.001 65.355 0.001 c 68.227 
0.001 70.555 2.329 70.555 5.201 c 70.555 6.865 69.773 8.341 68.555 
9.294 c 68.555 19.685 l 74 19.685 l 74 44.525 l h
64.234 13.025 m 9.742 13.025 l 9.742 19.685 l 64.234 19.685 l h
64.234 13.025 m f
Q Q
showpage
%%Trailer
count op_count sub {pop} repeat
countdictstack dict_count sub {end} repeat
cairo_eps_state restore
%%EOF
