%!PS-Adobe-3.0 EPSF-3.0
%%Creator: cairo 1.10.2 (http://cairographics.org)
%%CreationDate: Fri Jul  4 09:06:25 2014
%%Pages: 1
%%BoundingBox: 0 -1 76 65
%%DocumentData: Clean7Bit
%%LanguageLevel: 2
%%EndComments
%%BeginProlog
/cairo_eps_state save def
/dict_count countdictstack def
/op_count count 1 sub def
userdict begin
/q { gsave } bind def
/Q { grestore } bind def
/cm { 6 array astore concat } bind def
/w { setlinewidth } bind def
/J { setlinecap } bind def
/j { setlinejoin } bind def
/M { setmiterlimit } bind def
/d { setdash } bind def
/m { moveto } bind def
/l { lineto } bind def
/c { curveto } bind def
/h { closepath } bind def
/re { exch dup neg 3 1 roll 5 3 roll moveto 0 rlineto
      0 exch rlineto 0 rlineto closepath } bind def
/S { stroke } bind def
/f { fill } bind def
/f* { eofill } bind def
/n { newpath } bind def
/W { clip } bind def
/W* { eoclip } bind def
/BT { } bind def
/ET { } bind def
/pdfmark where { pop globaldict /?pdfmark /exec load put }
    { globaldict begin /?pdfmark /pop load def /pdfmark
    /cleartomark load def end } ifelse
/BDC { mark 3 1 roll /BDC pdfmark } bind def
/EMC { mark /EMC pdfmark } bind def
/cairo_store_point { /cairo_point_y exch def /cairo_point_x exch def } def
/Tj { show currentpoint cairo_store_point } bind def
/TJ {
  {
    dup
    type /stringtype eq
    { show } { -0.001 mul 0 cairo_font_matrix dtransform rmoveto } ifelse
  } forall
  currentpoint cairo_store_point
} bind def
/cairo_selectfont { cairo_font_matrix aload pop pop pop 0 0 6 array astore
    cairo_font exch selectfont cairo_point_x cairo_point_y moveto } bind def
/Tf { pop /cairo_font exch def /cairo_font_matrix where
      { pop cairo_selectfont } if } bind def
/Td { matrix translate cairo_font_matrix matrix concatmatrix dup
      /cairo_font_matrix exch def dup 4 get exch 5 get cairo_store_point
      /cairo_font where { pop cairo_selectfont } if } bind def
/Tm { 2 copy 8 2 roll 6 array astore /cairo_font_matrix exch def
      cairo_store_point /cairo_font where { pop cairo_selectfont } if } bind def
/g { setgray } bind def
/rg { setrgbcolor } bind def
/d1 { setcachedevice } bind def
%%EndProlog
%%Page: 1 1
%%BeginPageSetup
%%PageBoundingBox: 0 -1 76 65
%%EndPageSetup
q 0 -1 76 66 rectclip q
0 64.185 76 -65 re W n
0 g
58.277 37.244 m 57.344 39.67 56 41.892 54.324 43.814 c 56.559 50.342 
55.078 57.861 49.875 63.072 c 49.48 63.463 49.074 63.834 48.656 64.185 
c 51.801 59.431 51.812 53.228 48.715 48.455 c 45.414 50.377 41.586 
51.455 37.52 51.435 c 33.457 51.455 29.625 50.377 26.328 48.459 c 
23.227 53.228 23.242 59.435 26.387 64.185 c 25.969 63.834 25.559 63.467 
25.168 63.072 c 19.961 57.861 18.48 50.342 20.715 43.818 c 19.043 
41.892 17.699 39.674 16.766 37.244 c 7.605 36.314 0.32 28.74 0.008 
19.287 c -0.008 18.732 0 18.181 0.031 17.639 c 1.574 24.15 7.531 28.892 
14.48 28.666 c 14.758 28.654 15.035 28.639 15.312 28.611 c 15.574 
20.306 20.465 13.08 27.551 9.537 c 25.832 4.662 21.578 1.014 16.414 
0.142 c 16.953 0.076 17.5 0.029 18.059 0.01 c 24.41 -0.197 30.121 2.795 
33.652 7.533 c 34.645 7.361 35.656 7.252 36.691 7.217 c 36.969 7.209 
37.242 7.189 37.52 7.193 c 37.797 7.189 38.07 7.209 38.352 7.217 c 
39.387 7.252 40.398 7.361 41.391 7.533 c 44.918 2.795 50.629 -0.197 
56.984 0.01 c 57.539 0.029 58.086 0.076 58.629 0.142 c 53.461 1.014 
49.211 4.662 47.492 9.537 c 54.578 13.08 59.465 20.306 59.73 28.611 c 
60.008 28.639 60.281 28.654 60.562 28.666 c 67.508 28.892 73.465 24.15 
75.008 17.639 c 75.039 18.181 75.051 18.732 75.031 19.287 c 74.723 
28.74 67.434 36.314 58.277 37.244 c h
28.305 13.014 m 22.977 16.002 19.281 21.51 18.785 27.857 c 24.539 25.83 
28.578 20.256 28.367 13.834 c 28.355 13.556 28.328 13.287 28.305 13.014 
c h
37.52 41.939 m 34.281 42.131 31.098 43.404 28.559 45.779 c 31.234 
47.224 34.289 48.025 37.52 48.01 c 40.75 48.025 43.809 47.224 46.48 
45.779 c 43.945 43.404 40.758 42.131 37.52 41.939 c h
46.738 13.014 m 46.715 13.287 46.684 13.556 46.676 13.834 c 46.465 
20.256 50.5 25.83 56.258 27.857 c 55.758 21.51 52.062 16.002 46.738 
13.014 c h
46.738 13.014 m f
Q Q
showpage
%%Trailer
count op_count sub {pop} repeat
countdictstack dict_count sub {end} repeat
cairo_eps_state restore
%%EOF
