%!PS-Adobe-3.0 EPSF-3.0
%%Creator: cairo 1.10.2 (http://cairographics.org)
%%CreationDate: Fri Jul  4 08:48:20 2014
%%Pages: 1
%%BoundingBox: 0 -1 64 75
%%DocumentData: Clean7Bit
%%LanguageLevel: 2
%%EndComments
%%BeginProlog
/cairo_eps_state save def
/dict_count countdictstack def
/op_count count 1 sub def
userdict begin
/q { gsave } bind def
/Q { grestore } bind def
/cm { 6 array astore concat } bind def
/w { setlinewidth } bind def
/J { setlinecap } bind def
/j { setlinejoin } bind def
/M { setmiterlimit } bind def
/d { setdash } bind def
/m { moveto } bind def
/l { lineto } bind def
/c { curveto } bind def
/h { closepath } bind def
/re { exch dup neg 3 1 roll 5 3 roll moveto 0 rlineto
      0 exch rlineto 0 rlineto closepath } bind def
/S { stroke } bind def
/f { fill } bind def
/f* { eofill } bind def
/n { newpath } bind def
/W { clip } bind def
/W* { eoclip } bind def
/BT { } bind def
/ET { } bind def
/pdfmark where { pop globaldict /?pdfmark /exec load put }
    { globaldict begin /?pdfmark /pop load def /pdfmark
    /cleartomark load def end } ifelse
/BDC { mark 3 1 roll /BDC pdfmark } bind def
/EMC { mark /EMC pdfmark } bind def
/cairo_store_point { /cairo_point_y exch def /cairo_point_x exch def } def
/Tj { show currentpoint cairo_store_point } bind def
/TJ {
  {
    dup
    type /stringtype eq
    { show } { -0.001 mul 0 cairo_font_matrix dtransform rmoveto } ifelse
  } forall
  currentpoint cairo_store_point
} bind def
/cairo_selectfont { cairo_font_matrix aload pop pop pop 0 0 6 array astore
    cairo_font exch selectfont cairo_point_x cairo_point_y moveto } bind def
/Tf { pop /cairo_font exch def /cairo_font_matrix where
      { pop cairo_selectfont } if } bind def
/Td { matrix translate cairo_font_matrix matrix concatmatrix dup
      /cairo_font_matrix exch def dup 4 get exch 5 get cairo_store_point
      /cairo_font where { pop cairo_selectfont } if } bind def
/Tm { 2 copy 8 2 roll 6 array astore /cairo_font_matrix exch def
      cairo_store_point /cairo_font where { pop cairo_selectfont } if } bind def
/g { setgray } bind def
/rg { setrgbcolor } bind def
/d1 { setcachedevice } bind def
%%EndProlog
%%Page: 1 1
%%BeginPageSetup
%%PageBoundingBox: 0 -1 64 75
%%EndPageSetup
q 0 -1 64 76 rectclip q
0 74.71 64 -75 re W n
0 g
31.676 59.444 m 32.496 58.878 33.621 59.085 34.188 59.905 c 34.508 
60.366 34.574 60.921 34.434 61.424 c 37.676 68.217 l 32.527 62.717 l 
32.02 62.667 31.531 62.409 31.223 61.956 c 30.652 61.135 30.859 60.01 
31.676 59.444 c h
31.676 59.444 m f
17.258 22.12 m 51.902 22.12 l 58.48 22.12 63.832 27.471 63.832 34.049 c 
63.832 40.624 58.48 45.975 51.902 45.975 c 48.672 45.975 l 48.672 
57.491 l 48.672 59.299 47.469 60.807 45.828 61.307 c 45.828 61.374 
45.836 61.436 45.836 61.503 c 45.836 68.784 39.91 74.71 32.629 74.71 c 
25.344 74.71 19.418 68.784 19.418 61.503 c 4.012 61.503 l 1.797 61.503 
0 59.706 0 57.491 c 0 36.639 l 0 34.424 1.797 32.628 4.012 32.628 c 
44.66 32.628 l 46.879 32.628 48.672 34.424 48.672 36.639 c 48.672 
40.362 l 51.902 40.362 l 55.383 40.362 58.215 37.53 58.215 34.049 c 
58.215 30.565 55.383 27.737 51.902 27.737 c 17.258 27.737 l 10.68 
27.737 5.328 22.385 5.328 15.807 c 5.328 9.229 10.68 3.878 17.258 3.878 
c 36.902 3.878 l 38.02 1.585 40.367 -0.001 43.094 -0.001 c 47.805 
-0.001 l 51.609 -0.001 54.691 3.085 54.691 6.885 c 54.691 10.69 51.605 
13.772 47.805 13.772 c 43.094 13.772 l 40.211 13.772 37.746 12.003 
36.719 9.495 c 17.258 9.495 l 13.773 9.495 10.945 12.323 10.945 15.807 
c 10.945 19.288 13.773 22.12 17.258 22.12 c h
32.629 70.714 m 37.922 70.714 42.219 66.421 42.219 61.124 c 42.219 
55.831 37.922 51.538 32.629 51.538 c 27.332 51.538 23.039 55.831 23.039 
61.124 c 23.039 66.421 27.332 70.714 32.629 70.714 c h
32.629 70.714 m f
Q Q
showpage
%%Trailer
count op_count sub {pop} repeat
countdictstack dict_count sub {end} repeat
cairo_eps_state restore
%%EOF
