%!PS-Adobe-3.0 EPSF-3.0
%%Creator: cairo 1.10.2 (http://cairographics.org)
%%CreationDate: Fri Jul  4 08:47:49 2014
%%Pages: 1
%%BoundingBox: 0 -1 71 77
%%DocumentData: Clean7Bit
%%LanguageLevel: 2
%%EndComments
%%BeginProlog
/cairo_eps_state save def
/dict_count countdictstack def
/op_count count 1 sub def
userdict begin
/q { gsave } bind def
/Q { grestore } bind def
/cm { 6 array astore concat } bind def
/w { setlinewidth } bind def
/J { setlinecap } bind def
/j { setlinejoin } bind def
/M { setmiterlimit } bind def
/d { setdash } bind def
/m { moveto } bind def
/l { lineto } bind def
/c { curveto } bind def
/h { closepath } bind def
/re { exch dup neg 3 1 roll 5 3 roll moveto 0 rlineto
      0 exch rlineto 0 rlineto closepath } bind def
/S { stroke } bind def
/f { fill } bind def
/f* { eofill } bind def
/n { newpath } bind def
/W { clip } bind def
/W* { eoclip } bind def
/BT { } bind def
/ET { } bind def
/pdfmark where { pop globaldict /?pdfmark /exec load put }
    { globaldict begin /?pdfmark /pop load def /pdfmark
    /cleartomark load def end } ifelse
/BDC { mark 3 1 roll /BDC pdfmark } bind def
/EMC { mark /EMC pdfmark } bind def
/cairo_store_point { /cairo_point_y exch def /cairo_point_x exch def } def
/Tj { show currentpoint cairo_store_point } bind def
/TJ {
  {
    dup
    type /stringtype eq
    { show } { -0.001 mul 0 cairo_font_matrix dtransform rmoveto } ifelse
  } forall
  currentpoint cairo_store_point
} bind def
/cairo_selectfont { cairo_font_matrix aload pop pop pop 0 0 6 array astore
    cairo_font exch selectfont cairo_point_x cairo_point_y moveto } bind def
/Tf { pop /cairo_font exch def /cairo_font_matrix where
      { pop cairo_selectfont } if } bind def
/Td { matrix translate cairo_font_matrix matrix concatmatrix dup
      /cairo_font_matrix exch def dup 4 get exch 5 get cairo_store_point
      /cairo_font where { pop cairo_selectfont } if } bind def
/Tm { 2 copy 8 2 roll 6 array astore /cairo_font_matrix exch def
      cairo_store_point /cairo_font where { pop cairo_selectfont } if } bind def
/g { setgray } bind def
/rg { setrgbcolor } bind def
/d1 { setcachedevice } bind def
%%EndProlog
%%Page: 1 1
%%BeginPageSetup
%%PageBoundingBox: 0 -1 71 77
%%EndPageSetup
q 0 -1 71 78 rectclip q
0 76.083 71 -77 re W n
0 g
28.02 65.872 m 26.195 66.243 24.367 66.165 22.875 65.657 c 21.098 
65.052 19.906 63.853 19.605 62.368 c 19.422 61.462 20.008 60.579 20.914 
60.396 c 21.023 60.372 21.137 60.361 21.246 60.361 c 22.027 60.361 
22.727 60.911 22.887 61.704 c 22.941 61.978 23.363 62.286 23.957 62.489 
c 24.883 62.806 26.121 62.841 27.352 62.591 c 28.258 62.407 29.141 
62.989 29.328 63.896 c 29.508 64.806 28.926 65.689 28.02 65.872 c h
28.02 65.872 m f
24.59 40.216 m 23.684 39.646 18.828 40.29 13.16 43.497 c 12.355 43.95 
11.336 43.669 10.879 42.864 c 10.422 42.06 10.707 41.036 11.512 40.583 
c 15.375 38.396 20.094 36.704 23.445 36.704 c 24.617 36.704 25.625 
36.915 26.367 37.38 c 27.152 37.872 27.387 38.904 26.895 39.689 c 
26.402 40.47 25.371 40.708 24.59 40.216 c h
24.59 40.216 m f
46.527 62.489 m 47.121 62.286 47.543 61.978 47.598 61.704 c 47.762 
60.911 48.457 60.361 49.238 60.361 c 49.348 60.361 49.461 60.372 49.57 
60.396 c 50.477 60.579 51.062 61.466 50.879 62.372 c 50.578 63.853 
49.387 65.052 47.609 65.657 c 46.117 66.169 44.289 66.243 42.465 65.872 
c 41.559 65.689 40.977 64.806 41.156 63.9 c 41.34 62.993 42.227 62.407 
43.133 62.591 c 44.367 62.841 45.602 62.806 46.527 62.489 c h
46.527 62.489 m f
63.516 54.025 m 63.453 54.079 63.391 54.103 63.328 54.154 c 64.18 
55.786 64.625 57.642 64.625 59.525 c 64.625 65.755 59.699 70.845 53.586 
71.009 c 51.836 74.087 48.199 76.083 44.16 76.083 c 40.402 76.083 
37.102 74.361 35.242 71.782 c 33.387 74.361 30.086 76.083 26.324 76.083 
c 22.285 76.083 18.652 74.087 16.902 71.009 c 10.785 70.845 5.863 
65.755 5.863 59.525 c 5.863 57.642 6.309 55.786 7.16 54.154 c 7.094 
54.103 7.035 54.079 6.973 54.025 c 2.656 50.786 0 45.423 0 39.833 c 0 
30.54 7.539 23.532 17.539 23.532 c 23.316 23.532 l 23.312 23.489 l 
23.074 20.954 23.137 16.583 25.691 13.38 c 26.805 11.982 28.246 10.97 
30 10.349 c 30 3.958 l 30 1.775 31.77 0.001 33.957 0.001 c 36.531 0.001 
l 38.715 0.001 40.488 1.775 40.488 3.958 c 40.488 10.349 l 42.238 10.97 
43.68 11.982 44.797 13.38 c 47.348 16.583 47.41 20.954 47.176 23.489 c 
47.172 23.532 l 52.945 23.532 l 62.945 23.532 70.484 30.54 70.484 
39.833 c 70.484 45.423 67.828 50.786 63.516 54.025 c h
33.438 25.939 m 32.461 25.939 31.715 26.736 31.043 27.568 c 30.891 
27.353 30.711 27.157 30.52 26.974 c 17.539 26.97 l 9.504 26.97 3.441 
32.501 3.441 39.833 c 3.441 44.497 5.832 49.134 9.602 51.689 c 10.426 
52.302 13.043 53.907 15.23 53.986 c 16.18 54.021 16.922 54.818 16.887 
55.767 c 16.852 56.716 16.086 57.466 15.105 57.423 c 13.258 57.357 
11.422 56.654 10.02 55.943 c 10.023 55.954 l 9.492 57.056 9.207 58.271 
9.207 59.525 c 9.207 64.013 12.797 67.665 17.207 67.665 c 17.387 67.665 
17.578 67.654 17.809 67.638 c 19.039 67.544 l 19.492 68.696 l 20.445 
71.111 23.191 72.736 26.324 72.736 c 30.273 72.736 33.414 70.146 33.414 
66.97 c h
52.945 26.97 m 39.965 26.974 l 39.773 27.157 39.594 27.353 39.441 
27.568 c 38.77 26.736 38.023 25.939 37.047 25.939 c 37.07 66.97 l 37.07 
70.146 40.211 72.736 44.16 72.736 c 47.293 72.736 50.039 71.111 50.992 
68.696 c 51.441 67.544 l 52.676 67.638 l 52.902 67.654 53.098 67.665 
53.273 67.665 c 57.688 67.665 61.273 64.013 61.273 59.525 c 61.273 
58.271 60.992 57.056 60.461 55.954 c 60.465 55.943 l 59.062 56.65 
57.227 57.357 55.379 57.423 c 54.398 57.466 53.633 56.716 53.598 55.767 
c 53.562 54.818 54.305 54.021 55.254 53.986 c 57.441 53.907 60.059 
52.302 60.879 51.689 c 64.648 49.134 67.043 44.497 67.043 39.833 c 
67.043 32.501 60.98 26.97 52.945 26.97 c h
52.945 26.97 m f
57.324 43.493 m 51.656 40.29 46.805 39.646 45.898 40.216 c 45.113 
40.708 44.082 40.47 43.59 39.689 c 43.098 38.904 43.336 37.872 44.117 
37.376 c 44.859 36.911 45.867 36.704 47.039 36.704 c 50.391 36.704 
55.109 38.396 58.973 40.579 c 59.777 41.036 60.062 42.06 59.605 42.864 
c 59.148 43.669 58.129 43.95 57.324 43.493 c h
57.324 43.493 m f
Q Q
showpage
%%Trailer
count op_count sub {pop} repeat
countdictstack dict_count sub {end} repeat
cairo_eps_state restore
%%EOF
