%!PS-Adobe-3.0 EPSF-3.0
%%Creator: cairo 1.10.2 (http://cairographics.org)
%%CreationDate: Fri Jul  4 08:48:34 2014
%%Pages: 1
%%BoundingBox: 0 0 72 77
%%DocumentData: Clean7Bit
%%LanguageLevel: 2
%%EndComments
%%BeginProlog
/cairo_eps_state save def
/dict_count countdictstack def
/op_count count 1 sub def
userdict begin
/q { gsave } bind def
/Q { grestore } bind def
/cm { 6 array astore concat } bind def
/w { setlinewidth } bind def
/J { setlinecap } bind def
/j { setlinejoin } bind def
/M { setmiterlimit } bind def
/d { setdash } bind def
/m { moveto } bind def
/l { lineto } bind def
/c { curveto } bind def
/h { closepath } bind def
/re { exch dup neg 3 1 roll 5 3 roll moveto 0 rlineto
      0 exch rlineto 0 rlineto closepath } bind def
/S { stroke } bind def
/f { fill } bind def
/f* { eofill } bind def
/n { newpath } bind def
/W { clip } bind def
/W* { eoclip } bind def
/BT { } bind def
/ET { } bind def
/pdfmark where { pop globaldict /?pdfmark /exec load put }
    { globaldict begin /?pdfmark /pop load def /pdfmark
    /cleartomark load def end } ifelse
/BDC { mark 3 1 roll /BDC pdfmark } bind def
/EMC { mark /EMC pdfmark } bind def
/cairo_store_point { /cairo_point_y exch def /cairo_point_x exch def } def
/Tj { show currentpoint cairo_store_point } bind def
/TJ {
  {
    dup
    type /stringtype eq
    { show } { -0.001 mul 0 cairo_font_matrix dtransform rmoveto } ifelse
  } forall
  currentpoint cairo_store_point
} bind def
/cairo_selectfont { cairo_font_matrix aload pop pop pop 0 0 6 array astore
    cairo_font exch selectfont cairo_point_x cairo_point_y moveto } bind def
/Tf { pop /cairo_font exch def /cairo_font_matrix where
      { pop cairo_selectfont } if } bind def
/Td { matrix translate cairo_font_matrix matrix concatmatrix dup
      /cairo_font_matrix exch def dup 4 get exch 5 get cairo_store_point
      /cairo_font where { pop cairo_selectfont } if } bind def
/Tm { 2 copy 8 2 roll 6 array astore /cairo_font_matrix exch def
      cairo_store_point /cairo_font where { pop cairo_selectfont } if } bind def
/g { setgray } bind def
/rg { setrgbcolor } bind def
/d1 { setcachedevice } bind def
%%EndProlog
%%Page: 1 1
%%BeginPageSetup
%%PageBoundingBox: 0 0 72 77
%%EndPageSetup
q 0 0 72 77 rectclip q
0 g
32.5 39.654 m 36.879 43.173 l 36.887 48.423 l 22.5 62.779 l 25.734 
66.154 26.051 71.15 23.168 74.029 c 20.242 76.954 15.133 76.591 11.758 
73.212 c 9.984 71.439 9.051 69.189 8.98 67.025 c 6.816 66.954 4.566 
66.021 2.793 64.247 c -0.586 60.872 -0.949 55.763 1.977 52.837 c 4.859 
49.954 9.852 50.271 13.23 53.505 c 31.473 35.259 l h
32.5 39.654 m f
70.379 20.603 m 67.957 23.88 62.969 24.302 59.152 21.607 c 40.984 
46.162 l 40.746 41.103 l 35.797 36.626 l 35.371 31.704 l 48.613 13.806 
l 44.914 10.947 43.863 6.052 46.289 2.779 c 48.75 -0.549 53.855 -0.944 
57.695 1.896 c 59.711 3.388 60.965 5.478 61.355 7.607 c 63.504 7.357 
65.871 7.947 67.887 9.439 c 71.723 12.279 72.84 17.275 70.379 20.603 c 
h
70.379 20.603 m f
27.039 18.033 m 32.637 26.798 l 29.453 28.15 l h
27.039 18.033 m f
30.211 34.927 m 23.508 31.099 l 31.211 31.619 l h
30.211 34.927 m f
42.016 52.103 m 36.57 60.966 l 38.809 50.806 l h
42.016 52.103 m f
48.309 54.22 m 43.23 48.408 l 46.277 46.775 l h
48.309 54.22 m f
Q Q
showpage
%%Trailer
count op_count sub {pop} repeat
countdictstack dict_count sub {end} repeat
cairo_eps_state restore
%%EOF
