%!PS-Adobe-3.0 EPSF-3.0
%%Creator: cairo 1.10.2 (http://cairographics.org)
%%CreationDate: Fri Jul  4 08:48:38 2014
%%Pages: 1
%%BoundingBox: 0 -1 38 75
%%DocumentData: Clean7Bit
%%LanguageLevel: 2
%%EndComments
%%BeginProlog
/cairo_eps_state save def
/dict_count countdictstack def
/op_count count 1 sub def
userdict begin
/q { gsave } bind def
/Q { grestore } bind def
/cm { 6 array astore concat } bind def
/w { setlinewidth } bind def
/J { setlinecap } bind def
/j { setlinejoin } bind def
/M { setmiterlimit } bind def
/d { setdash } bind def
/m { moveto } bind def
/l { lineto } bind def
/c { curveto } bind def
/h { closepath } bind def
/re { exch dup neg 3 1 roll 5 3 roll moveto 0 rlineto
      0 exch rlineto 0 rlineto closepath } bind def
/S { stroke } bind def
/f { fill } bind def
/f* { eofill } bind def
/n { newpath } bind def
/W { clip } bind def
/W* { eoclip } bind def
/BT { } bind def
/ET { } bind def
/pdfmark where { pop globaldict /?pdfmark /exec load put }
    { globaldict begin /?pdfmark /pop load def /pdfmark
    /cleartomark load def end } ifelse
/BDC { mark 3 1 roll /BDC pdfmark } bind def
/EMC { mark /EMC pdfmark } bind def
/cairo_store_point { /cairo_point_y exch def /cairo_point_x exch def } def
/Tj { show currentpoint cairo_store_point } bind def
/TJ {
  {
    dup
    type /stringtype eq
    { show } { -0.001 mul 0 cairo_font_matrix dtransform rmoveto } ifelse
  } forall
  currentpoint cairo_store_point
} bind def
/cairo_selectfont { cairo_font_matrix aload pop pop pop 0 0 6 array astore
    cairo_font exch selectfont cairo_point_x cairo_point_y moveto } bind def
/Tf { pop /cairo_font exch def /cairo_font_matrix where
      { pop cairo_selectfont } if } bind def
/Td { matrix translate cairo_font_matrix matrix concatmatrix dup
      /cairo_font_matrix exch def dup 4 get exch 5 get cairo_store_point
      /cairo_font where { pop cairo_selectfont } if } bind def
/Tm { 2 copy 8 2 roll 6 array astore /cairo_font_matrix exch def
      cairo_store_point /cairo_font where { pop cairo_selectfont } if } bind def
/g { setgray } bind def
/rg { setrgbcolor } bind def
/d1 { setcachedevice } bind def
%%EndProlog
%%Page: 1 1
%%BeginPageSetup
%%PageBoundingBox: 0 -1 38 75
%%EndPageSetup
q 0 -1 38 76 rectclip q
0 74.533 38 -75 re W n
0 g
32.172 57.775 m 32.129 57.798 32.086 57.818 32.039 57.841 c 29.883 
58.919 26.98 59.502 23.805 59.83 c 23.824 59.994 23.84 60.158 23.859 
60.322 c 24.02 61.755 24.234 63.193 24.449 64.627 c 24.691 66.064 
24.934 67.502 25.273 68.935 c 25.426 69.599 25.441 70.33 25.273 71.037 
c 24.691 73.478 22.242 74.99 19.801 74.408 c 17.355 73.83 15.848 71.38 
16.426 68.935 c 16.766 67.502 17.008 66.064 17.246 64.627 c 17.465 
63.193 17.68 61.755 17.84 60.322 c 17.844 60.279 17.848 60.236 17.852 
60.193 c 16.277 60.24 14.703 60.267 13.172 60.291 c 12.844 60.294 
12.527 60.298 12.207 60.302 c 11.543 62.013 9.891 63.224 7.949 63.224 c 
5.426 63.224 0 61.177 0 58.654 c 0 56.33 l 0 53.806 5.426 51.759 7.949 
51.759 c 9.133 51.759 10.207 52.212 11.02 52.951 c 11.684 52.939 12.363 
52.927 13.066 52.919 c 14.754 52.892 16.641 52.865 18.527 52.791 c 
18.551 52.427 18.578 52.068 18.598 51.705 c 18.836 46.865 l 8.359 
42.841 5.168 40.33 5.41 36.587 c 5.691 32.244 10.59 31.123 16.789 
29.709 c 17.512 29.541 18.465 29.326 19.504 29.068 c 19.664 23.517 l 
18.395 22.834 17.227 21.896 16.352 20.533 c 14.938 18.33 14.605 15.49 
15.367 12.087 c 15.719 10.513 17.055 7.404 19.902 14.396 c 20.188 0.002 
l 21.512 0.002 l 21.855 17.127 l 23.293 17.556 25.668 17.861 26.805 
18.099 c 29.824 18.74 36.094 20.064 35.152 26.642 c 34.496 32.095 
28.629 34.365 22.406 35.951 c 22.574 40.396 l 22.898 40.517 23.219 
40.638 23.559 40.763 c 23.609 40.783 23.664 40.802 23.711 40.826 c 
24.707 41.244 25.82 41.669 26.895 42.08 c 32.258 44.138 37.328 46.084 
37.633 50.513 c 37.914 54.607 33.59 56.99 32.172 57.775 c h
18.43 36.896 m 17.609 37.084 16.641 37.306 15.695 37.537 c 16.594 
37.966 17.742 38.474 19.176 39.064 c 19.266 36.705 l 18.984 36.767 
18.707 36.834 18.43 36.896 c h
27.734 25.923 m 27.09 25.697 26.039 25.474 25.277 25.314 c 24.293 
25.107 23.184 24.869 22.066 24.513 c 22.176 28.365 l 24.703 27.65 
27.113 26.783 27.734 25.923 c h
24.254 48.966 m 23.82 48.802 23.379 48.63 22.941 48.462 c 23.102 51.705 
l 23.117 51.966 23.137 52.224 23.152 52.486 c 25.434 52.255 27.43 
51.884 28.68 51.279 c 28.852 51.181 29.008 51.091 29.148 51.009 c 
27.738 50.302 25.672 49.509 24.254 48.966 c h
24.254 48.966 m f
Q Q
showpage
%%Trailer
count op_count sub {pop} repeat
countdictstack dict_count sub {end} repeat
cairo_eps_state restore
%%EOF
