%!PS-Adobe-3.0 EPSF-3.0
%%Creator: cairo 1.10.2 (http://cairographics.org)
%%CreationDate: Fri Jul  4 08:48:09 2014
%%Pages: 1
%%BoundingBox: 0 -1 76 75
%%DocumentData: Clean7Bit
%%LanguageLevel: 2
%%EndComments
%%BeginProlog
/cairo_eps_state save def
/dict_count countdictstack def
/op_count count 1 sub def
userdict begin
/q { gsave } bind def
/Q { grestore } bind def
/cm { 6 array astore concat } bind def
/w { setlinewidth } bind def
/J { setlinecap } bind def
/j { setlinejoin } bind def
/M { setmiterlimit } bind def
/d { setdash } bind def
/m { moveto } bind def
/l { lineto } bind def
/c { curveto } bind def
/h { closepath } bind def
/re { exch dup neg 3 1 roll 5 3 roll moveto 0 rlineto
      0 exch rlineto 0 rlineto closepath } bind def
/S { stroke } bind def
/f { fill } bind def
/f* { eofill } bind def
/n { newpath } bind def
/W { clip } bind def
/W* { eoclip } bind def
/BT { } bind def
/ET { } bind def
/pdfmark where { pop globaldict /?pdfmark /exec load put }
    { globaldict begin /?pdfmark /pop load def /pdfmark
    /cleartomark load def end } ifelse
/BDC { mark 3 1 roll /BDC pdfmark } bind def
/EMC { mark /EMC pdfmark } bind def
/cairo_store_point { /cairo_point_y exch def /cairo_point_x exch def } def
/Tj { show currentpoint cairo_store_point } bind def
/TJ {
  {
    dup
    type /stringtype eq
    { show } { -0.001 mul 0 cairo_font_matrix dtransform rmoveto } ifelse
  } forall
  currentpoint cairo_store_point
} bind def
/cairo_selectfont { cairo_font_matrix aload pop pop pop 0 0 6 array astore
    cairo_font exch selectfont cairo_point_x cairo_point_y moveto } bind def
/Tf { pop /cairo_font exch def /cairo_font_matrix where
      { pop cairo_selectfont } if } bind def
/Td { matrix translate cairo_font_matrix matrix concatmatrix dup
      /cairo_font_matrix exch def dup 4 get exch 5 get cairo_store_point
      /cairo_font where { pop cairo_selectfont } if } bind def
/Tm { 2 copy 8 2 roll 6 array astore /cairo_font_matrix exch def
      cairo_store_point /cairo_font where { pop cairo_selectfont } if } bind def
/g { setgray } bind def
/rg { setrgbcolor } bind def
/d1 { setcachedevice } bind def
%%EndProlog
%%Page: 1 1
%%BeginPageSetup
%%PageBoundingBox: 0 -1 76 75
%%EndPageSetup
q 0 -1 76 76 rectclip q
0 74.516 76 -75 re W n
0 g
74.762 20.637 m 74.328 21.23 73.594 21.465 72.922 21.293 c 72.898 
21.328 72.883 21.367 72.855 21.402 c 69.156 26.453 61.988 27.605 56.941 
23.902 c 56.16 23.332 l 22.734 69.34 l 18.66 74.945 10.785 76.195 5.18 
72.117 c -0.43 68.043 -1.68 60.168 2.395 54.558 c 3.523 53.008 5.695 
52.664 7.246 53.793 c 8.797 54.918 9.141 57.09 8.016 58.641 c 6.191 
61.152 6.75 64.676 9.258 66.5 c 11.77 68.324 15.293 67.766 17.117 
65.258 c 50.543 19.25 l 49.758 18.683 l 44.676 15.027 43.562 7.859 
47.219 2.777 c 47.246 2.742 47.277 2.715 47.305 2.68 c 46.934 2.098 
46.93 1.324 47.359 0.726 c 47.922 -0.055 49.012 -0.234 49.797 0.328 c 
53.359 2.894 l 54.145 3.457 54.32 4.551 53.758 5.332 c 53.27 6.008 
52.391 6.23 51.656 5.914 c 51.645 5.926 51.641 5.941 51.633 5.953 c 
49.727 8.601 50.285 12.367 52.934 14.273 c 56.543 16.902 l 60.156 
19.519 l 62.789 21.449 66.543 20.816 68.473 18.187 c 68.48 18.176 
68.492 18.168 68.504 18.152 c 67.977 17.555 67.914 16.644 68.406 15.973 
c 68.977 15.195 70.07 15.027 70.848 15.598 c 74.387 18.195 l 75.164 
18.766 75.332 19.859 74.762 20.637 c h
74.762 20.637 m f
Q Q
showpage
%%Trailer
count op_count sub {pop} repeat
countdictstack dict_count sub {end} repeat
cairo_eps_state restore
%%EOF
