%!PS-Adobe-3.0 EPSF-3.0
%%Creator: cairo 1.10.2 (http://cairographics.org)
%%CreationDate: Fri Jul  4 08:49:06 2014
%%Pages: 1
%%BoundingBox: 0 -1 75 72
%%DocumentData: Clean7Bit
%%LanguageLevel: 2
%%EndComments
%%BeginProlog
/cairo_eps_state save def
/dict_count countdictstack def
/op_count count 1 sub def
userdict begin
/q { gsave } bind def
/Q { grestore } bind def
/cm { 6 array astore concat } bind def
/w { setlinewidth } bind def
/J { setlinecap } bind def
/j { setlinejoin } bind def
/M { setmiterlimit } bind def
/d { setdash } bind def
/m { moveto } bind def
/l { lineto } bind def
/c { curveto } bind def
/h { closepath } bind def
/re { exch dup neg 3 1 roll 5 3 roll moveto 0 rlineto
      0 exch rlineto 0 rlineto closepath } bind def
/S { stroke } bind def
/f { fill } bind def
/f* { eofill } bind def
/n { newpath } bind def
/W { clip } bind def
/W* { eoclip } bind def
/BT { } bind def
/ET { } bind def
/pdfmark where { pop globaldict /?pdfmark /exec load put }
    { globaldict begin /?pdfmark /pop load def /pdfmark
    /cleartomark load def end } ifelse
/BDC { mark 3 1 roll /BDC pdfmark } bind def
/EMC { mark /EMC pdfmark } bind def
/cairo_store_point { /cairo_point_y exch def /cairo_point_x exch def } def
/Tj { show currentpoint cairo_store_point } bind def
/TJ {
  {
    dup
    type /stringtype eq
    { show } { -0.001 mul 0 cairo_font_matrix dtransform rmoveto } ifelse
  } forall
  currentpoint cairo_store_point
} bind def
/cairo_selectfont { cairo_font_matrix aload pop pop pop 0 0 6 array astore
    cairo_font exch selectfont cairo_point_x cairo_point_y moveto } bind def
/Tf { pop /cairo_font exch def /cairo_font_matrix where
      { pop cairo_selectfont } if } bind def
/Td { matrix translate cairo_font_matrix matrix concatmatrix dup
      /cairo_font_matrix exch def dup 4 get exch 5 get cairo_store_point
      /cairo_font where { pop cairo_selectfont } if } bind def
/Tm { 2 copy 8 2 roll 6 array astore /cairo_font_matrix exch def
      cairo_store_point /cairo_font where { pop cairo_selectfont } if } bind def
/g { setgray } bind def
/rg { setrgbcolor } bind def
/d1 { setcachedevice } bind def
%%EndProlog
%%Page: 1 1
%%BeginPageSetup
%%PageBoundingBox: 0 -1 75 72
%%EndPageSetup
q 0 -1 75 73 rectclip q
0 71.068 75 -72 re W n
0 g
74.086 44.232 m 73.52 45.978 71.906 47.15 70.078 47.15 c 69.637 47.15 
69.199 47.08 68.77 46.939 c 67.699 46.591 66.824 45.845 66.316 44.841 c 
65.801 43.838 65.711 42.693 66.059 41.623 c 66.629 39.877 68.238 38.705 
70.07 38.705 c 70.508 38.705 70.949 38.775 71.375 38.912 c 73.59 39.634 
74.805 42.017 74.086 44.232 c h
74.086 44.232 m f
57.484 8.439 m 56.598 8.439 55.742 8.162 55.016 7.631 c 54.105 6.97 
53.508 5.994 53.332 4.881 c 53.152 3.767 53.422 2.654 54.082 1.74 c 
54.875 0.65 56.156 0.002 57.508 0.002 c 58.398 0.002 59.25 0.279 59.977 
0.806 c 60.891 1.47 61.488 2.447 61.664 3.56 c 61.84 4.673 61.574 5.787 
60.91 6.701 c 60.117 7.791 58.836 8.439 57.484 8.439 c h
57.484 8.439 m f
19.277 7.634 m 18.551 8.162 17.699 8.439 16.809 8.439 c 15.457 8.439 
14.176 7.791 13.387 6.701 c 12.723 5.787 12.453 4.673 12.633 3.56 c 
12.809 2.447 13.406 1.47 14.316 0.806 c 15.043 0.279 15.898 0.002 
16.785 0.002 c 18.137 0.002 19.418 0.65 20.211 1.74 c 20.871 2.654 
21.141 3.767 20.965 4.881 c 20.789 5.994 20.191 6.97 19.277 7.634 c h
19.277 7.634 m f
5.527 46.939 m 5.098 47.08 4.656 47.15 4.219 47.15 c 2.387 47.15 0.777 
45.978 0.207 44.232 c -0.141 43.158 -0.051 42.013 0.461 41.013 c 0.973 
40.009 1.844 39.263 2.918 38.916 c 3.348 38.775 3.785 38.705 4.223 
38.705 c 6.055 38.705 7.668 39.877 8.234 41.623 c 8.953 43.834 7.738 
46.22 5.527 46.939 c h
5.527 46.939 m f
37.148 62.631 m 39.473 62.631 41.367 64.521 41.367 66.849 c 41.367 
69.173 39.473 71.068 37.148 71.068 c 34.82 71.068 32.93 69.173 32.93 
66.849 c 32.93 64.521 34.82 62.631 37.148 62.631 c h
37.148 62.631 m f
60.723 38.673 m 60.723 34.736 57.531 31.545 53.598 31.545 c 49.66 
31.545 46.473 34.736 46.473 38.673 c 46.473 42.607 49.66 45.798 53.598 
45.798 c 57.531 45.798 60.723 42.607 60.723 38.673 c h
60.723 38.673 m f
54.441 19.334 m 54.441 15.396 51.25 12.205 47.312 12.205 c 43.379 
12.205 40.188 15.396 40.188 19.334 c 40.188 23.267 43.379 26.459 47.312 
26.459 c 51.25 26.459 54.441 23.267 54.441 19.334 c h
54.441 19.334 m f
34.105 19.334 m 34.105 15.396 30.914 12.205 26.98 12.205 c 23.043 
12.205 19.852 15.396 19.852 19.334 c 19.852 23.267 23.043 26.459 26.98 
26.459 c 30.914 26.459 34.105 23.267 34.105 19.334 c h
34.105 19.334 m f
27.82 38.673 m 27.82 34.736 24.629 31.545 20.695 31.545 c 16.762 31.545 
13.57 34.736 13.57 38.673 c 13.57 42.607 16.762 45.798 20.695 45.798 c 
24.629 45.798 27.82 42.607 27.82 38.673 c h
27.82 38.673 m f
44.273 50.623 m 44.273 46.689 41.082 43.498 37.145 43.498 c 33.211 
43.498 30.02 46.689 30.02 50.623 c 30.02 54.56 33.211 57.752 37.145 
57.752 c 41.082 57.752 44.273 54.56 44.273 50.623 c h
44.273 50.623 m f
44.273 33.74 m 44.273 29.802 41.082 26.615 37.145 26.615 c 33.211 
26.615 30.02 29.802 30.02 33.74 c 30.02 37.673 33.211 40.865 37.145 
40.865 c 41.082 40.865 44.273 37.673 44.273 33.74 c h
44.273 33.74 m f
Q Q
showpage
%%Trailer
count op_count sub {pop} repeat
countdictstack dict_count sub {end} repeat
cairo_eps_state restore
%%EOF
