%!PS-Adobe-3.0 EPSF-3.0
%%Creator: cairo 1.10.2 (http://cairographics.org)
%%CreationDate: Fri Jul  4 08:48:31 2014
%%Pages: 1
%%BoundingBox: 0 -1 51 76
%%DocumentData: Clean7Bit
%%LanguageLevel: 2
%%EndComments
%%BeginProlog
/cairo_eps_state save def
/dict_count countdictstack def
/op_count count 1 sub def
userdict begin
/q { gsave } bind def
/Q { grestore } bind def
/cm { 6 array astore concat } bind def
/w { setlinewidth } bind def
/J { setlinecap } bind def
/j { setlinejoin } bind def
/M { setmiterlimit } bind def
/d { setdash } bind def
/m { moveto } bind def
/l { lineto } bind def
/c { curveto } bind def
/h { closepath } bind def
/re { exch dup neg 3 1 roll 5 3 roll moveto 0 rlineto
      0 exch rlineto 0 rlineto closepath } bind def
/S { stroke } bind def
/f { fill } bind def
/f* { eofill } bind def
/n { newpath } bind def
/W { clip } bind def
/W* { eoclip } bind def
/BT { } bind def
/ET { } bind def
/pdfmark where { pop globaldict /?pdfmark /exec load put }
    { globaldict begin /?pdfmark /pop load def /pdfmark
    /cleartomark load def end } ifelse
/BDC { mark 3 1 roll /BDC pdfmark } bind def
/EMC { mark /EMC pdfmark } bind def
/cairo_store_point { /cairo_point_y exch def /cairo_point_x exch def } def
/Tj { show currentpoint cairo_store_point } bind def
/TJ {
  {
    dup
    type /stringtype eq
    { show } { -0.001 mul 0 cairo_font_matrix dtransform rmoveto } ifelse
  } forall
  currentpoint cairo_store_point
} bind def
/cairo_selectfont { cairo_font_matrix aload pop pop pop 0 0 6 array astore
    cairo_font exch selectfont cairo_point_x cairo_point_y moveto } bind def
/Tf { pop /cairo_font exch def /cairo_font_matrix where
      { pop cairo_selectfont } if } bind def
/Td { matrix translate cairo_font_matrix matrix concatmatrix dup
      /cairo_font_matrix exch def dup 4 get exch 5 get cairo_store_point
      /cairo_font where { pop cairo_selectfont } if } bind def
/Tm { 2 copy 8 2 roll 6 array astore /cairo_font_matrix exch def
      cairo_store_point /cairo_font where { pop cairo_selectfont } if } bind def
/g { setgray } bind def
/rg { setrgbcolor } bind def
/d1 { setcachedevice } bind def
%%EndProlog
%%Page: 1 1
%%BeginPageSetup
%%PageBoundingBox: 0 -1 51 76
%%EndPageSetup
q 0 -1 51 77 rectclip q
0 75.81 51 -76 re W n
0 g
47.43 66.509 m 39.156 66.509 l 39.156 67.521 l 39.156 68.72 38.18 
69.696 36.977 69.696 c 31.277 69.696 l 31.277 73.634 l 31.277 74.833 
30.301 75.81 29.102 75.81 c 21.43 75.81 l 20.23 75.81 19.254 74.833 
19.254 73.634 c 19.254 69.696 l 13.555 69.696 l 12.352 69.696 11.375 
68.72 11.375 67.517 c 11.375 66.509 l 3.102 66.509 l 1.391 66.509 0 
65.118 0 63.407 c 0 3.103 l 0 1.392 1.391 0.001 3.102 0.001 c 47.43 
0.001 l 49.141 0.001 50.531 1.392 50.531 3.103 c 50.531 63.407 l 50.531 
65.118 49.141 66.509 47.43 66.509 c h
22.184 73.169 m 22.184 73.294 22.289 73.399 22.414 73.399 c 28.117 
73.399 l 28.242 73.399 28.348 73.298 28.348 73.169 c 28.348 70.239 l 
22.184 70.239 l h
46.543 4.579 m 46.543 4.341 46.348 4.146 46.109 4.146 c 4.426 4.146 l 
4.184 4.146 3.988 4.341 3.988 4.579 c 3.988 61.485 l 3.988 61.724 4.184 
61.919 4.426 61.919 c 11.648 61.919 l 11.648 58.603 l 11.648 57.423 
12.605 56.47 13.785 56.47 c 36.75 56.47 l 37.926 56.47 38.883 57.427 
38.883 58.603 c 38.883 61.919 l 46.109 61.919 l 46.348 61.919 46.543 
61.724 46.543 61.485 c h
46.543 4.579 m f
25.266 48.474 m 17.328 48.474 10.895 42.04 10.895 34.103 c 10.895 
26.165 17.328 19.731 25.266 19.731 c 33.203 19.731 39.637 26.165 39.637 
34.103 c 39.637 42.04 33.203 48.474 25.266 48.474 c h
35.609 30.954 m 28.414 30.954 l 28.414 23.759 l 22.117 23.759 l 22.117 
30.954 l 14.922 30.954 l 14.922 37.251 l 22.117 37.251 l 22.117 44.446 
l 28.414 44.446 l 28.414 37.251 l 35.609 37.251 l h
35.609 30.954 m f
Q Q
showpage
%%Trailer
count op_count sub {pop} repeat
countdictstack dict_count sub {end} repeat
cairo_eps_state restore
%%EOF
