%!PS-Adobe-3.0 EPSF-3.0
%%Creator: cairo 1.10.2 (http://cairographics.org)
%%CreationDate: Fri Jul  4 08:49:12 2014
%%Pages: 1
%%BoundingBox: 0 -1 76 76
%%DocumentData: Clean7Bit
%%LanguageLevel: 2
%%EndComments
%%BeginProlog
/cairo_eps_state save def
/dict_count countdictstack def
/op_count count 1 sub def
userdict begin
/q { gsave } bind def
/Q { grestore } bind def
/cm { 6 array astore concat } bind def
/w { setlinewidth } bind def
/J { setlinecap } bind def
/j { setlinejoin } bind def
/M { setmiterlimit } bind def
/d { setdash } bind def
/m { moveto } bind def
/l { lineto } bind def
/c { curveto } bind def
/h { closepath } bind def
/re { exch dup neg 3 1 roll 5 3 roll moveto 0 rlineto
      0 exch rlineto 0 rlineto closepath } bind def
/S { stroke } bind def
/f { fill } bind def
/f* { eofill } bind def
/n { newpath } bind def
/W { clip } bind def
/W* { eoclip } bind def
/BT { } bind def
/ET { } bind def
/pdfmark where { pop globaldict /?pdfmark /exec load put }
    { globaldict begin /?pdfmark /pop load def /pdfmark
    /cleartomark load def end } ifelse
/BDC { mark 3 1 roll /BDC pdfmark } bind def
/EMC { mark /EMC pdfmark } bind def
/cairo_store_point { /cairo_point_y exch def /cairo_point_x exch def } def
/Tj { show currentpoint cairo_store_point } bind def
/TJ {
  {
    dup
    type /stringtype eq
    { show } { -0.001 mul 0 cairo_font_matrix dtransform rmoveto } ifelse
  } forall
  currentpoint cairo_store_point
} bind def
/cairo_selectfont { cairo_font_matrix aload pop pop pop 0 0 6 array astore
    cairo_font exch selectfont cairo_point_x cairo_point_y moveto } bind def
/Tf { pop /cairo_font exch def /cairo_font_matrix where
      { pop cairo_selectfont } if } bind def
/Td { matrix translate cairo_font_matrix matrix concatmatrix dup
      /cairo_font_matrix exch def dup 4 get exch 5 get cairo_store_point
      /cairo_font where { pop cairo_selectfont } if } bind def
/Tm { 2 copy 8 2 roll 6 array astore /cairo_font_matrix exch def
      cairo_store_point /cairo_font where { pop cairo_selectfont } if } bind def
/g { setgray } bind def
/rg { setrgbcolor } bind def
/d1 { setcachedevice } bind def
%%EndProlog
%%Page: 1 1
%%BeginPageSetup
%%PageBoundingBox: 0 -1 76 76
%%EndPageSetup
q 0 -1 76 77 rectclip q
0 75.224 76 -76 re W n
0 g
72.488 9.04 m 71.617 9.904 70.434 10.322 69.207 10.212 c 45.523 33.908 
l 47.621 39.204 45.027 47.638 42.426 50.212 c 23.254 69.388 l 23.34 
69.587 23.418 69.783 23.48 69.974 c 24.254 72.279 23.258 73.88 22.066 
74.615 c 20.387 75.65 18.117 75.341 16.676 73.88 c 15.832 73.029 15.273 
72.138 14.914 71.068 c 14.727 70.513 14.613 69.974 14.488 69.408 c 
14.363 68.829 14.234 68.24 14.027 67.618 c 13.734 66.743 13.145 65.396 
11.531 63.697 c 9.828 62.079 8.48 61.49 7.609 61.197 c 6.988 60.986 
6.395 60.861 5.82 60.736 c 5.25 60.611 4.711 60.493 4.156 60.31 c 3.086 
59.95 2.195 59.392 1.344 58.548 c -0.117 57.103 -0.426 54.837 0.609 
53.158 c 1.344 51.966 2.949 50.97 5.25 51.743 c 5.441 51.806 5.641 
51.884 5.836 51.97 c 25.035 32.822 l 27.609 30.22 36.02 27.603 41.316 
29.7 c 65.016 6.017 l 64.902 4.79 65.32 3.607 66.188 2.736 c 68.891 
0.001 l 75.223 6.337 l h
23.277 42.74 m 10.332 55.56 l 19.664 64.892 l 32.484 51.947 l h
40.328 36.259 m 40.215 35.915 40.062 35.65 39.883 35.466 c 39.863 
35.447 39.832 35.431 39.809 35.415 c 39.789 35.392 39.777 35.361 39.758 
35.341 c 39.574 35.161 39.309 35.009 38.965 34.896 c 36.328 34.009 
30.184 35.501 28.977 36.72 c 27.094 38.603 l 36.621 48.134 l 38.504 
46.247 l 39.723 45.04 41.215 38.896 40.328 36.259 c h
40.328 36.259 m f
Q Q
showpage
%%Trailer
count op_count sub {pop} repeat
countdictstack dict_count sub {end} repeat
cairo_eps_state restore
%%EOF
