%!PS-Adobe-3.0 EPSF-3.0
%%Creator: cairo 1.10.2 (http://cairographics.org)
%%CreationDate: Fri Jul  4 08:49:37 2014
%%Pages: 1
%%BoundingBox: 0 0 74 77
%%DocumentData: Clean7Bit
%%LanguageLevel: 2
%%EndComments
%%BeginProlog
/cairo_eps_state save def
/dict_count countdictstack def
/op_count count 1 sub def
userdict begin
/q { gsave } bind def
/Q { grestore } bind def
/cm { 6 array astore concat } bind def
/w { setlinewidth } bind def
/J { setlinecap } bind def
/j { setlinejoin } bind def
/M { setmiterlimit } bind def
/d { setdash } bind def
/m { moveto } bind def
/l { lineto } bind def
/c { curveto } bind def
/h { closepath } bind def
/re { exch dup neg 3 1 roll 5 3 roll moveto 0 rlineto
      0 exch rlineto 0 rlineto closepath } bind def
/S { stroke } bind def
/f { fill } bind def
/f* { eofill } bind def
/n { newpath } bind def
/W { clip } bind def
/W* { eoclip } bind def
/BT { } bind def
/ET { } bind def
/pdfmark where { pop globaldict /?pdfmark /exec load put }
    { globaldict begin /?pdfmark /pop load def /pdfmark
    /cleartomark load def end } ifelse
/BDC { mark 3 1 roll /BDC pdfmark } bind def
/EMC { mark /EMC pdfmark } bind def
/cairo_store_point { /cairo_point_y exch def /cairo_point_x exch def } def
/Tj { show currentpoint cairo_store_point } bind def
/TJ {
  {
    dup
    type /stringtype eq
    { show } { -0.001 mul 0 cairo_font_matrix dtransform rmoveto } ifelse
  } forall
  currentpoint cairo_store_point
} bind def
/cairo_selectfont { cairo_font_matrix aload pop pop pop 0 0 6 array astore
    cairo_font exch selectfont cairo_point_x cairo_point_y moveto } bind def
/Tf { pop /cairo_font exch def /cairo_font_matrix where
      { pop cairo_selectfont } if } bind def
/Td { matrix translate cairo_font_matrix matrix concatmatrix dup
      /cairo_font_matrix exch def dup 4 get exch 5 get cairo_store_point
      /cairo_font where { pop cairo_selectfont } if } bind def
/Tm { 2 copy 8 2 roll 6 array astore /cairo_font_matrix exch def
      cairo_store_point /cairo_font where { pop cairo_selectfont } if } bind def
/g { setgray } bind def
/rg { setrgbcolor } bind def
/d1 { setcachedevice } bind def
%%EndProlog
%%Page: 1 1
%%BeginPageSetup
%%PageBoundingBox: 0 0 74 77
%%EndPageSetup
q 0 0 74 77 rectclip q
0 g
73.32 8.678 m 72.605 9.608 71.312 9.803 70.348 9.178 c 31.488 59.811 l 
31.914 60.135 l 32.895 60.889 33.098 62.272 32.41 63.28 c 33.836 65.838 
34.418 68.869 34.055 72.19 c 33.805 74.534 31.691 76.237 29.348 75.983 
c 26.996 75.729 25.301 73.616 25.555 71.268 c 25.762 69.373 25.422 
67.912 24.523 66.803 c 22.934 64.834 19.766 64.112 18.609 63.994 c 
3.664 62.291 -0.098 52.436 0 47.463 c 0.047 45.104 1.996 43.225 4.359 
43.272 c 6.719 43.323 8.598 45.272 8.547 47.631 c 8.547 47.698 8.547 
54.241 19.469 55.483 c 19.648 55.502 20.18 55.557 20.93 55.701 c 21.008 
55.432 21.129 55.174 21.312 54.936 c 22.086 53.924 23.543 53.725 24.559 
54.506 c 24.699 54.616 l 63.488 3.932 l 62.574 3.174 62.41 1.823 63.137 
0.873 c 63.887 -0.103 65.285 -0.287 66.262 0.455 c 72.91 5.557 l 73.883 
6.307 74.066 7.701 73.32 8.678 c h
73.32 8.678 m f
Q Q
showpage
%%Trailer
count op_count sub {pop} repeat
countdictstack dict_count sub {end} repeat
cairo_eps_state restore
%%EOF
