%!PS-Adobe-3.0 EPSF-3.0
%%Creator: cairo 1.10.2 (http://cairographics.org)
%%CreationDate: Fri Jul  4 09:05:39 2014
%%Pages: 1
%%BoundingBox: 0 -1 77 72
%%DocumentData: Clean7Bit
%%LanguageLevel: 2
%%EndComments
%%BeginProlog
/cairo_eps_state save def
/dict_count countdictstack def
/op_count count 1 sub def
userdict begin
/q { gsave } bind def
/Q { grestore } bind def
/cm { 6 array astore concat } bind def
/w { setlinewidth } bind def
/J { setlinecap } bind def
/j { setlinejoin } bind def
/M { setmiterlimit } bind def
/d { setdash } bind def
/m { moveto } bind def
/l { lineto } bind def
/c { curveto } bind def
/h { closepath } bind def
/re { exch dup neg 3 1 roll 5 3 roll moveto 0 rlineto
      0 exch rlineto 0 rlineto closepath } bind def
/S { stroke } bind def
/f { fill } bind def
/f* { eofill } bind def
/n { newpath } bind def
/W { clip } bind def
/W* { eoclip } bind def
/BT { } bind def
/ET { } bind def
/pdfmark where { pop globaldict /?pdfmark /exec load put }
    { globaldict begin /?pdfmark /pop load def /pdfmark
    /cleartomark load def end } ifelse
/BDC { mark 3 1 roll /BDC pdfmark } bind def
/EMC { mark /EMC pdfmark } bind def
/cairo_store_point { /cairo_point_y exch def /cairo_point_x exch def } def
/Tj { show currentpoint cairo_store_point } bind def
/TJ {
  {
    dup
    type /stringtype eq
    { show } { -0.001 mul 0 cairo_font_matrix dtransform rmoveto } ifelse
  } forall
  currentpoint cairo_store_point
} bind def
/cairo_selectfont { cairo_font_matrix aload pop pop pop 0 0 6 array astore
    cairo_font exch selectfont cairo_point_x cairo_point_y moveto } bind def
/Tf { pop /cairo_font exch def /cairo_font_matrix where
      { pop cairo_selectfont } if } bind def
/Td { matrix translate cairo_font_matrix matrix concatmatrix dup
      /cairo_font_matrix exch def dup 4 get exch 5 get cairo_store_point
      /cairo_font where { pop cairo_selectfont } if } bind def
/Tm { 2 copy 8 2 roll 6 array astore /cairo_font_matrix exch def
      cairo_store_point /cairo_font where { pop cairo_selectfont } if } bind def
/g { setgray } bind def
/rg { setrgbcolor } bind def
/d1 { setcachedevice } bind def
%%EndProlog
%%Page: 1 1
%%BeginPageSetup
%%PageBoundingBox: 0 -1 77 72
%%EndPageSetup
q 0 -1 77 73 rectclip q
0 71.534 77 -72 re W n
0 g
25.09 29.206 m 0.34 29.21 l -0.578 23.452 0.34 17.277 3.387 11.78 c 
6.434 6.284 11.117 2.273 16.488 -0.001 c 29.488 20.663 l 27.062 22.8 
25.43 25.812 25.09 29.206 c h
25.09 29.206 m f
51.383 29.206 m 76.129 29.21 l 77.051 23.452 76.129 17.277 73.082 11.78 
c 70.035 6.284 65.352 2.273 59.98 -0.001 c 46.98 20.663 l 49.406 22.8 
51.039 25.812 51.383 29.206 c h
51.383 29.206 m f
38.18 44.093 m 39.742 44.093 41.246 43.82 42.637 43.316 c 55.004 65.788 
l 50.414 69.382 44.637 71.534 38.352 71.534 c 32.066 71.534 26.289 
69.382 21.699 65.788 c 34.012 43.417 l 35.32 43.855 36.723 44.093 38.18 
44.093 c h
38.18 44.093 m f
46.301 31.284 m 46.301 26.8 42.664 23.163 38.18 23.163 c 33.691 23.163 
30.055 26.8 30.055 31.284 c 30.055 35.773 33.691 39.409 38.18 39.409 c 
42.664 39.409 46.301 35.773 46.301 31.284 c h
46.301 31.284 m f
Q Q
showpage
%%Trailer
count op_count sub {pop} repeat
countdictstack dict_count sub {end} repeat
cairo_eps_state restore
%%EOF
