%!PS-Adobe-3.0 EPSF-3.0
%%Creator: cairo 1.10.2 (http://cairographics.org)
%%CreationDate: Fri Jul  4 09:09:02 2014
%%Pages: 1
%%BoundingBox: 0 -1 72 72
%%DocumentData: Clean7Bit
%%LanguageLevel: 2
%%EndComments
%%BeginProlog
/cairo_eps_state save def
/dict_count countdictstack def
/op_count count 1 sub def
userdict begin
/q { gsave } bind def
/Q { grestore } bind def
/cm { 6 array astore concat } bind def
/w { setlinewidth } bind def
/J { setlinecap } bind def
/j { setlinejoin } bind def
/M { setmiterlimit } bind def
/d { setdash } bind def
/m { moveto } bind def
/l { lineto } bind def
/c { curveto } bind def
/h { closepath } bind def
/re { exch dup neg 3 1 roll 5 3 roll moveto 0 rlineto
      0 exch rlineto 0 rlineto closepath } bind def
/S { stroke } bind def
/f { fill } bind def
/f* { eofill } bind def
/n { newpath } bind def
/W { clip } bind def
/W* { eoclip } bind def
/BT { } bind def
/ET { } bind def
/pdfmark where { pop globaldict /?pdfmark /exec load put }
    { globaldict begin /?pdfmark /pop load def /pdfmark
    /cleartomark load def end } ifelse
/BDC { mark 3 1 roll /BDC pdfmark } bind def
/EMC { mark /EMC pdfmark } bind def
/cairo_store_point { /cairo_point_y exch def /cairo_point_x exch def } def
/Tj { show currentpoint cairo_store_point } bind def
/TJ {
  {
    dup
    type /stringtype eq
    { show } { -0.001 mul 0 cairo_font_matrix dtransform rmoveto } ifelse
  } forall
  currentpoint cairo_store_point
} bind def
/cairo_selectfont { cairo_font_matrix aload pop pop pop 0 0 6 array astore
    cairo_font exch selectfont cairo_point_x cairo_point_y moveto } bind def
/Tf { pop /cairo_font exch def /cairo_font_matrix where
      { pop cairo_selectfont } if } bind def
/Td { matrix translate cairo_font_matrix matrix concatmatrix dup
      /cairo_font_matrix exch def dup 4 get exch 5 get cairo_store_point
      /cairo_font where { pop cairo_selectfont } if } bind def
/Tm { 2 copy 8 2 roll 6 array astore /cairo_font_matrix exch def
      cairo_store_point /cairo_font where { pop cairo_selectfont } if } bind def
/g { setgray } bind def
/rg { setrgbcolor } bind def
/d1 { setcachedevice } bind def
%%EndProlog
%%Page: 1 1
%%BeginPageSetup
%%PageBoundingBox: 0 -1 72 72
%%EndPageSetup
q 0 -1 72 73 rectclip q
0 71.555 72 -72 re W n
0 g
35.777 71.555 m 16.02 71.555 0 55.536 0 35.778 c 0 16.02 16.02 0.001 
35.777 0.001 c 55.535 0.001 71.555 16.02 71.555 35.778 c 71.555 55.536 
55.535 71.555 35.777 71.555 c h
23.32 8.719 m 18.348 11.747 14.043 16.024 10.926 21.422 c 7.809 26.821 
6.258 32.688 6.121 38.508 c 26.824 38.93 l 26.895 36.489 27.551 34.036 
28.855 31.774 c 30.16 29.512 31.961 27.715 34.039 26.438 c h
35.758 43.727 m 33.148 43.727 30.691 43.067 28.547 41.911 c 18.559 
60.051 l 23.668 62.84 29.527 64.43 35.758 64.43 c 41.988 64.43 47.848 
62.844 52.957 60.051 c 42.969 41.911 l 40.824 43.067 38.367 43.727 
35.758 43.727 c h
60.59 21.422 m 57.473 16.028 53.168 11.747 48.195 8.719 c 37.477 26.438 
l 39.555 27.715 41.352 29.512 42.66 31.774 c 43.965 34.032 44.621 
36.489 44.691 38.93 c 65.395 38.508 l 65.258 32.688 63.703 26.821 60.59 
21.422 c h
60.59 21.422 m f
Q Q
showpage
%%Trailer
count op_count sub {pop} repeat
countdictstack dict_count sub {end} repeat
cairo_eps_state restore
%%EOF
