%!PS-Adobe-3.0 EPSF-3.0
%%Creator: cairo 1.10.2 (http://cairographics.org)
%%CreationDate: Fri Jul  4 08:48:05 2014
%%Pages: 1
%%BoundingBox: 0 -1 75 73
%%DocumentData: Clean7Bit
%%LanguageLevel: 2
%%EndComments
%%BeginProlog
/cairo_eps_state save def
/dict_count countdictstack def
/op_count count 1 sub def
userdict begin
/q { gsave } bind def
/Q { grestore } bind def
/cm { 6 array astore concat } bind def
/w { setlinewidth } bind def
/J { setlinecap } bind def
/j { setlinejoin } bind def
/M { setmiterlimit } bind def
/d { setdash } bind def
/m { moveto } bind def
/l { lineto } bind def
/c { curveto } bind def
/h { closepath } bind def
/re { exch dup neg 3 1 roll 5 3 roll moveto 0 rlineto
      0 exch rlineto 0 rlineto closepath } bind def
/S { stroke } bind def
/f { fill } bind def
/f* { eofill } bind def
/n { newpath } bind def
/W { clip } bind def
/W* { eoclip } bind def
/BT { } bind def
/ET { } bind def
/pdfmark where { pop globaldict /?pdfmark /exec load put }
    { globaldict begin /?pdfmark /pop load def /pdfmark
    /cleartomark load def end } ifelse
/BDC { mark 3 1 roll /BDC pdfmark } bind def
/EMC { mark /EMC pdfmark } bind def
/cairo_store_point { /cairo_point_y exch def /cairo_point_x exch def } def
/Tj { show currentpoint cairo_store_point } bind def
/TJ {
  {
    dup
    type /stringtype eq
    { show } { -0.001 mul 0 cairo_font_matrix dtransform rmoveto } ifelse
  } forall
  currentpoint cairo_store_point
} bind def
/cairo_selectfont { cairo_font_matrix aload pop pop pop 0 0 6 array astore
    cairo_font exch selectfont cairo_point_x cairo_point_y moveto } bind def
/Tf { pop /cairo_font exch def /cairo_font_matrix where
      { pop cairo_selectfont } if } bind def
/Td { matrix translate cairo_font_matrix matrix concatmatrix dup
      /cairo_font_matrix exch def dup 4 get exch 5 get cairo_store_point
      /cairo_font where { pop cairo_selectfont } if } bind def
/Tm { 2 copy 8 2 roll 6 array astore /cairo_font_matrix exch def
      cairo_store_point /cairo_font where { pop cairo_selectfont } if } bind def
/g { setgray } bind def
/rg { setrgbcolor } bind def
/d1 { setcachedevice } bind def
%%EndProlog
%%Page: 1 1
%%BeginPageSetup
%%PageBoundingBox: 0 -1 75 73
%%EndPageSetup
q 0 -1 75 74 rectclip q
0 72.945 75 -73 re W n
0 g
73.34 70.527 m 71.324 73.203 67.508 73.738 64.832 71.722 c 53.223 
62.976 l 53.137 62.914 53.055 62.844 52.977 62.777 c 51.98 64.097 l 
50.762 65.715 48.453 66.039 46.836 64.82 c 45.219 63.601 44.895 61.293 
46.113 59.676 c 46.289 59.441 l 13.652 34.851 l 5.766 23.336 l 9.344 
18.586 l 22.59 22.992 l 55.227 47.586 l 55.402 47.351 l 56.621 45.734 
58.93 45.406 60.547 46.629 c 62.164 47.844 62.488 50.152 61.27 51.769 c 
60.273 53.09 l 60.363 53.148 60.449 53.207 60.535 53.273 c 72.145 
62.023 l 74.82 64.035 75.355 67.851 73.34 70.527 c h
27.656 31.883 m 16.621 32.015 l 48.727 56.211 l 52.789 50.816 l h
27.656 31.883 m f
0 5.765 m 0 2.582 2.582 -0 5.766 -0 c 8.949 -0 11.531 2.582 11.531 
5.765 c 11.531 8.949 5.766 16.25 5.766 16.25 c 5.766 16.25 0 8.949 0 
5.765 c h
0 5.765 m f
Q Q
showpage
%%Trailer
count op_count sub {pop} repeat
countdictstack dict_count sub {end} repeat
cairo_eps_state restore
%%EOF
