%!PS-Adobe-3.0 EPSF-3.0
%%Creator: cairo 1.10.2 (http://cairographics.org)
%%CreationDate: Fri Jul  4 08:49:00 2014
%%Pages: 1
%%BoundingBox: 0 -1 75 49
%%DocumentData: Clean7Bit
%%LanguageLevel: 2
%%EndComments
%%BeginProlog
/cairo_eps_state save def
/dict_count countdictstack def
/op_count count 1 sub def
userdict begin
/q { gsave } bind def
/Q { grestore } bind def
/cm { 6 array astore concat } bind def
/w { setlinewidth } bind def
/J { setlinecap } bind def
/j { setlinejoin } bind def
/M { setmiterlimit } bind def
/d { setdash } bind def
/m { moveto } bind def
/l { lineto } bind def
/c { curveto } bind def
/h { closepath } bind def
/re { exch dup neg 3 1 roll 5 3 roll moveto 0 rlineto
      0 exch rlineto 0 rlineto closepath } bind def
/S { stroke } bind def
/f { fill } bind def
/f* { eofill } bind def
/n { newpath } bind def
/W { clip } bind def
/W* { eoclip } bind def
/BT { } bind def
/ET { } bind def
/pdfmark where { pop globaldict /?pdfmark /exec load put }
    { globaldict begin /?pdfmark /pop load def /pdfmark
    /cleartomark load def end } ifelse
/BDC { mark 3 1 roll /BDC pdfmark } bind def
/EMC { mark /EMC pdfmark } bind def
/cairo_store_point { /cairo_point_y exch def /cairo_point_x exch def } def
/Tj { show currentpoint cairo_store_point } bind def
/TJ {
  {
    dup
    type /stringtype eq
    { show } { -0.001 mul 0 cairo_font_matrix dtransform rmoveto } ifelse
  } forall
  currentpoint cairo_store_point
} bind def
/cairo_selectfont { cairo_font_matrix aload pop pop pop 0 0 6 array astore
    cairo_font exch selectfont cairo_point_x cairo_point_y moveto } bind def
/Tf { pop /cairo_font exch def /cairo_font_matrix where
      { pop cairo_selectfont } if } bind def
/Td { matrix translate cairo_font_matrix matrix concatmatrix dup
      /cairo_font_matrix exch def dup 4 get exch 5 get cairo_store_point
      /cairo_font where { pop cairo_selectfont } if } bind def
/Tm { 2 copy 8 2 roll 6 array astore /cairo_font_matrix exch def
      cairo_store_point /cairo_font where { pop cairo_selectfont } if } bind def
/g { setgray } bind def
/rg { setrgbcolor } bind def
/d1 { setcachedevice } bind def
%%EndProlog
%%Page: 1 1
%%BeginPageSetup
%%PageBoundingBox: 0 -1 75 49
%%EndPageSetup
q 0 -1 75 50 rectclip q
0 48.292 75 -49 re W n
0 g
74.871 27.737 m 74.871 28.366 74.695 29.007 74.32 29.573 c 70.594 
35.206 61.207 48.292 54.508 48.292 c 54.492 48.292 l 52.527 48.284 
50.836 47.343 49.723 45.64 c 48.719 44.101 49.156 42.042 50.695 41.038 
c 52.055 40.147 53.824 40.386 54.91 41.515 c 57.262 40.569 62.785 
34.522 67.516 27.737 c 7.344 27.737 l 12.078 34.522 17.598 40.569 
19.949 41.515 c 21.035 40.386 22.805 40.147 24.168 41.034 c 25.707 
42.038 26.141 44.101 25.137 45.64 c 24.027 47.347 22.336 48.284 20.371 
48.292 c 20.355 48.292 l 13.656 48.292 4.27 35.206 0.539 29.573 c 0.082 
28.882 -0.07 28.081 0.027 27.315 c 0.027 11.651 l 0.074 11.651 l 0.777 
4.952 10.605 -0.001 17.434 -0.001 c 21.316 -0.001 l 31.523 -0.001 30.68 
8.479 34.406 11.651 c 40.539 11.651 l 44.266 8.479 43.422 -0.001 53.629 
-0.001 c 57.512 -0.001 l 64.34 -0.001 74.168 4.952 74.871 11.651 c h
69.785 19.155 m 4.328 19.155 l 4.328 24.394 l 69.785 24.394 l h
69.785 19.155 m f
Q Q
showpage
%%Trailer
count op_count sub {pop} repeat
countdictstack dict_count sub {end} repeat
cairo_eps_state restore
%%EOF
