%!PS-Adobe-3.0 EPSF-3.0
%%Creator: cairo 1.10.2 (http://cairographics.org)
%%CreationDate: Fri Jul  4 08:48:13 2014
%%Pages: 1
%%BoundingBox: 0 -1 76 75
%%DocumentData: Clean7Bit
%%LanguageLevel: 2
%%EndComments
%%BeginProlog
/cairo_eps_state save def
/dict_count countdictstack def
/op_count count 1 sub def
userdict begin
/q { gsave } bind def
/Q { grestore } bind def
/cm { 6 array astore concat } bind def
/w { setlinewidth } bind def
/J { setlinecap } bind def
/j { setlinejoin } bind def
/M { setmiterlimit } bind def
/d { setdash } bind def
/m { moveto } bind def
/l { lineto } bind def
/c { curveto } bind def
/h { closepath } bind def
/re { exch dup neg 3 1 roll 5 3 roll moveto 0 rlineto
      0 exch rlineto 0 rlineto closepath } bind def
/S { stroke } bind def
/f { fill } bind def
/f* { eofill } bind def
/n { newpath } bind def
/W { clip } bind def
/W* { eoclip } bind def
/BT { } bind def
/ET { } bind def
/pdfmark where { pop globaldict /?pdfmark /exec load put }
    { globaldict begin /?pdfmark /pop load def /pdfmark
    /cleartomark load def end } ifelse
/BDC { mark 3 1 roll /BDC pdfmark } bind def
/EMC { mark /EMC pdfmark } bind def
/cairo_store_point { /cairo_point_y exch def /cairo_point_x exch def } def
/Tj { show currentpoint cairo_store_point } bind def
/TJ {
  {
    dup
    type /stringtype eq
    { show } { -0.001 mul 0 cairo_font_matrix dtransform rmoveto } ifelse
  } forall
  currentpoint cairo_store_point
} bind def
/cairo_selectfont { cairo_font_matrix aload pop pop pop 0 0 6 array astore
    cairo_font exch selectfont cairo_point_x cairo_point_y moveto } bind def
/Tf { pop /cairo_font exch def /cairo_font_matrix where
      { pop cairo_selectfont } if } bind def
/Td { matrix translate cairo_font_matrix matrix concatmatrix dup
      /cairo_font_matrix exch def dup 4 get exch 5 get cairo_store_point
      /cairo_font where { pop cairo_selectfont } if } bind def
/Tm { 2 copy 8 2 roll 6 array astore /cairo_font_matrix exch def
      cairo_store_point /cairo_font where { pop cairo_selectfont } if } bind def
/g { setgray } bind def
/rg { setrgbcolor } bind def
/d1 { setcachedevice } bind def
%%EndProlog
%%Page: 1 1
%%BeginPageSetup
%%PageBoundingBox: 0 -1 76 75
%%EndPageSetup
q 0 -1 76 76 rectclip q
0 74.624 76 -75 re W n
0 g
37.539 16.015 m 42.223 21.151 l 37.746 -0.001 l 75.082 -0.001 l 75.074 
1.19 74.758 2.378 74.125 3.44 c 61.211 25.03 l 60.43 26.335 59.27 
27.265 57.961 27.804 c 49.109 31.878 l 44.859 35.464 l 37.551 28.194 l 
30.227 35.464 l 25.973 31.878 l 17.125 27.804 l 15.812 27.265 14.652 
26.335 13.871 25.03 c 0.957 3.44 l 0.324 2.378 0.008 1.19 0 -0.001 c 
37.332 -0.001 l 32.859 21.151 l h
48.809 13.14 m 52.297 13.14 l 52.297 16.628 l 56.383 16.628 l 56.383 
13.14 l 59.875 13.14 l 59.875 9.054 l 56.383 9.054 l 56.383 5.562 l 
52.297 5.562 l 52.297 9.054 l 48.809 9.054 l h
48.809 13.14 m f
59.098 33.933 m 52.219 38.819 53.059 54.921 53.059 54.921 c 53.168 
56.171 53.223 57.468 53.219 58.808 c 53.219 59.315 53.191 59.804 53.16 
60.288 c 53.035 62.71 52.438 64.479 52.438 64.479 c 50.555 70.882 
45.293 74.565 37.57 74.624 c 37.559 74.624 37.551 74.624 37.539 74.624 
c 37.531 74.624 37.523 74.624 37.512 74.624 c 29.789 74.565 24.527 
70.882 22.641 64.479 c 22.641 64.479 22.047 62.71 21.922 60.288 c 
21.891 59.804 21.863 59.315 21.863 58.808 c 21.859 57.468 21.914 56.171 
22.023 54.921 c 22.023 54.921 22.863 38.819 15.984 33.933 c 10.195 
29.823 24.828 32.925 29.879 37.589 c 32.07 35.952 34.641 35.151 37.512 
35.093 c 37.52 35.093 l 37.523 35.089 37.527 35.089 37.531 35.089 c 
37.551 35.089 l 37.555 35.089 37.559 35.089 37.562 35.093 c 37.57 
35.093 l 40.441 35.151 43.012 35.952 45.203 37.589 c 50.254 32.925 
64.887 29.823 59.098 33.933 c h
59.098 33.933 m f
Q Q
showpage
%%Trailer
count op_count sub {pop} repeat
countdictstack dict_count sub {end} repeat
cairo_eps_state restore
%%EOF
