%!PS-Adobe-3.0 EPSF-3.0
%%Creator: cairo 1.10.2 (http://cairographics.org)
%%CreationDate: Fri Jul  4 08:48:32 2014
%%Pages: 1
%%BoundingBox: 0 -1 76 75
%%DocumentData: Clean7Bit
%%LanguageLevel: 2
%%EndComments
%%BeginProlog
/cairo_eps_state save def
/dict_count countdictstack def
/op_count count 1 sub def
userdict begin
/q { gsave } bind def
/Q { grestore } bind def
/cm { 6 array astore concat } bind def
/w { setlinewidth } bind def
/J { setlinecap } bind def
/j { setlinejoin } bind def
/M { setmiterlimit } bind def
/d { setdash } bind def
/m { moveto } bind def
/l { lineto } bind def
/c { curveto } bind def
/h { closepath } bind def
/re { exch dup neg 3 1 roll 5 3 roll moveto 0 rlineto
      0 exch rlineto 0 rlineto closepath } bind def
/S { stroke } bind def
/f { fill } bind def
/f* { eofill } bind def
/n { newpath } bind def
/W { clip } bind def
/W* { eoclip } bind def
/BT { } bind def
/ET { } bind def
/pdfmark where { pop globaldict /?pdfmark /exec load put }
    { globaldict begin /?pdfmark /pop load def /pdfmark
    /cleartomark load def end } ifelse
/BDC { mark 3 1 roll /BDC pdfmark } bind def
/EMC { mark /EMC pdfmark } bind def
/cairo_store_point { /cairo_point_y exch def /cairo_point_x exch def } def
/Tj { show currentpoint cairo_store_point } bind def
/TJ {
  {
    dup
    type /stringtype eq
    { show } { -0.001 mul 0 cairo_font_matrix dtransform rmoveto } ifelse
  } forall
  currentpoint cairo_store_point
} bind def
/cairo_selectfont { cairo_font_matrix aload pop pop pop 0 0 6 array astore
    cairo_font exch selectfont cairo_point_x cairo_point_y moveto } bind def
/Tf { pop /cairo_font exch def /cairo_font_matrix where
      { pop cairo_selectfont } if } bind def
/Td { matrix translate cairo_font_matrix matrix concatmatrix dup
      /cairo_font_matrix exch def dup 4 get exch 5 get cairo_store_point
      /cairo_font where { pop cairo_selectfont } if } bind def
/Tm { 2 copy 8 2 roll 6 array astore /cairo_font_matrix exch def
      cairo_store_point /cairo_font where { pop cairo_selectfont } if } bind def
/g { setgray } bind def
/rg { setrgbcolor } bind def
/d1 { setcachedevice } bind def
%%EndProlog
%%Page: 1 1
%%BeginPageSetup
%%PageBoundingBox: 0 -1 76 75
%%EndPageSetup
q 0 -1 76 76 rectclip q
0 74.434 76 -75 re W n
0 g
30.012 37.399 m 32.203 35.763 34.77 34.966 37.641 34.903 c 37.648 
34.903 l 37.652 34.903 37.656 34.903 37.66 34.903 c 37.68 34.903 l 
37.688 34.903 37.691 34.903 37.695 34.903 c 37.703 34.903 l 40.57 
34.966 43.141 35.763 45.332 37.399 c 50.383 32.735 65.02 29.634 59.23 
33.743 c 52.352 38.63 53.188 54.731 53.188 54.731 c 53.277 55.747 53.32 
56.805 53.336 57.884 c 42.312 57.884 l 41.383 56.204 39.594 55.067 
37.539 55.067 c 35.488 55.067 33.699 56.204 32.77 57.884 c 22.008 
57.884 l 22.023 56.805 22.066 55.751 22.152 54.731 c 22.152 54.731 
22.992 38.63 16.113 33.743 c 10.324 29.634 24.957 32.735 30.012 37.399 
c h
30.012 37.399 m f
37.539 65.966 m 39.832 65.966 41.789 64.552 42.594 62.552 c 52.996 
62.552 l 52.793 63.622 52.57 64.29 52.57 64.29 c 50.684 70.696 45.426 
74.376 37.699 74.434 c 37.691 74.434 37.68 74.434 37.672 74.434 c 37.66 
74.434 37.652 74.434 37.641 74.434 c 29.918 74.376 24.656 70.696 22.773 
64.29 c 22.773 64.29 22.547 63.622 22.348 62.552 c 32.488 62.552 l 
33.293 64.552 35.25 65.966 37.539 65.966 c h
37.539 65.966 m f
74.125 3.438 m 61.211 25.028 l 60.43 26.337 59.27 27.266 57.961 27.802 
c 49.109 31.88 l 44.859 35.462 l 37.551 28.196 l 30.227 35.462 l 25.973 
31.88 l 17.125 27.802 l 15.812 27.266 14.652 26.337 13.871 25.028 c 
0.957 3.438 l 0.324 2.38 0.008 1.192 0 0.001 c 33.691 0.024 l 37.539 
24.067 l 41.391 0.024 l 75.082 0.001 l 75.074 1.192 74.758 2.38 74.125 
3.438 c h
59.875 9.052 m 56.387 9.052 l 56.387 5.563 l 52.297 5.563 l 52.297 
9.052 l 48.809 9.052 l 48.809 13.138 l 52.297 13.138 l 52.297 16.63 l 
56.387 16.63 l 56.387 13.138 l 59.875 13.138 l h
59.875 9.052 m f
Q Q
showpage
%%Trailer
count op_count sub {pop} repeat
countdictstack dict_count sub {end} repeat
cairo_eps_state restore
%%EOF
