%!PS-Adobe-3.0 EPSF-3.0
%%Creator: cairo 1.10.2 (http://cairographics.org)
%%CreationDate: Fri Jul  4 08:47:44 2014
%%Pages: 1
%%BoundingBox: 0 -1 76 75
%%DocumentData: Clean7Bit
%%LanguageLevel: 2
%%EndComments
%%BeginProlog
/cairo_eps_state save def
/dict_count countdictstack def
/op_count count 1 sub def
userdict begin
/q { gsave } bind def
/Q { grestore } bind def
/cm { 6 array astore concat } bind def
/w { setlinewidth } bind def
/J { setlinecap } bind def
/j { setlinejoin } bind def
/M { setmiterlimit } bind def
/d { setdash } bind def
/m { moveto } bind def
/l { lineto } bind def
/c { curveto } bind def
/h { closepath } bind def
/re { exch dup neg 3 1 roll 5 3 roll moveto 0 rlineto
      0 exch rlineto 0 rlineto closepath } bind def
/S { stroke } bind def
/f { fill } bind def
/f* { eofill } bind def
/n { newpath } bind def
/W { clip } bind def
/W* { eoclip } bind def
/BT { } bind def
/ET { } bind def
/pdfmark where { pop globaldict /?pdfmark /exec load put }
    { globaldict begin /?pdfmark /pop load def /pdfmark
    /cleartomark load def end } ifelse
/BDC { mark 3 1 roll /BDC pdfmark } bind def
/EMC { mark /EMC pdfmark } bind def
/cairo_store_point { /cairo_point_y exch def /cairo_point_x exch def } def
/Tj { show currentpoint cairo_store_point } bind def
/TJ {
  {
    dup
    type /stringtype eq
    { show } { -0.001 mul 0 cairo_font_matrix dtransform rmoveto } ifelse
  } forall
  currentpoint cairo_store_point
} bind def
/cairo_selectfont { cairo_font_matrix aload pop pop pop 0 0 6 array astore
    cairo_font exch selectfont cairo_point_x cairo_point_y moveto } bind def
/Tf { pop /cairo_font exch def /cairo_font_matrix where
      { pop cairo_selectfont } if } bind def
/Td { matrix translate cairo_font_matrix matrix concatmatrix dup
      /cairo_font_matrix exch def dup 4 get exch 5 get cairo_store_point
      /cairo_font where { pop cairo_selectfont } if } bind def
/Tm { 2 copy 8 2 roll 6 array astore /cairo_font_matrix exch def
      cairo_store_point /cairo_font where { pop cairo_selectfont } if } bind def
/g { setgray } bind def
/rg { setrgbcolor } bind def
/d1 { setcachedevice } bind def
%%EndProlog
%%Page: 1 1
%%BeginPageSetup
%%PageBoundingBox: 0 -1 76 75
%%EndPageSetup
q 0 -1 76 76 rectclip q
0 74.712 76 -75 re W n
0 g
74.125 3.439 m 61.211 25.028 l 60.43 26.333 59.27 27.263 57.961 27.802 
c 56.543 28.454 l 56.543 0.001 l 75.082 0.001 l 75.074 1.189 74.758 
2.376 74.125 3.439 c h
74.125 3.439 m f
39.418 10.165 m 35.664 10.165 l 35.664 6.962 l 32.457 6.962 l 32.457 
3.204 l 35.664 3.204 l 35.664 0.001 l 39.418 0.001 l 39.418 3.204 l 
42.625 3.204 l 42.625 6.962 l 39.418 6.962 l h
39.418 10.165 m f
13.871 25.028 m 0.957 3.439 l 0.324 2.38 0.008 1.189 0 0.001 c 18.539 
0.001 l 18.539 28.454 l 17.121 27.802 l 15.812 27.263 14.652 26.333 
13.871 25.028 c h
13.871 25.028 m f
44.859 35.462 m 37.551 28.196 l 30.223 35.462 l 25.973 31.876 l 23.875 
30.911 l 23.875 15.357 l 34.844 15.357 l 32.859 24.751 l 37.539 19.61 l 
42.223 24.751 l 40.234 15.357 l 51.207 15.357 l 51.207 30.911 l 49.109 
31.876 l h
44.859 35.462 m f
29.879 37.677 m 32.07 36.04 34.641 35.243 37.512 35.181 c 37.57 35.181 
l 40.441 35.243 43.012 36.04 45.203 37.677 c 50.254 33.013 64.887 
29.911 59.098 34.021 c 52.223 38.907 53.059 55.009 53.059 55.009 c 
53.168 56.259 53.223 57.556 53.219 58.896 c 53.219 59.403 53.191 59.892 
53.16 60.376 c 53.039 62.798 52.441 64.567 52.441 64.567 c 50.555 
70.974 45.293 74.653 37.57 74.712 c 37.512 74.712 l 29.789 74.653 
24.527 70.97 22.641 64.567 c 22.641 64.567 22.047 62.798 21.922 60.376 
c 21.891 59.892 21.863 59.403 21.863 58.896 c 21.859 57.556 21.914 
56.259 22.023 55.009 c 22.023 55.009 22.863 38.907 15.984 34.021 c 
10.195 29.911 24.828 33.013 29.879 37.677 c h
29.879 37.677 m f
Q Q
showpage
%%Trailer
count op_count sub {pop} repeat
countdictstack dict_count sub {end} repeat
cairo_eps_state restore
%%EOF
