%!PS-Adobe-3.0 EPSF-3.0
%%Creator: cairo 1.10.2 (http://cairographics.org)
%%CreationDate: Fri Jul  4 08:48:32 2014
%%Pages: 1
%%BoundingBox: 0 -1 76 63
%%DocumentData: Clean7Bit
%%LanguageLevel: 2
%%EndComments
%%BeginProlog
/cairo_eps_state save def
/dict_count countdictstack def
/op_count count 1 sub def
userdict begin
/q { gsave } bind def
/Q { grestore } bind def
/cm { 6 array astore concat } bind def
/w { setlinewidth } bind def
/J { setlinecap } bind def
/j { setlinejoin } bind def
/M { setmiterlimit } bind def
/d { setdash } bind def
/m { moveto } bind def
/l { lineto } bind def
/c { curveto } bind def
/h { closepath } bind def
/re { exch dup neg 3 1 roll 5 3 roll moveto 0 rlineto
      0 exch rlineto 0 rlineto closepath } bind def
/S { stroke } bind def
/f { fill } bind def
/f* { eofill } bind def
/n { newpath } bind def
/W { clip } bind def
/W* { eoclip } bind def
/BT { } bind def
/ET { } bind def
/pdfmark where { pop globaldict /?pdfmark /exec load put }
    { globaldict begin /?pdfmark /pop load def /pdfmark
    /cleartomark load def end } ifelse
/BDC { mark 3 1 roll /BDC pdfmark } bind def
/EMC { mark /EMC pdfmark } bind def
/cairo_store_point { /cairo_point_y exch def /cairo_point_x exch def } def
/Tj { show currentpoint cairo_store_point } bind def
/TJ {
  {
    dup
    type /stringtype eq
    { show } { -0.001 mul 0 cairo_font_matrix dtransform rmoveto } ifelse
  } forall
  currentpoint cairo_store_point
} bind def
/cairo_selectfont { cairo_font_matrix aload pop pop pop 0 0 6 array astore
    cairo_font exch selectfont cairo_point_x cairo_point_y moveto } bind def
/Tf { pop /cairo_font exch def /cairo_font_matrix where
      { pop cairo_selectfont } if } bind def
/Td { matrix translate cairo_font_matrix matrix concatmatrix dup
      /cairo_font_matrix exch def dup 4 get exch 5 get cairo_store_point
      /cairo_font where { pop cairo_selectfont } if } bind def
/Tm { 2 copy 8 2 roll 6 array astore /cairo_font_matrix exch def
      cairo_store_point /cairo_font where { pop cairo_selectfont } if } bind def
/g { setgray } bind def
/rg { setrgbcolor } bind def
/d1 { setcachedevice } bind def
%%EndProlog
%%Page: 1 1
%%BeginPageSetup
%%PageBoundingBox: 0 -1 76 63
%%EndPageSetup
q 0 -1 76 64 rectclip q
0 62.353 76 -63 re W n
0 g
51.246 54.15 m 51.246 58.572 l 51.246 60.654 49.551 62.353 47.465 
62.353 c 28.012 62.353 l 25.926 62.353 24.227 60.654 24.227 58.572 c 
24.227 54.15 l 0 54.15 l 0 2.091 l 2.16 2.091 l 2.16 0.001 l 13.418 
0.001 l 13.418 2.091 l 61.938 2.091 l 61.938 0.001 l 73.195 0.001 l 
73.195 2.091 l 75.473 2.091 l 75.473 54.15 l h
27.469 58.572 m 27.469 58.868 27.711 59.111 28.012 59.111 c 47.465 
59.111 l 47.762 59.111 48.004 58.868 48.004 58.572 c 48.004 54.15 l 
27.469 54.15 l h
50.348 27.337 m 41.574 27.337 l 41.574 18.568 l 33.898 18.568 l 33.898 
27.337 l 25.129 27.337 l 25.129 35.013 l 33.898 35.013 l 33.898 43.786 
l 41.574 43.786 l 41.574 35.013 l 50.348 35.013 l h
50.348 27.337 m f
Q Q
showpage
%%Trailer
count op_count sub {pop} repeat
countdictstack dict_count sub {end} repeat
cairo_eps_state restore
%%EOF
