%!PS-Adobe-3.0 EPSF-3.0
%%Creator: cairo 1.10.2 (http://cairographics.org)
%%CreationDate: Fri Jul  4 08:47:35 2014
%%Pages: 1
%%BoundingBox: 0 -1 41 74
%%DocumentData: Clean7Bit
%%LanguageLevel: 2
%%EndComments
%%BeginProlog
/cairo_eps_state save def
/dict_count countdictstack def
/op_count count 1 sub def
userdict begin
/q { gsave } bind def
/Q { grestore } bind def
/cm { 6 array astore concat } bind def
/w { setlinewidth } bind def
/J { setlinecap } bind def
/j { setlinejoin } bind def
/M { setmiterlimit } bind def
/d { setdash } bind def
/m { moveto } bind def
/l { lineto } bind def
/c { curveto } bind def
/h { closepath } bind def
/re { exch dup neg 3 1 roll 5 3 roll moveto 0 rlineto
      0 exch rlineto 0 rlineto closepath } bind def
/S { stroke } bind def
/f { fill } bind def
/f* { eofill } bind def
/n { newpath } bind def
/W { clip } bind def
/W* { eoclip } bind def
/BT { } bind def
/ET { } bind def
/pdfmark where { pop globaldict /?pdfmark /exec load put }
    { globaldict begin /?pdfmark /pop load def /pdfmark
    /cleartomark load def end } ifelse
/BDC { mark 3 1 roll /BDC pdfmark } bind def
/EMC { mark /EMC pdfmark } bind def
/cairo_store_point { /cairo_point_y exch def /cairo_point_x exch def } def
/Tj { show currentpoint cairo_store_point } bind def
/TJ {
  {
    dup
    type /stringtype eq
    { show } { -0.001 mul 0 cairo_font_matrix dtransform rmoveto } ifelse
  } forall
  currentpoint cairo_store_point
} bind def
/cairo_selectfont { cairo_font_matrix aload pop pop pop 0 0 6 array astore
    cairo_font exch selectfont cairo_point_x cairo_point_y moveto } bind def
/Tf { pop /cairo_font exch def /cairo_font_matrix where
      { pop cairo_selectfont } if } bind def
/Td { matrix translate cairo_font_matrix matrix concatmatrix dup
      /cairo_font_matrix exch def dup 4 get exch 5 get cairo_store_point
      /cairo_font where { pop cairo_selectfont } if } bind def
/Tm { 2 copy 8 2 roll 6 array astore /cairo_font_matrix exch def
      cairo_store_point /cairo_font where { pop cairo_selectfont } if } bind def
/g { setgray } bind def
/rg { setrgbcolor } bind def
/d1 { setcachedevice } bind def
%%EndProlog
%%Page: 1 1
%%BeginPageSetup
%%PageBoundingBox: 0 -1 41 74
%%EndPageSetup
q 0 -1 41 75 rectclip q
0 73.734 41 -74 re W n
0 g
16.648 28.855 m 24.18 28.855 l 24.18 36.148 l 31.473 36.148 l 31.473 
43.68 l 24.18 43.68 l 24.18 50.973 l 16.648 50.973 l 16.648 43.68 l 
9.352 43.68 l 9.352 36.148 l 16.648 36.148 l h
16.648 28.855 m f
36.258 73.734 m 4.57 73.734 l 2.047 73.734 0 71.688 0 69.164 c 0 4.57 l 
0 2.047 2.047 0 4.57 0 c 36.258 0 l 38.781 0 40.824 2.047 40.824 4.57 c 
40.824 69.164 l 40.828 71.688 38.781 73.734 36.258 73.734 c h
22.316 4.266 m 18.508 4.266 l 16.785 4.266 15.387 5.664 15.387 7.391 c 
15.387 9.113 16.785 10.512 18.508 10.512 c 22.316 10.512 l 24.043 
10.512 25.441 9.113 25.441 7.391 c 25.441 5.664 24.043 4.266 22.316 
4.266 c h
35.301 14.93 m 5.523 14.93 l 5.523 65.508 l 35.305 65.508 l 35.305 
14.93 l h
35.301 14.93 m f
Q Q
showpage
%%Trailer
count op_count sub {pop} repeat
countdictstack dict_count sub {end} repeat
cairo_eps_state restore
%%EOF
