%!PS-Adobe-3.0 EPSF-3.0
%%Creator: cairo 1.10.2 (http://cairographics.org)
%%CreationDate: Fri Jul  4 09:52:43 2014
%%Pages: 1
%%BoundingBox: 0 -1 76 73
%%DocumentData: Clean7Bit
%%LanguageLevel: 2
%%EndComments
%%BeginProlog
/cairo_eps_state save def
/dict_count countdictstack def
/op_count count 1 sub def
userdict begin
/q { gsave } bind def
/Q { grestore } bind def
/cm { 6 array astore concat } bind def
/w { setlinewidth } bind def
/J { setlinecap } bind def
/j { setlinejoin } bind def
/M { setmiterlimit } bind def
/d { setdash } bind def
/m { moveto } bind def
/l { lineto } bind def
/c { curveto } bind def
/h { closepath } bind def
/re { exch dup neg 3 1 roll 5 3 roll moveto 0 rlineto
      0 exch rlineto 0 rlineto closepath } bind def
/S { stroke } bind def
/f { fill } bind def
/f* { eofill } bind def
/n { newpath } bind def
/W { clip } bind def
/W* { eoclip } bind def
/BT { } bind def
/ET { } bind def
/pdfmark where { pop globaldict /?pdfmark /exec load put }
    { globaldict begin /?pdfmark /pop load def /pdfmark
    /cleartomark load def end } ifelse
/BDC { mark 3 1 roll /BDC pdfmark } bind def
/EMC { mark /EMC pdfmark } bind def
/cairo_store_point { /cairo_point_y exch def /cairo_point_x exch def } def
/Tj { show currentpoint cairo_store_point } bind def
/TJ {
  {
    dup
    type /stringtype eq
    { show } { -0.001 mul 0 cairo_font_matrix dtransform rmoveto } ifelse
  } forall
  currentpoint cairo_store_point
} bind def
/cairo_selectfont { cairo_font_matrix aload pop pop pop 0 0 6 array astore
    cairo_font exch selectfont cairo_point_x cairo_point_y moveto } bind def
/Tf { pop /cairo_font exch def /cairo_font_matrix where
      { pop cairo_selectfont } if } bind def
/Td { matrix translate cairo_font_matrix matrix concatmatrix dup
      /cairo_font_matrix exch def dup 4 get exch 5 get cairo_store_point
      /cairo_font where { pop cairo_selectfont } if } bind def
/Tm { 2 copy 8 2 roll 6 array astore /cairo_font_matrix exch def
      cairo_store_point /cairo_font where { pop cairo_selectfont } if } bind def
/g { setgray } bind def
/rg { setrgbcolor } bind def
/d1 { setcachedevice } bind def
%%EndProlog
%%Page: 1 1
%%BeginPageSetup
%%PageBoundingBox: 0 -1 76 73
%%EndPageSetup
q 0 -1 76 74 rectclip q
0 72.24 76 -73 re W n
0 g
14.02 36.197 m 14.32 36.036 14.672 35.919 15.066 35.767 c 15.469 35.622 
15.891 35.454 16.406 35.396 c 16.918 35.329 17.461 35.232 18.098 35.271 
c 18.414 35.29 18.742 35.341 19.09 35.392 c 19.262 35.419 19.438 35.443 
19.613 35.482 c 19.793 35.544 19.977 35.607 20.16 35.669 c 21.672 
36.103 23.199 37.4 24.238 38.927 c 24.789 39.724 25.172 40.54 25.465 
41.357 c 28.223 37.001 32.293 34.583 37.496 34.615 c 37.566 34.615 
37.84 34.618 37.871 34.618 c 47.379 34.857 53.656 43.825 53.625 57.185 
c 53.609 66.822 47.383 72.462 37.02 72.232 c 31.602 72.111 27.512 
70.411 24.914 67.349 c 24.5 67.462 24.07 67.575 23.555 67.615 c 23.23 
67.634 22.895 67.63 22.543 67.622 c 22.367 67.615 22.191 67.622 22.004 
67.591 c 21.809 67.548 21.609 67.505 21.414 67.458 c 21.012 67.357 
20.598 67.259 20.188 67.064 c 19.777 66.853 19.355 66.611 18.938 66.341 
c 18.168 65.763 17.414 64.962 16.914 64.154 c 15.848 62.501 15.359 
60.716 15.137 59.2 c 14.895 57.646 14.844 56.146 14.906 54.767 c 14.957 
53.361 15.102 52.04 15.273 50.782 c 15.461 49.513 15.656 48.353 15.871 
47.243 c 16.059 46.255 16.242 45.279 16.418 44.333 c 16.555 43.532 
16.695 42.81 16.777 42.396 c 16.824 42.24 16.82 42.181 16.848 42.068 c 
16.871 41.958 16.898 41.833 16.895 41.747 c 16.902 41.63 16.914 41.513 
16.918 41.396 c 16.887 41.294 16.848 41.193 16.82 41.052 c 16.668 
40.532 16.199 40.005 15.66 39.556 c 15.418 39.282 15.098 39.146 14.824 
38.939 c 14.543 38.747 14.273 38.56 14.012 38.396 c 13.488 38.122 
13.043 37.837 12.734 37.673 c 12.426 37.497 12.25 37.38 12.25 37.38 c 
12.25 37.38 12.398 37.251 12.691 37.044 c 12.984 36.853 13.422 36.525 
14.02 36.197 c h
14.02 36.197 m f
74.125 3.439 m 61.211 25.029 l 60.43 26.333 59.27 27.263 57.961 27.802 
c 49.109 31.876 l 44.859 35.462 l 37.551 28.197 l 30.227 35.462 l 
25.973 31.876 l 17.125 27.802 l 15.812 27.263 14.652 26.333 13.871 
25.029 c 0.957 3.439 l 0.324 2.38 0.008 1.189 0 0.001 c 75.082 0.001 l 
75.074 1.193 74.758 2.38 74.125 3.439 c h
74.125 3.439 m f
Q Q
showpage
%%Trailer
count op_count sub {pop} repeat
countdictstack dict_count sub {end} repeat
cairo_eps_state restore
%%EOF
