%!PS-Adobe-3.0 EPSF-3.0
%%Creator: cairo 1.10.2 (http://cairographics.org)
%%CreationDate: Fri Jul  4 09:55:04 2014
%%Pages: 1
%%BoundingBox: 0 -1 76 76
%%DocumentData: Clean7Bit
%%LanguageLevel: 2
%%EndComments
%%BeginProlog
/cairo_eps_state save def
/dict_count countdictstack def
/op_count count 1 sub def
userdict begin
/q { gsave } bind def
/Q { grestore } bind def
/cm { 6 array astore concat } bind def
/w { setlinewidth } bind def
/J { setlinecap } bind def
/j { setlinejoin } bind def
/M { setmiterlimit } bind def
/d { setdash } bind def
/m { moveto } bind def
/l { lineto } bind def
/c { curveto } bind def
/h { closepath } bind def
/re { exch dup neg 3 1 roll 5 3 roll moveto 0 rlineto
      0 exch rlineto 0 rlineto closepath } bind def
/S { stroke } bind def
/f { fill } bind def
/f* { eofill } bind def
/n { newpath } bind def
/W { clip } bind def
/W* { eoclip } bind def
/BT { } bind def
/ET { } bind def
/pdfmark where { pop globaldict /?pdfmark /exec load put }
    { globaldict begin /?pdfmark /pop load def /pdfmark
    /cleartomark load def end } ifelse
/BDC { mark 3 1 roll /BDC pdfmark } bind def
/EMC { mark /EMC pdfmark } bind def
/cairo_store_point { /cairo_point_y exch def /cairo_point_x exch def } def
/Tj { show currentpoint cairo_store_point } bind def
/TJ {
  {
    dup
    type /stringtype eq
    { show } { -0.001 mul 0 cairo_font_matrix dtransform rmoveto } ifelse
  } forall
  currentpoint cairo_store_point
} bind def
/cairo_selectfont { cairo_font_matrix aload pop pop pop 0 0 6 array astore
    cairo_font exch selectfont cairo_point_x cairo_point_y moveto } bind def
/Tf { pop /cairo_font exch def /cairo_font_matrix where
      { pop cairo_selectfont } if } bind def
/Td { matrix translate cairo_font_matrix matrix concatmatrix dup
      /cairo_font_matrix exch def dup 4 get exch 5 get cairo_store_point
      /cairo_font where { pop cairo_selectfont } if } bind def
/Tm { 2 copy 8 2 roll 6 array astore /cairo_font_matrix exch def
      cairo_store_point /cairo_font where { pop cairo_selectfont } if } bind def
/g { setgray } bind def
/rg { setrgbcolor } bind def
/d1 { setcachedevice } bind def
%%EndProlog
%%Page: 1 1
%%BeginPageSetup
%%PageBoundingBox: 0 -1 76 76
%%EndPageSetup
q 0 -1 76 77 rectclip q
0 75.278 76 -76 re W n
0 g
7.688 43.129 m 8.211 42.637 8.855 42.047 9.902 41.528 c 10.43 41.286 
11.074 41.051 11.914 41.004 c 12.734 40.961 13.809 41.168 14.723 41.762 
c 15.629 42.352 16.32 43.165 16.809 43.961 c 17.281 44.766 17.625 
45.563 17.895 46.364 c 18.129 47.153 18.344 47.954 18.477 48.735 c 
18.543 49.126 18.602 49.524 18.645 49.946 c 18.688 50.325 18.727 50.711 
18.766 51.098 c 18.836 52.465 18.906 53.879 18.98 55.313 c 19.047 56.68 
19.113 58.024 19.23 59.266 c 19.344 60.516 19.535 61.637 19.766 62.516 
c 20.008 63.411 20.266 63.961 20.602 64.434 c 20.777 64.684 21.027 
64.926 21.348 65.153 c 20.758 63.243 20.453 61.094 20.477 58.696 c 
20.633 43.727 27.121 34.653 37.523 34.848 c 47.625 35.043 54.293 44.696 
54.262 59.098 c 54.258 61.45 53.898 63.571 53.242 65.454 c 53.805 
65.153 54.227 64.801 54.48 64.434 c 54.82 63.961 55.074 63.411 55.312 
62.52 c 55.547 61.637 55.738 60.516 55.852 59.266 c 55.969 58.024 
56.035 56.68 56.102 55.313 c 56.176 53.879 56.246 52.465 56.316 51.098 
c 56.359 50.711 56.398 50.325 56.438 49.946 c 56.48 49.528 56.539 
49.126 56.609 48.735 c 56.738 47.954 56.953 47.153 57.191 46.368 c 
57.461 45.563 57.805 44.766 58.273 43.965 c 58.762 43.168 59.457 42.356 
60.359 41.766 c 61.273 41.168 62.348 40.961 63.168 41.004 c 64.008 
41.055 64.652 41.29 65.184 41.528 c 66.227 42.051 66.871 42.641 67.395 
43.129 c 67.91 43.618 68.262 44.047 68.523 44.317 c 68.781 44.598 
68.922 44.751 68.922 44.751 c 68.922 44.751 68.711 44.793 68.332 44.813 
c 67.953 44.829 67.379 44.852 66.711 44.848 c 66.047 44.86 65.258 
44.954 64.531 45.024 c 64.004 45.079 63.641 45.942 63.801 47.626 c 
63.848 48.102 63.879 48.606 63.949 49.168 c 63.973 49.45 64.004 49.727 
64.051 49.993 c 64.094 50.297 64.141 50.602 64.184 50.911 c 64.266 
51.602 64.348 52.301 64.434 53.012 c 64.504 53.758 64.566 54.52 64.594 
55.301 c 64.664 56.864 64.641 58.501 64.445 60.219 c 64.258 61.93 
63.883 63.754 63.082 65.61 c 62.277 67.434 60.922 69.399 59.031 70.575 
c 58.582 70.891 58.098 71.122 57.629 71.352 c 57.148 71.543 56.668 
71.715 56.203 71.833 c 55.266 72.063 54.371 72.184 53.551 72.157 c 
51.906 72.153 50.516 71.829 49.324 71.434 c 49.309 71.43 49.297 71.422 
49.277 71.418 c 46.434 73.887 42.457 75.243 37.539 75.278 c 37.27 
75.278 36.996 75.278 36.723 75.27 c 31.945 75.161 28.148 73.868 25.426 
71.532 c 24.309 71.879 23.031 72.153 21.531 72.157 c 20.715 72.184 
19.816 72.063 18.883 71.829 c 18.414 71.715 17.934 71.543 17.457 71.352 
c 16.984 71.118 16.504 70.891 16.051 70.575 c 14.16 69.399 12.805 
67.434 12.004 65.61 c 11.199 63.754 10.824 61.926 10.637 60.219 c 
10.441 58.501 10.422 56.864 10.488 55.301 c 10.52 54.516 10.578 53.754 
10.652 53.012 c 10.734 52.301 10.816 51.602 10.898 50.911 c 10.941 
50.602 10.988 50.293 11.031 49.993 c 11.078 49.723 11.109 49.446 11.133 
49.168 c 11.207 48.606 11.254 48.102 11.281 47.626 c 11.301 47.176 
11.758 45.208 10.551 45.024 c 9.832 44.918 9.039 44.86 8.371 44.848 c 
7.699 44.852 7.129 44.829 6.75 44.809 c 6.371 44.793 6.164 44.751 6.164 
44.751 c 6.164 44.751 6.301 44.598 6.562 44.317 c 6.82 44.047 7.172 
43.618 7.688 43.129 c h
7.688 43.129 m f
74.125 3.438 m 61.211 25.028 l 60.43 26.333 59.27 27.262 57.961 27.801 
c 49.109 31.876 l 44.859 35.461 l 37.551 28.196 l 30.227 35.461 l 
25.973 31.876 l 17.125 27.801 l 15.812 27.262 14.652 26.333 13.871 
25.028 c 0.957 3.438 l 0.324 2.379 0.008 1.192 0 0.001 c 75.082 0.001 l 
75.074 1.192 74.758 2.379 74.125 3.438 c h
74.125 3.438 m f
Q Q
showpage
%%Trailer
count op_count sub {pop} repeat
countdictstack dict_count sub {end} repeat
cairo_eps_state restore
%%EOF
