%!PS-Adobe-3.0 EPSF-3.0
%%Creator: cairo 1.10.2 (http://cairographics.org)
%%CreationDate: Fri Jul  4 08:47:46 2014
%%Pages: 1
%%BoundingBox: 0 -1 69 76
%%DocumentData: Clean7Bit
%%LanguageLevel: 2
%%EndComments
%%BeginProlog
/cairo_eps_state save def
/dict_count countdictstack def
/op_count count 1 sub def
userdict begin
/q { gsave } bind def
/Q { grestore } bind def
/cm { 6 array astore concat } bind def
/w { setlinewidth } bind def
/J { setlinecap } bind def
/j { setlinejoin } bind def
/M { setmiterlimit } bind def
/d { setdash } bind def
/m { moveto } bind def
/l { lineto } bind def
/c { curveto } bind def
/h { closepath } bind def
/re { exch dup neg 3 1 roll 5 3 roll moveto 0 rlineto
      0 exch rlineto 0 rlineto closepath } bind def
/S { stroke } bind def
/f { fill } bind def
/f* { eofill } bind def
/n { newpath } bind def
/W { clip } bind def
/W* { eoclip } bind def
/BT { } bind def
/ET { } bind def
/pdfmark where { pop globaldict /?pdfmark /exec load put }
    { globaldict begin /?pdfmark /pop load def /pdfmark
    /cleartomark load def end } ifelse
/BDC { mark 3 1 roll /BDC pdfmark } bind def
/EMC { mark /EMC pdfmark } bind def
/cairo_store_point { /cairo_point_y exch def /cairo_point_x exch def } def
/Tj { show currentpoint cairo_store_point } bind def
/TJ {
  {
    dup
    type /stringtype eq
    { show } { -0.001 mul 0 cairo_font_matrix dtransform rmoveto } ifelse
  } forall
  currentpoint cairo_store_point
} bind def
/cairo_selectfont { cairo_font_matrix aload pop pop pop 0 0 6 array astore
    cairo_font exch selectfont cairo_point_x cairo_point_y moveto } bind def
/Tf { pop /cairo_font exch def /cairo_font_matrix where
      { pop cairo_selectfont } if } bind def
/Td { matrix translate cairo_font_matrix matrix concatmatrix dup
      /cairo_font_matrix exch def dup 4 get exch 5 get cairo_store_point
      /cairo_font where { pop cairo_selectfont } if } bind def
/Tm { 2 copy 8 2 roll 6 array astore /cairo_font_matrix exch def
      cairo_store_point /cairo_font where { pop cairo_selectfont } if } bind def
/g { setgray } bind def
/rg { setrgbcolor } bind def
/d1 { setcachedevice } bind def
%%EndProlog
%%Page: 1 1
%%BeginPageSetup
%%PageBoundingBox: 0 -1 69 76
%%EndPageSetup
q 0 -1 69 77 rectclip q
0 75.409 69 -76 re W n
0 g
34.555 75.409 m 23.512 75.409 14.445 71.96 8.34 65.432 c 2.105 58.768 
-0.66 49.362 0.133 37.479 c 2.195 6.503 19.988 -0.001 34.555 -0.001 c 
44.172 -0.001 52.84 3.405 58.957 9.585 c 65.641 16.338 69.109 26.077 
68.988 37.741 c 68.746 60.624 55.234 75.409 34.555 75.409 c h
54.148 14.346 m 49.242 9.389 42.465 6.768 34.555 6.768 c 17.332 6.768 
8.281 16.96 6.883 37.928 c 6.223 47.87 8.375 55.565 13.281 60.811 c 
19.34 67.284 28.191 68.643 34.555 68.643 c 51.418 68.643 62.02 56.776 
62.219 37.671 c 62.324 27.85 59.531 19.788 54.148 14.346 c h
54.148 14.346 m f
44.484 58.471 m 43.648 59.506 42.664 60.514 41.523 61.421 c 40.383 
62.331 39.059 63.1 37.617 63.698 c 36.164 64.264 34.574 64.639 32.965 
64.659 c 31.363 64.702 29.773 64.366 28.387 63.815 c 26.992 63.268 
25.793 62.491 24.84 61.635 c 23.855 60.796 23.125 59.87 22.512 59.006 c 
22.223 58.557 21.965 58.124 21.73 57.713 c 21.504 57.296 21.32 56.885 
21.148 56.506 c 20.801 55.749 20.602 55.046 20.422 54.487 c 20.266 
53.913 20.191 53.444 20.121 53.139 c 20.059 52.827 20.039 52.659 20.039 
52.659 c 20.039 52.659 20.594 53.081 21.457 53.819 c 35.52 64.342 
26.598 46.135 32.461 41.725 c 31.633 41.506 30.809 41.225 30 40.85 c 
22.531 37.393 19.281 28.538 22.738 21.069 c 26.195 13.604 35.051 10.35 
42.52 13.807 c 45.957 15.401 48.484 18.143 49.895 21.362 c 54.645 
34.553 48.246 51.311 47.91 52.276 c 47.238 54.198 46.152 56.385 44.484 
58.471 c h
44.484 58.471 m f
Q Q
showpage
%%Trailer
count op_count sub {pop} repeat
countdictstack dict_count sub {end} repeat
cairo_eps_state restore
%%EOF
