%!PS-Adobe-3.0 EPSF-3.0
%%Creator: cairo 1.10.2 (http://cairographics.org)
%%CreationDate: Fri Jul  4 08:47:58 2014
%%Pages: 1
%%BoundingBox: 0 -1 75 58
%%DocumentData: Clean7Bit
%%LanguageLevel: 2
%%EndComments
%%BeginProlog
/cairo_eps_state save def
/dict_count countdictstack def
/op_count count 1 sub def
userdict begin
/q { gsave } bind def
/Q { grestore } bind def
/cm { 6 array astore concat } bind def
/w { setlinewidth } bind def
/J { setlinecap } bind def
/j { setlinejoin } bind def
/M { setmiterlimit } bind def
/d { setdash } bind def
/m { moveto } bind def
/l { lineto } bind def
/c { curveto } bind def
/h { closepath } bind def
/re { exch dup neg 3 1 roll 5 3 roll moveto 0 rlineto
      0 exch rlineto 0 rlineto closepath } bind def
/S { stroke } bind def
/f { fill } bind def
/f* { eofill } bind def
/n { newpath } bind def
/W { clip } bind def
/W* { eoclip } bind def
/BT { } bind def
/ET { } bind def
/pdfmark where { pop globaldict /?pdfmark /exec load put }
    { globaldict begin /?pdfmark /pop load def /pdfmark
    /cleartomark load def end } ifelse
/BDC { mark 3 1 roll /BDC pdfmark } bind def
/EMC { mark /EMC pdfmark } bind def
/cairo_store_point { /cairo_point_y exch def /cairo_point_x exch def } def
/Tj { show currentpoint cairo_store_point } bind def
/TJ {
  {
    dup
    type /stringtype eq
    { show } { -0.001 mul 0 cairo_font_matrix dtransform rmoveto } ifelse
  } forall
  currentpoint cairo_store_point
} bind def
/cairo_selectfont { cairo_font_matrix aload pop pop pop 0 0 6 array astore
    cairo_font exch selectfont cairo_point_x cairo_point_y moveto } bind def
/Tf { pop /cairo_font exch def /cairo_font_matrix where
      { pop cairo_selectfont } if } bind def
/Td { matrix translate cairo_font_matrix matrix concatmatrix dup
      /cairo_font_matrix exch def dup 4 get exch 5 get cairo_store_point
      /cairo_font where { pop cairo_selectfont } if } bind def
/Tm { 2 copy 8 2 roll 6 array astore /cairo_font_matrix exch def
      cairo_store_point /cairo_font where { pop cairo_selectfont } if } bind def
/g { setgray } bind def
/rg { setrgbcolor } bind def
/d1 { setcachedevice } bind def
%%EndProlog
%%Page: 1 1
%%BeginPageSetup
%%PageBoundingBox: 0 -1 75 58
%%EndPageSetup
q 0 -1 75 59 rectclip q
0 57.46 75 -58 re W n
0 g
63.219 32.058 m 63.316 31.714 63.43 31.355 63.535 31.073 c 63.805 
30.323 64.031 29.909 64.039 29.89 c 64.141 29.718 l 65.84 26.749 64.809 
22.952 61.844 21.253 c 60.906 20.714 59.84 20.429 58.762 20.429 c 
56.543 20.429 54.48 21.624 53.375 23.546 c 52.195 25.605 52.285 28.112 
53.609 30.089 c 53.609 30.093 53.637 30.14 53.676 30.214 c 53.758 30.37 
53.844 30.542 53.902 30.733 c 54.035 31.124 54.113 31.472 54.16 31.851 
c 54.168 31.913 54.168 31.991 54.176 32.058 c 43.145 32.058 l 43.246 
31.714 43.355 31.355 43.465 31.073 c 43.73 30.323 43.957 29.905 43.969 
29.89 c 44.066 29.714 l 45.766 26.749 44.738 22.952 41.77 21.249 c 
40.832 20.714 39.77 20.429 38.688 20.429 c 36.469 20.429 34.406 21.624 
33.305 23.546 c 32.125 25.605 32.211 28.112 33.535 30.089 c 33.539 
30.093 33.566 30.14 33.605 30.21 c 33.684 30.366 33.77 30.538 33.832 
30.733 c 33.965 31.124 34.043 31.472 34.09 31.847 c 34.098 31.913 
34.098 31.987 34.102 32.054 c 24.133 32.054 l 24.234 31.714 24.344 
31.351 24.453 31.073 c 24.719 30.323 24.945 29.905 24.957 29.89 c 
25.055 29.714 l 26.758 26.749 25.727 22.948 22.762 21.249 c 21.82 20.71 
20.758 20.425 19.676 20.425 c 17.461 20.425 15.395 21.62 14.293 23.542 
c 13.109 25.601 13.199 28.108 14.523 30.085 c 14.527 30.093 14.555 
30.14 14.594 30.21 c 14.672 30.366 14.758 30.538 14.816 30.733 c 14.949 
31.124 15.031 31.468 15.074 31.847 c 15.086 31.909 15.086 31.987 15.09 
32.054 c 0 32.054 l 0 15.788 l 1.316 16.401 2.766 16.776 4.367 16.812 c 
8.578 16.909 12.387 15.351 16.406 14.37 c 20.32 13.417 24.887 13.026 
28.781 14.323 c 31.871 15.351 34.766 16.866 37.898 17.772 c 45.418 
19.948 51.836 17.933 58.914 15.159 c 62.82 13.628 71.227 9.019 74.402 
13.808 c 74.469 13.909 74.535 13.999 74.605 14.085 c 74.605 32.058 l h
63.219 32.058 m f
8.539 57.093 m 8.688 57.003 8.855 56.897 9.027 56.757 c 9.391 56.499 
9.781 56.12 10.199 55.663 c 10.609 55.198 11.043 54.655 11.465 54.019 c 
12.32 52.757 13.145 51.179 13.902 49.437 c 14.648 47.687 15.328 45.772 
15.895 43.831 c 16.461 41.89 16.918 39.917 17.191 38.05 c 17.344 37.12 
17.434 36.214 17.508 35.355 c 17.59 34.499 17.609 33.687 17.625 32.94 c 
17.641 32.194 17.645 31.515 17.555 30.909 c 17.48 30.304 17.348 29.784 
17.203 29.358 c 17.074 28.933 16.902 28.605 16.789 28.382 c 16.672 
28.159 16.594 28.046 16.594 28.046 c 15.84 26.925 15.734 25.433 16.453 
24.183 c 17.457 22.433 19.688 21.827 21.438 22.831 c 23.188 23.835 
23.793 26.065 22.789 27.819 c 22.68 28.007 l 22.68 28.007 22.355 28.573 
22.023 29.519 c 21.84 29.991 21.672 30.558 21.492 31.202 c 21.324 
31.847 21.18 32.569 21.012 33.355 c 20.84 34.14 20.625 34.98 20.395 
35.858 c 20.168 36.741 19.895 37.659 19.609 38.605 c 19.031 40.495 
18.355 42.476 17.566 44.413 c 16.004 48.292 13.922 51.956 11.883 54.335 
c 11.383 54.937 10.871 55.444 10.402 55.87 c 9.922 56.284 9.492 56.628 
9.098 56.858 c 8.91 56.987 8.727 57.081 8.57 57.155 c 8.414 57.237 
8.277 57.3 8.164 57.335 c 7.934 57.417 7.812 57.46 7.812 57.46 c 7.812 
57.46 7.93 57.405 8.148 57.304 c 8.266 57.261 8.391 57.187 8.539 57.093 
c h
8.539 57.093 m f
27.551 57.093 m 27.699 57.003 27.867 56.897 28.039 56.757 c 28.402 
56.499 28.797 56.12 29.211 55.663 c 29.621 55.198 30.055 54.655 30.477 
54.019 c 31.332 52.757 32.156 51.179 32.914 49.437 c 33.66 47.687 
34.344 45.772 34.906 43.831 c 35.473 41.89 35.93 39.917 36.203 38.05 c 
36.355 37.12 36.445 36.214 36.52 35.355 c 36.602 34.499 36.621 33.687 
36.637 32.94 c 36.652 32.194 36.656 31.515 36.566 30.909 c 36.492 
30.304 36.363 29.784 36.215 29.358 c 36.086 28.933 35.914 28.605 35.801 
28.382 c 35.684 28.159 35.605 28.046 35.605 28.046 c 34.855 26.925 
34.75 25.433 35.465 24.183 c 36.469 22.433 38.699 21.827 40.449 22.831 
c 42.199 23.835 42.805 26.065 41.805 27.819 c 41.695 28.007 l 41.695 
28.007 41.371 28.573 41.035 29.519 c 40.852 29.991 40.684 30.558 40.508 
31.202 c 40.336 31.847 40.195 32.569 40.023 33.355 c 39.855 34.14 
39.637 34.98 39.41 35.858 c 39.184 36.741 38.91 37.659 38.625 38.605 c 
38.043 40.495 37.367 42.476 36.578 44.413 c 35.02 48.292 32.934 51.956 
30.898 54.335 c 30.395 54.937 29.887 55.444 29.418 55.87 c 28.934 
56.284 28.504 56.628 28.113 56.858 c 27.926 56.987 27.742 57.081 27.582 
57.155 c 27.426 57.237 27.293 57.3 27.176 57.335 c 26.949 57.417 26.828 
57.46 26.828 57.46 c 26.828 57.46 26.945 57.405 27.164 57.304 c 27.277 
57.261 27.406 57.187 27.551 57.093 c h
27.551 57.093 m f
47.621 57.093 m 47.77 57.003 47.938 56.897 48.109 56.757 c 48.473 
56.499 48.867 56.12 49.281 55.663 c 49.691 55.198 50.129 54.655 50.547 
54.019 c 51.402 52.757 52.227 51.179 52.988 49.437 c 53.73 47.687 
54.414 45.772 54.977 43.831 c 55.543 41.89 56 39.917 56.273 38.05 c 
56.426 37.12 56.516 36.214 56.59 35.355 c 56.672 34.499 56.691 33.687 
56.707 32.94 c 56.723 32.194 56.727 31.515 56.637 30.909 c 56.562 
30.304 56.434 29.784 56.285 29.358 c 56.156 28.933 55.988 28.605 55.875 
28.382 c 55.754 28.159 55.676 28.046 55.676 28.046 c 54.926 26.925 
54.82 25.433 55.535 24.183 c 56.539 22.433 58.77 21.827 60.523 22.831 c 
62.273 23.835 62.875 26.065 61.875 27.819 c 61.766 28.007 l 61.766 
28.007 61.441 28.573 61.105 29.519 c 60.926 29.991 60.758 30.558 60.578 
31.202 c 60.406 31.847 60.266 32.569 60.094 33.355 c 59.926 34.14 
59.707 34.98 59.477 35.858 c 59.25 36.741 58.977 37.659 58.695 38.605 c 
58.113 40.495 57.438 42.476 56.648 44.413 c 55.09 48.292 53.004 51.956 
50.965 54.335 c 50.465 54.937 49.957 55.444 49.488 55.87 c 49.004 
56.284 48.574 56.628 48.18 56.858 c 47.996 56.987 47.812 57.081 47.652 
57.155 c 47.496 57.237 47.363 57.3 47.246 57.335 c 47.02 57.417 46.898 
57.46 46.898 57.46 c 46.898 57.46 47.016 57.405 47.234 57.304 c 47.348 
57.261 47.477 57.187 47.621 57.093 c h
47.621 57.093 m f
58.914 10.831 m 51.836 13.605 45.418 15.62 37.898 13.444 c 34.766 
12.538 31.871 11.019 28.781 9.995 c 24.887 8.698 20.32 9.089 16.406 
10.042 c 12.387 11.022 8.578 12.581 4.367 12.483 c 2.766 12.448 1.316 
12.073 0 11.46 c 0 -0.001 l 74.605 -0.001 l 74.605 9.757 l 74.539 9.667 
74.469 9.577 74.402 9.48 c 71.227 4.69 62.82 9.3 58.914 10.831 c h
58.914 10.831 m f
Q Q
showpage
%%Trailer
count op_count sub {pop} repeat
countdictstack dict_count sub {end} repeat
cairo_eps_state restore
%%EOF
