%!PS-Adobe-3.0 EPSF-3.0
%%Creator: cairo 1.10.2 (http://cairographics.org)
%%CreationDate: Fri Jul  4 08:48:49 2014
%%Pages: 1
%%BoundingBox: 0 -1 64 75
%%DocumentData: Clean7Bit
%%LanguageLevel: 2
%%EndComments
%%BeginProlog
/cairo_eps_state save def
/dict_count countdictstack def
/op_count count 1 sub def
userdict begin
/q { gsave } bind def
/Q { grestore } bind def
/cm { 6 array astore concat } bind def
/w { setlinewidth } bind def
/J { setlinecap } bind def
/j { setlinejoin } bind def
/M { setmiterlimit } bind def
/d { setdash } bind def
/m { moveto } bind def
/l { lineto } bind def
/c { curveto } bind def
/h { closepath } bind def
/re { exch dup neg 3 1 roll 5 3 roll moveto 0 rlineto
      0 exch rlineto 0 rlineto closepath } bind def
/S { stroke } bind def
/f { fill } bind def
/f* { eofill } bind def
/n { newpath } bind def
/W { clip } bind def
/W* { eoclip } bind def
/BT { } bind def
/ET { } bind def
/pdfmark where { pop globaldict /?pdfmark /exec load put }
    { globaldict begin /?pdfmark /pop load def /pdfmark
    /cleartomark load def end } ifelse
/BDC { mark 3 1 roll /BDC pdfmark } bind def
/EMC { mark /EMC pdfmark } bind def
/cairo_store_point { /cairo_point_y exch def /cairo_point_x exch def } def
/Tj { show currentpoint cairo_store_point } bind def
/TJ {
  {
    dup
    type /stringtype eq
    { show } { -0.001 mul 0 cairo_font_matrix dtransform rmoveto } ifelse
  } forall
  currentpoint cairo_store_point
} bind def
/cairo_selectfont { cairo_font_matrix aload pop pop pop 0 0 6 array astore
    cairo_font exch selectfont cairo_point_x cairo_point_y moveto } bind def
/Tf { pop /cairo_font exch def /cairo_font_matrix where
      { pop cairo_selectfont } if } bind def
/Td { matrix translate cairo_font_matrix matrix concatmatrix dup
      /cairo_font_matrix exch def dup 4 get exch 5 get cairo_store_point
      /cairo_font where { pop cairo_selectfont } if } bind def
/Tm { 2 copy 8 2 roll 6 array astore /cairo_font_matrix exch def
      cairo_store_point /cairo_font where { pop cairo_selectfont } if } bind def
/g { setgray } bind def
/rg { setrgbcolor } bind def
/d1 { setcachedevice } bind def
%%EndProlog
%%Page: 1 1
%%BeginPageSetup
%%PageBoundingBox: 0 -1 64 75
%%EndPageSetup
q 0 -1 64 76 rectclip q
0 74.912 64 -75 re W n
0 g
26.637 66.502 m 27.398 68.533 28.992 69.58 29.453 71.842 c 29.457 
71.857 29.461 71.869 29.465 71.885 c 29.465 74.912 l 0.184 74.912 1.023 
54.014 1.023 54.014 c 13.59 54.014 l 13.797 54.014 14.633 53.967 14.898 
53.916 c 16.891 53.506 18.465 52.537 19.98 51.217 c 20.156 51.064 
20.266 50.99 20.332 50.951 c 21.172 51.541 21.883 52.385 22.473 53.205 
c 23.016 53.955 23.941 54.014 24.27 54.014 c 29.504 54.014 l 29.504 
60.795 l 27.836 62.197 25.762 64.174 26.637 66.502 c h
26.637 66.502 m f
33.504 74.893 m 33.504 71.705 l 33.504 69.346 32.094 67.225 30.777 
65.709 c 30.617 65.533 30.547 65.42 30.508 65.357 c 31.098 64.518 
33.465 63.123 33.465 61.326 c 33.465 54.014 l 38.727 54.014 l 40.129 
55.693 42.133 57.846 44.496 56.959 c 46.488 56.213 47.535 54.482 49.703 
53.975 c 62.711 53.959 l 62.711 53.955 63.488 74.893 33.504 74.893 c h
33.504 74.893 m f
63.383 50.053 m 50.113 50.053 l 49.93 50.053 49.078 50.064 48.785 
50.123 c 46.793 50.533 45.219 51.502 43.703 52.818 c 43.527 52.978 
43.418 53.049 43.352 53.088 c 42.598 52.557 41.988 51.791 41.406 51.076 
c 41.004 50.494 40.129 50.053 39.711 50.053 c 24.98 50.053 l 23.574 
48.369 21.562 46.189 19.188 47.08 c 17.176 47.834 15.438 50.053 13.59 
50.053 c 0.32 50.053 l 0.094 48.193 -0.02 46.244 0.004 44.197 c 0.305 
16.459 12.535 -0.354 32.148 0.006 c 51.191 0.369 63.762 18.252 63.703 
44.947 c 63.703 46.717 63.594 48.42 63.383 50.053 c h
17.414 31.939 m 14.461 31.939 12.07 34.33 12.07 37.283 c 12.07 40.232 
14.461 42.623 17.414 42.623 c 20.363 42.623 22.754 40.232 22.754 37.283 
c 22.754 34.33 20.363 31.939 17.414 31.939 c h
46.969 31.939 m 44.02 31.939 41.629 34.33 41.629 37.283 c 41.629 40.232 
44.02 42.623 46.969 42.623 c 49.918 42.623 52.312 40.232 52.312 37.283 
c 52.312 34.33 49.918 31.939 46.969 31.939 c h
46.969 31.939 m f
Q Q
showpage
%%Trailer
count op_count sub {pop} repeat
countdictstack dict_count sub {end} repeat
cairo_eps_state restore
%%EOF
