%!PS-Adobe-3.0 EPSF-3.0
%%Creator: cairo 1.10.2 (http://cairographics.org)
%%CreationDate: Fri Jul  4 08:47:59 2014
%%Pages: 1
%%BoundingBox: 0 -1 75 75
%%DocumentData: Clean7Bit
%%LanguageLevel: 2
%%EndComments
%%BeginProlog
/cairo_eps_state save def
/dict_count countdictstack def
/op_count count 1 sub def
userdict begin
/q { gsave } bind def
/Q { grestore } bind def
/cm { 6 array astore concat } bind def
/w { setlinewidth } bind def
/J { setlinecap } bind def
/j { setlinejoin } bind def
/M { setmiterlimit } bind def
/d { setdash } bind def
/m { moveto } bind def
/l { lineto } bind def
/c { curveto } bind def
/h { closepath } bind def
/re { exch dup neg 3 1 roll 5 3 roll moveto 0 rlineto
      0 exch rlineto 0 rlineto closepath } bind def
/S { stroke } bind def
/f { fill } bind def
/f* { eofill } bind def
/n { newpath } bind def
/W { clip } bind def
/W* { eoclip } bind def
/BT { } bind def
/ET { } bind def
/pdfmark where { pop globaldict /?pdfmark /exec load put }
    { globaldict begin /?pdfmark /pop load def /pdfmark
    /cleartomark load def end } ifelse
/BDC { mark 3 1 roll /BDC pdfmark } bind def
/EMC { mark /EMC pdfmark } bind def
/cairo_store_point { /cairo_point_y exch def /cairo_point_x exch def } def
/Tj { show currentpoint cairo_store_point } bind def
/TJ {
  {
    dup
    type /stringtype eq
    { show } { -0.001 mul 0 cairo_font_matrix dtransform rmoveto } ifelse
  } forall
  currentpoint cairo_store_point
} bind def
/cairo_selectfont { cairo_font_matrix aload pop pop pop 0 0 6 array astore
    cairo_font exch selectfont cairo_point_x cairo_point_y moveto } bind def
/Tf { pop /cairo_font exch def /cairo_font_matrix where
      { pop cairo_selectfont } if } bind def
/Td { matrix translate cairo_font_matrix matrix concatmatrix dup
      /cairo_font_matrix exch def dup 4 get exch 5 get cairo_store_point
      /cairo_font where { pop cairo_selectfont } if } bind def
/Tm { 2 copy 8 2 roll 6 array astore /cairo_font_matrix exch def
      cairo_store_point /cairo_font where { pop cairo_selectfont } if } bind def
/g { setgray } bind def
/rg { setrgbcolor } bind def
/d1 { setcachedevice } bind def
%%EndProlog
%%Page: 1 1
%%BeginPageSetup
%%PageBoundingBox: 0 -1 75 75
%%EndPageSetup
q 0 -1 75 76 rectclip q
0 74.933 75 -75 re W n
0 g
53.012 44.343 m 48.645 39.972 l 49.465 39.441 50.141 38.714 50.574 
37.675 c 51.645 35.085 49.691 32.843 47.656 31.55 c 45.402 30.12 42.387 
30.292 40.035 31.366 c 35.648 26.976 l 38.805 24.831 42.781 24.038 
46.555 24.827 c 50.973 25.749 55.402 28.945 56.52 33.534 c 57.496 
37.558 56.094 41.745 53.012 44.343 c h
53.012 44.343 m f
45.98 62.679 m 40.801 62.726 35.238 59.675 33.645 54.511 c 32.535 
50.913 33.562 47.202 36.039 44.71 c 40.246 48.917 l 38.977 50.159 
38.906 52.339 39.891 53.78 c 41.332 55.898 43.914 56.687 46.352 56.663 
c 50.242 56.632 49.844 62.648 45.98 62.679 c h
45.98 62.679 m f
16.504 38.179 m 11.453 34.179 12.188 28.433 15.285 23.952 c 19.516 
28.183 l 19.223 28.839 19.023 29.55 18.957 30.331 c 18.672 33.718 
22.117 34.679 24.852 34.378 c 25.109 34.351 25.359 34.316 25.602 34.269 
c 30.406 39.073 l 30.199 39.167 29.992 39.261 29.777 39.343 c 25.598 
40.984 20.16 41.081 16.504 38.179 c h
16.504 38.179 m f
37.465 74.933 m 16.809 74.933 0 58.124 0 37.468 c 0 16.808 16.809 
-0.001 37.465 -0.001 c 58.125 -0.001 74.934 16.808 74.934 37.468 c 
74.934 58.124 58.125 74.933 37.465 74.933 c h
6.812 37.468 m 6.812 54.37 20.562 68.12 37.465 68.12 c 44.324 68.12 
50.664 65.859 55.773 62.038 c 12.895 19.155 l 9.074 24.269 6.812 30.609 
6.812 37.468 c h
37.465 6.812 m 30.609 6.812 24.27 9.077 19.156 12.894 c 62.039 55.777 l 
65.855 50.663 68.121 44.323 68.121 37.468 c 68.121 20.566 54.371 6.812 
37.465 6.812 c h
37.465 6.812 m f
Q Q
showpage
%%Trailer
count op_count sub {pop} repeat
countdictstack dict_count sub {end} repeat
cairo_eps_state restore
%%EOF
