%!PS-Adobe-3.0 EPSF-3.0
%%Creator: cairo 1.10.2 (http://cairographics.org)
%%CreationDate: Fri Jul  4 08:47:40 2014
%%Pages: 1
%%BoundingBox: 0 -1 75 76
%%DocumentData: Clean7Bit
%%LanguageLevel: 2
%%EndComments
%%BeginProlog
/cairo_eps_state save def
/dict_count countdictstack def
/op_count count 1 sub def
userdict begin
/q { gsave } bind def
/Q { grestore } bind def
/cm { 6 array astore concat } bind def
/w { setlinewidth } bind def
/J { setlinecap } bind def
/j { setlinejoin } bind def
/M { setmiterlimit } bind def
/d { setdash } bind def
/m { moveto } bind def
/l { lineto } bind def
/c { curveto } bind def
/h { closepath } bind def
/re { exch dup neg 3 1 roll 5 3 roll moveto 0 rlineto
      0 exch rlineto 0 rlineto closepath } bind def
/S { stroke } bind def
/f { fill } bind def
/f* { eofill } bind def
/n { newpath } bind def
/W { clip } bind def
/W* { eoclip } bind def
/BT { } bind def
/ET { } bind def
/pdfmark where { pop globaldict /?pdfmark /exec load put }
    { globaldict begin /?pdfmark /pop load def /pdfmark
    /cleartomark load def end } ifelse
/BDC { mark 3 1 roll /BDC pdfmark } bind def
/EMC { mark /EMC pdfmark } bind def
/cairo_store_point { /cairo_point_y exch def /cairo_point_x exch def } def
/Tj { show currentpoint cairo_store_point } bind def
/TJ {
  {
    dup
    type /stringtype eq
    { show } { -0.001 mul 0 cairo_font_matrix dtransform rmoveto } ifelse
  } forall
  currentpoint cairo_store_point
} bind def
/cairo_selectfont { cairo_font_matrix aload pop pop pop 0 0 6 array astore
    cairo_font exch selectfont cairo_point_x cairo_point_y moveto } bind def
/Tf { pop /cairo_font exch def /cairo_font_matrix where
      { pop cairo_selectfont } if } bind def
/Td { matrix translate cairo_font_matrix matrix concatmatrix dup
      /cairo_font_matrix exch def dup 4 get exch 5 get cairo_store_point
      /cairo_font where { pop cairo_selectfont } if } bind def
/Tm { 2 copy 8 2 roll 6 array astore /cairo_font_matrix exch def
      cairo_store_point /cairo_font where { pop cairo_selectfont } if } bind def
/g { setgray } bind def
/rg { setrgbcolor } bind def
/d1 { setcachedevice } bind def
%%EndProlog
%%Page: 1 1
%%BeginPageSetup
%%PageBoundingBox: 0 -1 75 76
%%EndPageSetup
q 0 -1 75 77 rectclip q
0 75.325 75 -76 re W n
0 g
37.5 31.954 m 47.961 32.153 54.867 41.856 54.836 56.52 c 19.84 56.532 l 
20.004 41.294 26.727 31.758 37.5 31.954 c h
37.5 31.954 m f
61.602 22.051 m 60.777 23.422 59.547 24.383 58.164 24.922 c 48.793 
29.169 l 44.953 32.649 l 37.336 25.696 l 29.895 32.708 l 25.551 29.047 
l 16.508 24.883 l 15.172 24.333 13.984 23.387 13.184 22.051 c 0 0.001 l 
33.656 0.001 l 37.285 17.997 l 41.016 0.001 l 74.785 0.001 l h
58.844 8.969 m 55.441 8.969 l 55.441 5.567 l 51.457 5.567 l 51.457 
8.969 l 48.059 8.969 l 48.059 12.954 l 51.457 12.954 l 51.457 16.352 l 
55.441 16.352 l 55.441 12.954 l 58.844 12.954 l h
58.844 8.969 m f
55.004 64.887 m 55.004 70.653 50.332 75.325 44.566 75.325 c 30.219 
75.325 l 24.453 75.325 19.781 70.653 19.781 64.887 c 19.781 60.192 l 
55.004 60.192 l h
55.004 64.887 m f
Q Q
showpage
%%Trailer
count op_count sub {pop} repeat
countdictstack dict_count sub {end} repeat
cairo_eps_state restore
%%EOF
