%!PS-Adobe-3.0 EPSF-3.0
%%Creator: cairo 1.10.2 (http://cairographics.org)
%%CreationDate: Fri Jul  4 08:49:40 2014
%%Pages: 1
%%BoundingBox: 0 -1 71 76
%%DocumentData: Clean7Bit
%%LanguageLevel: 2
%%EndComments
%%BeginProlog
/cairo_eps_state save def
/dict_count countdictstack def
/op_count count 1 sub def
userdict begin
/q { gsave } bind def
/Q { grestore } bind def
/cm { 6 array astore concat } bind def
/w { setlinewidth } bind def
/J { setlinecap } bind def
/j { setlinejoin } bind def
/M { setmiterlimit } bind def
/d { setdash } bind def
/m { moveto } bind def
/l { lineto } bind def
/c { curveto } bind def
/h { closepath } bind def
/re { exch dup neg 3 1 roll 5 3 roll moveto 0 rlineto
      0 exch rlineto 0 rlineto closepath } bind def
/S { stroke } bind def
/f { fill } bind def
/f* { eofill } bind def
/n { newpath } bind def
/W { clip } bind def
/W* { eoclip } bind def
/BT { } bind def
/ET { } bind def
/pdfmark where { pop globaldict /?pdfmark /exec load put }
    { globaldict begin /?pdfmark /pop load def /pdfmark
    /cleartomark load def end } ifelse
/BDC { mark 3 1 roll /BDC pdfmark } bind def
/EMC { mark /EMC pdfmark } bind def
/cairo_store_point { /cairo_point_y exch def /cairo_point_x exch def } def
/Tj { show currentpoint cairo_store_point } bind def
/TJ {
  {
    dup
    type /stringtype eq
    { show } { -0.001 mul 0 cairo_font_matrix dtransform rmoveto } ifelse
  } forall
  currentpoint cairo_store_point
} bind def
/cairo_selectfont { cairo_font_matrix aload pop pop pop 0 0 6 array astore
    cairo_font exch selectfont cairo_point_x cairo_point_y moveto } bind def
/Tf { pop /cairo_font exch def /cairo_font_matrix where
      { pop cairo_selectfont } if } bind def
/Td { matrix translate cairo_font_matrix matrix concatmatrix dup
      /cairo_font_matrix exch def dup 4 get exch 5 get cairo_store_point
      /cairo_font where { pop cairo_selectfont } if } bind def
/Tm { 2 copy 8 2 roll 6 array astore /cairo_font_matrix exch def
      cairo_store_point /cairo_font where { pop cairo_selectfont } if } bind def
/g { setgray } bind def
/rg { setrgbcolor } bind def
/d1 { setcachedevice } bind def
%%EndProlog
%%Page: 1 1
%%BeginPageSetup
%%PageBoundingBox: 0 -1 71 76
%%EndPageSetup
q 0 -1 71 77 rectclip q
0 75.219 71 -76 re W n
0 g
66.52 47.797 m 60.5 58.101 50.613 64.172 41.82 63.898 c 41.121 67.851 
41.098 71.312 42.184 72.508 c 32.883 75.219 l 31.27 70.926 31.691 
65.531 32.621 60.945 c 31.219 64.992 29.422 70.527 28.441 74.879 c 
19.094 72.848 l 19.867 69.398 21.074 65.375 22.242 61.789 c 19.043 
65.652 13.66 70.586 9.906 72.855 c 9.457 73.125 9.348 73.238 8.695 
73.547 c 4.957 64.668 l 8.406 62.586 14.023 56.918 17.238 52.672 c 
14.523 55.578 9.84 59.113 4.465 60.976 c 4.148 61.082 3.832 61.156 
3.512 61.195 c 3.055 58.121 1.777 54.898 0 52.367 c 0.781 52.144 0.891 
52.09 1.336 51.933 c 5.379 50.535 9.062 47.543 10.918 45.402 c 6.781 
37.871 7.359 26.648 13.203 16.648 c 18.332 7.863 29.551 -2.086 53.855 
0.383 c 53.949 0.39 56.93 0.84 57.988 1.473 c 59.043 2.101 60.371 3.836 
60.512 4.094 c 60.574 4.18 60.645 4.281 60.727 4.394 c 74.812 24.355 
71.652 39.015 66.52 47.797 c h
52.008 11.558 m 37.734 10.551 28.055 14.234 23.211 22.519 c 11.871 
39.855 29.996 45.187 35.727 39.426 c 34.656 50.223 46.711 57.531 56.598 
42.027 c 61.441 33.738 59.895 23.496 52.008 11.558 c h
52.008 11.558 m f
Q Q
showpage
%%Trailer
count op_count sub {pop} repeat
countdictstack dict_count sub {end} repeat
cairo_eps_state restore
%%EOF
