%!PS-Adobe-3.0 EPSF-3.0
%%Creator: cairo 1.10.2 (http://cairographics.org)
%%CreationDate: Fri Jul  4 08:48:20 2014
%%Pages: 1
%%BoundingBox: 0 -1 77 70
%%DocumentData: Clean7Bit
%%LanguageLevel: 2
%%EndComments
%%BeginProlog
/cairo_eps_state save def
/dict_count countdictstack def
/op_count count 1 sub def
userdict begin
/q { gsave } bind def
/Q { grestore } bind def
/cm { 6 array astore concat } bind def
/w { setlinewidth } bind def
/J { setlinecap } bind def
/j { setlinejoin } bind def
/M { setmiterlimit } bind def
/d { setdash } bind def
/m { moveto } bind def
/l { lineto } bind def
/c { curveto } bind def
/h { closepath } bind def
/re { exch dup neg 3 1 roll 5 3 roll moveto 0 rlineto
      0 exch rlineto 0 rlineto closepath } bind def
/S { stroke } bind def
/f { fill } bind def
/f* { eofill } bind def
/n { newpath } bind def
/W { clip } bind def
/W* { eoclip } bind def
/BT { } bind def
/ET { } bind def
/pdfmark where { pop globaldict /?pdfmark /exec load put }
    { globaldict begin /?pdfmark /pop load def /pdfmark
    /cleartomark load def end } ifelse
/BDC { mark 3 1 roll /BDC pdfmark } bind def
/EMC { mark /EMC pdfmark } bind def
/cairo_store_point { /cairo_point_y exch def /cairo_point_x exch def } def
/Tj { show currentpoint cairo_store_point } bind def
/TJ {
  {
    dup
    type /stringtype eq
    { show } { -0.001 mul 0 cairo_font_matrix dtransform rmoveto } ifelse
  } forall
  currentpoint cairo_store_point
} bind def
/cairo_selectfont { cairo_font_matrix aload pop pop pop 0 0 6 array astore
    cairo_font exch selectfont cairo_point_x cairo_point_y moveto } bind def
/Tf { pop /cairo_font exch def /cairo_font_matrix where
      { pop cairo_selectfont } if } bind def
/Td { matrix translate cairo_font_matrix matrix concatmatrix dup
      /cairo_font_matrix exch def dup 4 get exch 5 get cairo_store_point
      /cairo_font where { pop cairo_selectfont } if } bind def
/Tm { 2 copy 8 2 roll 6 array astore /cairo_font_matrix exch def
      cairo_store_point /cairo_font where { pop cairo_selectfont } if } bind def
/g { setgray } bind def
/rg { setrgbcolor } bind def
/d1 { setcachedevice } bind def
%%EndProlog
%%Page: 1 1
%%BeginPageSetup
%%PageBoundingBox: 0 -1 77 70
%%EndPageSetup
q 0 -1 77 71 rectclip q
0 69.883 77 -70 re W n
0 g
53.191 69.883 m 47.562 69.883 42.199 67.875 38.043 64.286 c 33.887 
67.875 28.527 69.883 22.895 69.883 c 10.27 69.883 0 59.848 0 47.516 c 0 
26.457 34.754 2.266 36.234 1.246 c 38.043 0 l 39.855 1.246 l 41.332 
2.266 76.086 26.457 76.086 47.516 c 76.086 59.848 65.816 69.883 53.191 
69.883 c h
38.043 10.645 m 29.488 17.09 20.391 25.375 14.625 33.34 c 28.758 33.34 
l 32.172 42.582 l 40.125 20.942 l 45.992 33.34 l 61.465 33.34 l 55.695 
25.375 46.598 17.09 38.043 10.645 c h
63.605 36.543 m 43.965 36.543 l 40.496 29.207 l 32.18 51.836 l 26.527 
36.543 l 12.48 36.543 l 10.098 40.438 8.66 44.188 8.66 47.516 c 8.66 
55.075 15.043 61.223 22.895 61.223 c 27.16 61.223 31.168 59.403 33.887 
56.223 c 38.043 51.508 l 42.199 56.223 l 44.918 59.403 48.926 61.223 
53.191 61.223 c 61.043 61.223 67.426 55.075 67.426 47.516 c 67.426 
44.188 65.992 40.438 63.605 36.543 c h
63.605 36.543 m f
Q Q
showpage
%%Trailer
count op_count sub {pop} repeat
countdictstack dict_count sub {end} repeat
cairo_eps_state restore
%%EOF
