%!PS-Adobe-3.0 EPSF-3.0
%%Creator: cairo 1.10.2 (http://cairographics.org)
%%CreationDate: Fri Jul  4 08:28:51 2014
%%Pages: 1
%%BoundingBox: 0 -1 76 35
%%DocumentData: Clean7Bit
%%LanguageLevel: 2
%%EndComments
%%BeginProlog
/cairo_eps_state save def
/dict_count countdictstack def
/op_count count 1 sub def
userdict begin
/q { gsave } bind def
/Q { grestore } bind def
/cm { 6 array astore concat } bind def
/w { setlinewidth } bind def
/J { setlinecap } bind def
/j { setlinejoin } bind def
/M { setmiterlimit } bind def
/d { setdash } bind def
/m { moveto } bind def
/l { lineto } bind def
/c { curveto } bind def
/h { closepath } bind def
/re { exch dup neg 3 1 roll 5 3 roll moveto 0 rlineto
      0 exch rlineto 0 rlineto closepath } bind def
/S { stroke } bind def
/f { fill } bind def
/f* { eofill } bind def
/n { newpath } bind def
/W { clip } bind def
/W* { eoclip } bind def
/BT { } bind def
/ET { } bind def
/pdfmark where { pop globaldict /?pdfmark /exec load put }
    { globaldict begin /?pdfmark /pop load def /pdfmark
    /cleartomark load def end } ifelse
/BDC { mark 3 1 roll /BDC pdfmark } bind def
/EMC { mark /EMC pdfmark } bind def
/cairo_store_point { /cairo_point_y exch def /cairo_point_x exch def } def
/Tj { show currentpoint cairo_store_point } bind def
/TJ {
  {
    dup
    type /stringtype eq
    { show } { -0.001 mul 0 cairo_font_matrix dtransform rmoveto } ifelse
  } forall
  currentpoint cairo_store_point
} bind def
/cairo_selectfont { cairo_font_matrix aload pop pop pop 0 0 6 array astore
    cairo_font exch selectfont cairo_point_x cairo_point_y moveto } bind def
/Tf { pop /cairo_font exch def /cairo_font_matrix where
      { pop cairo_selectfont } if } bind def
/Td { matrix translate cairo_font_matrix matrix concatmatrix dup
      /cairo_font_matrix exch def dup 4 get exch 5 get cairo_store_point
      /cairo_font where { pop cairo_selectfont } if } bind def
/Tm { 2 copy 8 2 roll 6 array astore /cairo_font_matrix exch def
      cairo_store_point /cairo_font where { pop cairo_selectfont } if } bind def
/g { setgray } bind def
/rg { setrgbcolor } bind def
/d1 { setcachedevice } bind def
%%EndProlog
%%Page: 1 1
%%BeginPageSetup
%%PageBoundingBox: 0 -1 76 35
%%EndPageSetup
q 0 -1 76 36 rectclip q
0 34.292 76 -35 re W n
0 g
46.07 20.624 m 43.699 20.624 l 43.699 18.327 l 41.406 18.327 l 41.406 
15.96 l 43.699 15.96 l 43.699 13.663 l 46.07 13.663 l 46.07 15.96 l 
48.367 15.96 l 48.367 18.327 l 46.07 18.327 l h
46.07 20.624 m f
74.742 15.647 m 71.465 24.39 61.188 26.659 55.957 27.245 c 55.961 27.3 
55.973 27.351 55.973 27.409 c 55.973 28.655 l 66.305 28.655 l 67.34 
28.655 68.184 29.495 68.184 30.534 c 68.184 31.569 67.34 32.413 66.305 
32.413 c 55.973 32.413 l 55.973 33.452 55.129 34.292 54.094 34.292 c 
53.055 34.292 52.215 33.452 52.215 32.413 c 41.883 32.413 l 40.844 
32.413 40.004 31.569 40.004 30.534 c 40.004 29.495 40.844 28.655 41.883 
28.655 c 52.215 28.655 l 52.215 27.452 l 39.527 27.386 34.914 25.28 
33.57 19.675 c 12.074 20.55 l 11.059 22.702 8.875 24.19 6.34 24.19 c 
2.84 24.19 0 21.354 0 17.851 c 0 14.347 2.84 11.507 6.34 11.507 c 8.648 
11.507 10.66 12.745 11.77 14.585 c 34.5 11.245 l 37.832 7.351 38.742 
4.616 55.102 4.616 c 71.461 4.616 77.191 7.409 74.742 15.647 c h
44.887 11.769 m 41.918 11.769 39.512 14.175 39.512 17.144 c 39.512 
20.112 41.918 22.522 44.887 22.522 c 47.855 22.522 50.262 20.112 50.262 
17.144 c 50.262 14.175 47.855 11.769 44.887 11.769 c h
54.344 23.886 m 58.488 23.499 67.609 21.894 71.004 15.304 c 54.344 
15.304 l h
54.344 23.886 m f
74.379 5.722 m 74.164 5.769 l 74.031 5.769 l 73.477 5.769 72.98 5.397 
72.828 4.874 c 72.797 4.78 72.078 2.511 69.766 2.511 c 38.219 2.511 l 
37.527 2.511 36.965 1.948 36.965 1.257 c 36.965 0.565 37.527 -0.001 
38.219 -0.001 c 69.766 -0.001 l 73.059 -0.001 74.75 2.608 75.242 4.183 
c 75.422 4.835 75.035 5.526 74.379 5.722 c h
74.379 5.722 m f
Q Q
showpage
%%Trailer
count op_count sub {pop} repeat
countdictstack dict_count sub {end} repeat
cairo_eps_state restore
%%EOF
