%!PS-Adobe-3.0 EPSF-3.0
%%Creator: cairo 1.10.2 (http://cairographics.org)
%%CreationDate: Fri Jul  4 08:47:52 2014
%%Pages: 1
%%BoundingBox: 0 -1 74 51
%%DocumentData: Clean7Bit
%%LanguageLevel: 2
%%EndComments
%%BeginProlog
/cairo_eps_state save def
/dict_count countdictstack def
/op_count count 1 sub def
userdict begin
/q { gsave } bind def
/Q { grestore } bind def
/cm { 6 array astore concat } bind def
/w { setlinewidth } bind def
/J { setlinecap } bind def
/j { setlinejoin } bind def
/M { setmiterlimit } bind def
/d { setdash } bind def
/m { moveto } bind def
/l { lineto } bind def
/c { curveto } bind def
/h { closepath } bind def
/re { exch dup neg 3 1 roll 5 3 roll moveto 0 rlineto
      0 exch rlineto 0 rlineto closepath } bind def
/S { stroke } bind def
/f { fill } bind def
/f* { eofill } bind def
/n { newpath } bind def
/W { clip } bind def
/W* { eoclip } bind def
/BT { } bind def
/ET { } bind def
/pdfmark where { pop globaldict /?pdfmark /exec load put }
    { globaldict begin /?pdfmark /pop load def /pdfmark
    /cleartomark load def end } ifelse
/BDC { mark 3 1 roll /BDC pdfmark } bind def
/EMC { mark /EMC pdfmark } bind def
/cairo_store_point { /cairo_point_y exch def /cairo_point_x exch def } def
/Tj { show currentpoint cairo_store_point } bind def
/TJ {
  {
    dup
    type /stringtype eq
    { show } { -0.001 mul 0 cairo_font_matrix dtransform rmoveto } ifelse
  } forall
  currentpoint cairo_store_point
} bind def
/cairo_selectfont { cairo_font_matrix aload pop pop pop 0 0 6 array astore
    cairo_font exch selectfont cairo_point_x cairo_point_y moveto } bind def
/Tf { pop /cairo_font exch def /cairo_font_matrix where
      { pop cairo_selectfont } if } bind def
/Td { matrix translate cairo_font_matrix matrix concatmatrix dup
      /cairo_font_matrix exch def dup 4 get exch 5 get cairo_store_point
      /cairo_font where { pop cairo_selectfont } if } bind def
/Tm { 2 copy 8 2 roll 6 array astore /cairo_font_matrix exch def
      cairo_store_point /cairo_font where { pop cairo_selectfont } if } bind def
/g { setgray } bind def
/rg { setrgbcolor } bind def
/d1 { setcachedevice } bind def
%%EndProlog
%%Page: 1 1
%%BeginPageSetup
%%PageBoundingBox: 0 -1 74 51
%%EndPageSetup
q 0 -1 74 52 rectclip q
0 50.153 74 -51 re W n
0 g
0 50.153 m 0 0 l 73.977 0 l 73.977 50.153 l h
58.055 42.008 m 59.746 42.008 61.121 40.637 61.121 38.942 c 61.121 
37.25 59.746 35.875 58.055 35.875 c 56.359 35.875 54.988 37.25 54.988 
38.942 c 54.988 40.637 56.359 42.008 58.055 42.008 c h
51.574 43.754 m 51.574 23.696 l 38.539 23.696 l 35.156 14.2 l 30.859 
23.696 l 26.289 23.696 l 20.801 42.672 l 15.191 23.696 l 6.398 23.696 l 
6.398 43.754 l h
6.398 6.399 m 6.398 21.293 l 16.984 21.293 l 20.773 34.122 l 24.484 
21.293 l 29.312 21.293 l 35.418 7.79 l 40.234 21.293 l 51.574 21.293 l 
51.574 6.399 l h
58.055 33.743 m 59.746 33.743 61.121 32.372 61.121 30.676 c 61.121 
28.981 59.746 27.61 58.055 27.61 c 56.359 27.61 54.988 28.981 54.988 
30.676 c 54.988 32.372 56.359 33.743 58.055 33.743 c h
61.789 10.176 m 55.789 10.176 l 55.789 13.977 l 61.789 13.977 l h
61.789 16.825 m 55.789 16.825 l 55.789 20.625 l 61.789 20.625 l h
69.789 10.176 m 63.789 10.176 l 63.789 13.977 l 69.789 13.977 l h
69.789 16.825 m 63.789 16.825 l 63.789 20.625 l 69.789 20.625 l h
67.254 27.61 m 65.559 27.61 64.188 28.981 64.188 30.676 c 64.188 32.372 
65.559 33.743 67.254 33.743 c 68.945 33.743 70.32 32.372 70.32 30.676 c 
70.32 28.981 68.945 27.61 67.254 27.61 c h
67.254 35.875 m 65.559 35.875 64.188 37.25 64.188 38.942 c 64.188 
40.637 65.559 42.008 67.254 42.008 c 68.945 42.008 70.32 40.637 70.32 
38.942 c 70.32 37.25 68.945 35.875 67.254 35.875 c h
67.254 35.875 m f
Q Q
showpage
%%Trailer
count op_count sub {pop} repeat
countdictstack dict_count sub {end} repeat
cairo_eps_state restore
%%EOF
