%!PS-Adobe-3.0 EPSF-3.0
%%Creator: cairo 1.10.2 (http://cairographics.org)
%%CreationDate: Fri Jul  4 08:47:58 2014
%%Pages: 1
%%BoundingBox: 0 -1 74 75
%%DocumentData: Clean7Bit
%%LanguageLevel: 2
%%EndComments
%%BeginProlog
/cairo_eps_state save def
/dict_count countdictstack def
/op_count count 1 sub def
userdict begin
/q { gsave } bind def
/Q { grestore } bind def
/cm { 6 array astore concat } bind def
/w { setlinewidth } bind def
/J { setlinecap } bind def
/j { setlinejoin } bind def
/M { setmiterlimit } bind def
/d { setdash } bind def
/m { moveto } bind def
/l { lineto } bind def
/c { curveto } bind def
/h { closepath } bind def
/re { exch dup neg 3 1 roll 5 3 roll moveto 0 rlineto
      0 exch rlineto 0 rlineto closepath } bind def
/S { stroke } bind def
/f { fill } bind def
/f* { eofill } bind def
/n { newpath } bind def
/W { clip } bind def
/W* { eoclip } bind def
/BT { } bind def
/ET { } bind def
/pdfmark where { pop globaldict /?pdfmark /exec load put }
    { globaldict begin /?pdfmark /pop load def /pdfmark
    /cleartomark load def end } ifelse
/BDC { mark 3 1 roll /BDC pdfmark } bind def
/EMC { mark /EMC pdfmark } bind def
/cairo_store_point { /cairo_point_y exch def /cairo_point_x exch def } def
/Tj { show currentpoint cairo_store_point } bind def
/TJ {
  {
    dup
    type /stringtype eq
    { show } { -0.001 mul 0 cairo_font_matrix dtransform rmoveto } ifelse
  } forall
  currentpoint cairo_store_point
} bind def
/cairo_selectfont { cairo_font_matrix aload pop pop pop 0 0 6 array astore
    cairo_font exch selectfont cairo_point_x cairo_point_y moveto } bind def
/Tf { pop /cairo_font exch def /cairo_font_matrix where
      { pop cairo_selectfont } if } bind def
/Td { matrix translate cairo_font_matrix matrix concatmatrix dup
      /cairo_font_matrix exch def dup 4 get exch 5 get cairo_store_point
      /cairo_font where { pop cairo_selectfont } if } bind def
/Tm { 2 copy 8 2 roll 6 array astore /cairo_font_matrix exch def
      cairo_store_point /cairo_font where { pop cairo_selectfont } if } bind def
/g { setgray } bind def
/rg { setrgbcolor } bind def
/d1 { setcachedevice } bind def
%%EndProlog
%%Page: 1 1
%%BeginPageSetup
%%PageBoundingBox: 0 -1 74 75
%%EndPageSetup
q 0 -1 74 76 rectclip q
0 74.942 74 -75 re W n
0 g
69.551 24.457 m 68.734 24.457 68.02 25.004 67.805 25.793 c 66.121 
31.942 l 62.395 17.66 l 62.188 16.86 61.465 16.305 60.641 16.305 c 
60.629 16.305 60.613 16.305 60.598 16.305 c 59.762 16.324 59.043 16.918 
58.867 17.738 c 52.742 46.578 l 47.441 26.711 l 47.23 25.918 46.512 
25.363 45.691 25.363 c 32.391 25.383 l 31.574 25.383 30.859 25.93 
30.645 26.719 c 28.961 32.863 l 25.234 18.582 l 25.023 17.785 24.305 
17.231 23.48 17.231 c 23.469 17.231 23.453 17.231 23.438 17.231 c 
22.602 17.25 21.883 17.844 21.707 18.664 c 15.578 47.504 l 10.281 
27.637 l 10.07 26.84 9.352 26.289 8.531 26.289 c 0 26.289 l 0 0 l 
73.398 0 l 73.398 24.457 l h
69.551 24.457 m f
0 74.942 m 0 31.457 l 7.137 31.457 l 14.027 57.293 l 14.238 58.086 
14.957 58.637 15.777 58.637 c 15.793 58.637 15.809 58.637 15.824 58.637 
c 16.664 58.613 17.375 58.02 17.551 57.203 c 23.66 28.453 l 27.164 
41.879 l 27.367 42.672 28.086 43.231 28.906 43.235 c 28.918 43.235 l 
29.734 43.235 30.449 42.688 30.664 41.903 c 33.773 30.547 l 44.301 
30.539 l 51.188 56.367 l 51.402 57.164 52.121 57.715 52.938 57.715 c 
52.957 57.715 52.969 57.715 52.988 57.711 c 53.824 57.692 54.539 57.098 
54.715 56.278 c 60.824 27.528 l 64.324 40.953 l 64.531 41.75 65.246 
42.305 66.066 42.309 c 66.078 42.309 l 66.895 42.309 67.609 41.766 
67.828 40.977 c 70.938 29.625 l 73.402 29.625 l 73.402 74.942 l h
0 74.942 m f
Q Q
showpage
%%Trailer
count op_count sub {pop} repeat
countdictstack dict_count sub {end} repeat
cairo_eps_state restore
%%EOF
