%!PS-Adobe-3.0 EPSF-3.0
%%Creator: cairo 1.10.2 (http://cairographics.org)
%%CreationDate: Mon Jul  7 11:02:42 2014
%%Pages: 1
%%BoundingBox: 0 -1 38 27
%%DocumentData: Clean7Bit
%%LanguageLevel: 2
%%EndComments
%%BeginProlog
/cairo_eps_state save def
/dict_count countdictstack def
/op_count count 1 sub def
userdict begin
/q { gsave } bind def
/Q { grestore } bind def
/cm { 6 array astore concat } bind def
/w { setlinewidth } bind def
/J { setlinecap } bind def
/j { setlinejoin } bind def
/M { setmiterlimit } bind def
/d { setdash } bind def
/m { moveto } bind def
/l { lineto } bind def
/c { curveto } bind def
/h { closepath } bind def
/re { exch dup neg 3 1 roll 5 3 roll moveto 0 rlineto
      0 exch rlineto 0 rlineto closepath } bind def
/S { stroke } bind def
/f { fill } bind def
/f* { eofill } bind def
/n { newpath } bind def
/W { clip } bind def
/W* { eoclip } bind def
/BT { } bind def
/ET { } bind def
/pdfmark where { pop globaldict /?pdfmark /exec load put }
    { globaldict begin /?pdfmark /pop load def /pdfmark
    /cleartomark load def end } ifelse
/BDC { mark 3 1 roll /BDC pdfmark } bind def
/EMC { mark /EMC pdfmark } bind def
/cairo_store_point { /cairo_point_y exch def /cairo_point_x exch def } def
/Tj { show currentpoint cairo_store_point } bind def
/TJ {
  {
    dup
    type /stringtype eq
    { show } { -0.001 mul 0 cairo_font_matrix dtransform rmoveto } ifelse
  } forall
  currentpoint cairo_store_point
} bind def
/cairo_selectfont { cairo_font_matrix aload pop pop pop 0 0 6 array astore
    cairo_font exch selectfont cairo_point_x cairo_point_y moveto } bind def
/Tf { pop /cairo_font exch def /cairo_font_matrix where
      { pop cairo_selectfont } if } bind def
/Td { matrix translate cairo_font_matrix matrix concatmatrix dup
      /cairo_font_matrix exch def dup 4 get exch 5 get cairo_store_point
      /cairo_font where { pop cairo_selectfont } if } bind def
/Tm { 2 copy 8 2 roll 6 array astore /cairo_font_matrix exch def
      cairo_store_point /cairo_font where { pop cairo_selectfont } if } bind def
/g { setgray } bind def
/rg { setrgbcolor } bind def
/d1 { setcachedevice } bind def
%%EndProlog
%%Page: 1 1
%%BeginPageSetup
%%PageBoundingBox: 0 -1 38 27
%%EndPageSetup
q 0 -1 38 28 rectclip q
0 26.203 38 -27 re W n
0 g
16.145 -0 m 15.453 -0 14.844 0.465 14.664 1.136 c 12.098 10.718 l 
11.086 7.492 l 10.922 6.98 10.504 6.586 9.977 6.461 c 9.453 6.336 8.902 
6.496 8.527 6.879 c 5.059 10.414 l 1.535 10.414 l 0.688 10.414 0 11.101 
0 11.945 c 0 12.793 0.688 13.484 1.535 13.484 c 5.707 13.484 l 6.117 
13.484 6.512 13.316 6.801 13.023 c 8.926 10.855 l 10.75 16.672 l 10.953 
17.312 11.547 17.746 12.215 17.746 c 12.246 17.746 l 12.93 17.73 13.52 
17.269 13.695 16.609 c 15.727 9.035 l 18.121 24.898 l 18.23 25.625 
18.836 26.172 19.57 26.203 c 20.273 26.23 20.957 25.742 21.129 25.027 c 
23.973 13.203 l 25.973 19.902 l 26.145 20.484 26.648 20.91 27.254 
20.984 c 27.852 21.058 28.449 20.769 28.762 20.246 c 32.77 13.48 l 
36.066 13.48 l 36.914 13.48 37.598 12.793 37.598 11.945 c 37.598 11.097 
36.914 10.41 36.066 10.41 c 31.895 10.41 l 31.352 10.41 30.852 10.695 
30.574 11.164 c 27.91 15.66 l 25.285 6.863 l 25.09 6.199 24.492 5.722 
23.773 5.769 c 23.078 5.789 22.488 6.269 22.324 6.945 c 19.984 16.675 l 
17.664 1.304 l 17.555 0.586 16.957 0.043 16.234 0.004 c 16.203 -0 
16.176 -0 16.145 -0 c h
16.145 -0 m f
Q Q
showpage
%%Trailer
count op_count sub {pop} repeat
countdictstack dict_count sub {end} repeat
cairo_eps_state restore
%%EOF
