%!PS-Adobe-3.0 EPSF-3.0
%%Creator: cairo 1.10.2 (http://cairographics.org)
%%CreationDate: Fri Jul  4 08:48:39 2014
%%Pages: 1
%%BoundingBox: 0 -1 76 62
%%DocumentData: Clean7Bit
%%LanguageLevel: 2
%%EndComments
%%BeginProlog
/cairo_eps_state save def
/dict_count countdictstack def
/op_count count 1 sub def
userdict begin
/q { gsave } bind def
/Q { grestore } bind def
/cm { 6 array astore concat } bind def
/w { setlinewidth } bind def
/J { setlinecap } bind def
/j { setlinejoin } bind def
/M { setmiterlimit } bind def
/d { setdash } bind def
/m { moveto } bind def
/l { lineto } bind def
/c { curveto } bind def
/h { closepath } bind def
/re { exch dup neg 3 1 roll 5 3 roll moveto 0 rlineto
      0 exch rlineto 0 rlineto closepath } bind def
/S { stroke } bind def
/f { fill } bind def
/f* { eofill } bind def
/n { newpath } bind def
/W { clip } bind def
/W* { eoclip } bind def
/BT { } bind def
/ET { } bind def
/pdfmark where { pop globaldict /?pdfmark /exec load put }
    { globaldict begin /?pdfmark /pop load def /pdfmark
    /cleartomark load def end } ifelse
/BDC { mark 3 1 roll /BDC pdfmark } bind def
/EMC { mark /EMC pdfmark } bind def
/cairo_store_point { /cairo_point_y exch def /cairo_point_x exch def } def
/Tj { show currentpoint cairo_store_point } bind def
/TJ {
  {
    dup
    type /stringtype eq
    { show } { -0.001 mul 0 cairo_font_matrix dtransform rmoveto } ifelse
  } forall
  currentpoint cairo_store_point
} bind def
/cairo_selectfont { cairo_font_matrix aload pop pop pop 0 0 6 array astore
    cairo_font exch selectfont cairo_point_x cairo_point_y moveto } bind def
/Tf { pop /cairo_font exch def /cairo_font_matrix where
      { pop cairo_selectfont } if } bind def
/Td { matrix translate cairo_font_matrix matrix concatmatrix dup
      /cairo_font_matrix exch def dup 4 get exch 5 get cairo_store_point
      /cairo_font where { pop cairo_selectfont } if } bind def
/Tm { 2 copy 8 2 roll 6 array astore /cairo_font_matrix exch def
      cairo_store_point /cairo_font where { pop cairo_selectfont } if } bind def
/g { setgray } bind def
/rg { setrgbcolor } bind def
/d1 { setcachedevice } bind def
%%EndProlog
%%Page: 1 1
%%BeginPageSetup
%%PageBoundingBox: 0 -1 76 62
%%EndPageSetup
q 0 -1 76 63 rectclip q
0 61.911 76 -62 re W n
0 g
70.926 25.368 m 35.715 51.688 l 35.941 53.341 35.293 55.067 33.875 
56.126 c 27.391 60.974 l 25.309 62.532 22.348 62.103 20.793 60.021 c 
6.309 40.646 l 4.754 38.563 5.18 35.603 7.262 34.048 c 13.746 29.2 l 
15.164 28.138 17.004 28.005 18.52 28.692 c 53.73 2.372 l 59 -1.569 
66.496 -0.487 70.434 4.786 c 73.336 8.669 l 77.277 13.938 76.195 21.431 
70.926 25.368 c h
26.941 27.981 m 18.102 34.591 l 16.762 32.833 l 16.676 32.728 16.531 
32.708 16.426 32.786 c 9.941 37.63 l 9.836 37.712 9.812 37.86 9.895 
37.966 c 24.375 57.341 l 24.453 57.45 24.605 57.47 24.711 57.392 c 
31.195 52.544 l 31.301 52.466 31.32 52.317 31.242 52.208 c 29.938 
50.423 l 44.152 39.794 l h
26.941 27.981 m f
0 17.446 m 0 14.345 2.512 11.833 5.613 11.833 c 8.711 11.833 11.227 
14.345 11.227 17.446 c 11.227 20.544 5.613 27.649 5.613 27.649 c 5.613 
27.649 0 20.544 0 17.446 c h
0 17.446 m f
Q Q
showpage
%%Trailer
count op_count sub {pop} repeat
countdictstack dict_count sub {end} repeat
cairo_eps_state restore
%%EOF
