%!PS-Adobe-3.0 EPSF-3.0
%%Creator: cairo 1.10.2 (http://cairographics.org)
%%CreationDate: Fri Jul  4 08:47:34 2014
%%Pages: 1
%%BoundingBox: 0 -1 54 76
%%DocumentData: Clean7Bit
%%LanguageLevel: 2
%%EndComments
%%BeginProlog
/cairo_eps_state save def
/dict_count countdictstack def
/op_count count 1 sub def
userdict begin
/q { gsave } bind def
/Q { grestore } bind def
/cm { 6 array astore concat } bind def
/w { setlinewidth } bind def
/J { setlinecap } bind def
/j { setlinejoin } bind def
/M { setmiterlimit } bind def
/d { setdash } bind def
/m { moveto } bind def
/l { lineto } bind def
/c { curveto } bind def
/h { closepath } bind def
/re { exch dup neg 3 1 roll 5 3 roll moveto 0 rlineto
      0 exch rlineto 0 rlineto closepath } bind def
/S { stroke } bind def
/f { fill } bind def
/f* { eofill } bind def
/n { newpath } bind def
/W { clip } bind def
/W* { eoclip } bind def
/BT { } bind def
/ET { } bind def
/pdfmark where { pop globaldict /?pdfmark /exec load put }
    { globaldict begin /?pdfmark /pop load def /pdfmark
    /cleartomark load def end } ifelse
/BDC { mark 3 1 roll /BDC pdfmark } bind def
/EMC { mark /EMC pdfmark } bind def
/cairo_store_point { /cairo_point_y exch def /cairo_point_x exch def } def
/Tj { show currentpoint cairo_store_point } bind def
/TJ {
  {
    dup
    type /stringtype eq
    { show } { -0.001 mul 0 cairo_font_matrix dtransform rmoveto } ifelse
  } forall
  currentpoint cairo_store_point
} bind def
/cairo_selectfont { cairo_font_matrix aload pop pop pop 0 0 6 array astore
    cairo_font exch selectfont cairo_point_x cairo_point_y moveto } bind def
/Tf { pop /cairo_font exch def /cairo_font_matrix where
      { pop cairo_selectfont } if } bind def
/Td { matrix translate cairo_font_matrix matrix concatmatrix dup
      /cairo_font_matrix exch def dup 4 get exch 5 get cairo_store_point
      /cairo_font where { pop cairo_selectfont } if } bind def
/Tm { 2 copy 8 2 roll 6 array astore /cairo_font_matrix exch def
      cairo_store_point /cairo_font where { pop cairo_selectfont } if } bind def
/g { setgray } bind def
/rg { setrgbcolor } bind def
/d1 { setcachedevice } bind def
%%EndProlog
%%Page: 1 1
%%BeginPageSetup
%%PageBoundingBox: 0 -1 54 76
%%EndPageSetup
q 0 -1 54 77 rectclip q
0 75.886 54 -76 re W n
0 g
35.102 70.561 m 35.102 68.487 l 35.102 66.261 31.773 63.776 27 63.776 c 
22.227 63.776 18.898 66.257 18.898 68.487 c 18.898 70.565 l 0 70.565 l 
0 -0.001 l 54 -0.001 l 54 70.565 l h
49.848 4.155 m 4.152 4.155 l 4.152 66.413 l 15.07 66.409 l 16.332 
62.475 21.121 59.62 27 59.62 c 32.879 59.62 37.668 62.475 38.93 66.413 
c 49.848 66.413 l h
49.848 4.155 m f
27 65.604 m 30.355 65.604 33.074 67.05 33.074 68.823 c 33.074 69.874 
32.121 70.807 30.648 71.393 c 30.703 71.651 30.738 71.913 30.738 72.186 
c 30.738 74.229 29.066 75.886 27 75.886 c 24.934 75.886 23.262 74.229 
23.262 72.186 c 23.262 71.913 23.297 71.651 23.352 71.393 c 21.879 
70.807 20.926 69.878 20.926 68.823 c 20.926 67.05 23.645 65.604 27 
65.604 c h
27 65.604 m f
8.828 52.936 9.551 -3.945 re f
21.91 52.936 23.262 -3.945 re f
8.828 36.319 9.551 -3.945 re f
21.91 36.319 23.262 -3.945 re f
8.828 19.706 9.551 -3.949 re f
21.91 19.706 23.262 -3.949 re f
Q Q
showpage
%%Trailer
count op_count sub {pop} repeat
countdictstack dict_count sub {end} repeat
cairo_eps_state restore
%%EOF
