%!PS-Adobe-3.0 EPSF-3.0
%%Creator: cairo 1.10.2 (http://cairographics.org)
%%CreationDate: Fri Jul  4 08:48:21 2014
%%Pages: 1
%%BoundingBox: 0 -1 74 73
%%DocumentData: Clean7Bit
%%LanguageLevel: 2
%%EndComments
%%BeginProlog
/cairo_eps_state save def
/dict_count countdictstack def
/op_count count 1 sub def
userdict begin
/q { gsave } bind def
/Q { grestore } bind def
/cm { 6 array astore concat } bind def
/w { setlinewidth } bind def
/J { setlinecap } bind def
/j { setlinejoin } bind def
/M { setmiterlimit } bind def
/d { setdash } bind def
/m { moveto } bind def
/l { lineto } bind def
/c { curveto } bind def
/h { closepath } bind def
/re { exch dup neg 3 1 roll 5 3 roll moveto 0 rlineto
      0 exch rlineto 0 rlineto closepath } bind def
/S { stroke } bind def
/f { fill } bind def
/f* { eofill } bind def
/n { newpath } bind def
/W { clip } bind def
/W* { eoclip } bind def
/BT { } bind def
/ET { } bind def
/pdfmark where { pop globaldict /?pdfmark /exec load put }
    { globaldict begin /?pdfmark /pop load def /pdfmark
    /cleartomark load def end } ifelse
/BDC { mark 3 1 roll /BDC pdfmark } bind def
/EMC { mark /EMC pdfmark } bind def
/cairo_store_point { /cairo_point_y exch def /cairo_point_x exch def } def
/Tj { show currentpoint cairo_store_point } bind def
/TJ {
  {
    dup
    type /stringtype eq
    { show } { -0.001 mul 0 cairo_font_matrix dtransform rmoveto } ifelse
  } forall
  currentpoint cairo_store_point
} bind def
/cairo_selectfont { cairo_font_matrix aload pop pop pop 0 0 6 array astore
    cairo_font exch selectfont cairo_point_x cairo_point_y moveto } bind def
/Tf { pop /cairo_font exch def /cairo_font_matrix where
      { pop cairo_selectfont } if } bind def
/Td { matrix translate cairo_font_matrix matrix concatmatrix dup
      /cairo_font_matrix exch def dup 4 get exch 5 get cairo_store_point
      /cairo_font where { pop cairo_selectfont } if } bind def
/Tm { 2 copy 8 2 roll 6 array astore /cairo_font_matrix exch def
      cairo_store_point /cairo_font where { pop cairo_selectfont } if } bind def
/g { setgray } bind def
/rg { setrgbcolor } bind def
/d1 { setcachedevice } bind def
%%EndProlog
%%Page: 1 1
%%BeginPageSetup
%%PageBoundingBox: 0 -1 74 73
%%EndPageSetup
q 0 -1 74 74 rectclip q
0 72.568 74 -73 re W n
0 g
72.984 69.767 m 71.52 72.4 68.199 73.341 65.57 71.88 c 46.152 61.071 l 
5.453 61.071 l 2.441 61.071 0 58.63 0 55.618 c 0 52.607 2.441 50.165 
5.453 50.165 c 47.566 50.165 l 48.496 50.165 49.406 50.403 50.219 
50.853 c 70.871 62.349 l 73.504 63.818 74.449 67.134 72.984 69.767 c h
72.984 69.767 m f
2.18 40.407 m 2.18 40.017 l 3.727 40.017 l 28.297 27.79 l 3.773 15.474 
l 2.18 15.474 l 2.18 8.696 l 5.988 8.696 l 4.676 7.857 3.797 6.4 3.797 
4.724 c 3.797 2.114 5.914 0.001 8.523 0.001 c 11.133 0.001 13.25 2.114 
13.25 4.724 c 13.25 6.4 12.371 7.857 11.062 8.696 c 59.832 8.696 l 
58.52 7.857 57.641 6.4 57.641 4.724 c 57.641 2.114 59.758 0.001 62.367 
0.001 c 64.977 0.001 67.094 2.114 67.094 4.724 c 67.094 6.4 66.215 
7.857 64.906 8.696 c 68.664 8.696 l 68.664 15.474 l 67.016 15.474 l 
42.547 27.79 l 67.121 40.017 l 68.664 40.017 l 68.664 46.794 l 2.18 
46.794 l h
53.055 15.474 m 17.789 15.474 l 35.422 24.247 l h
35.422 31.337 m 17.973 40.017 l 52.871 40.017 l h
35.422 31.337 m f
Q Q
showpage
%%Trailer
count op_count sub {pop} repeat
countdictstack dict_count sub {end} repeat
cairo_eps_state restore
%%EOF
