%!PS-Adobe-3.0 EPSF-3.0
%%Creator: cairo 1.10.2 (http://cairographics.org)
%%CreationDate: Fri Jul  4 08:48:24 2014
%%Pages: 1
%%BoundingBox: 0 -1 50 75
%%DocumentData: Clean7Bit
%%LanguageLevel: 2
%%EndComments
%%BeginProlog
/cairo_eps_state save def
/dict_count countdictstack def
/op_count count 1 sub def
userdict begin
/q { gsave } bind def
/Q { grestore } bind def
/cm { 6 array astore concat } bind def
/w { setlinewidth } bind def
/J { setlinecap } bind def
/j { setlinejoin } bind def
/M { setmiterlimit } bind def
/d { setdash } bind def
/m { moveto } bind def
/l { lineto } bind def
/c { curveto } bind def
/h { closepath } bind def
/re { exch dup neg 3 1 roll 5 3 roll moveto 0 rlineto
      0 exch rlineto 0 rlineto closepath } bind def
/S { stroke } bind def
/f { fill } bind def
/f* { eofill } bind def
/n { newpath } bind def
/W { clip } bind def
/W* { eoclip } bind def
/BT { } bind def
/ET { } bind def
/pdfmark where { pop globaldict /?pdfmark /exec load put }
    { globaldict begin /?pdfmark /pop load def /pdfmark
    /cleartomark load def end } ifelse
/BDC { mark 3 1 roll /BDC pdfmark } bind def
/EMC { mark /EMC pdfmark } bind def
/cairo_store_point { /cairo_point_y exch def /cairo_point_x exch def } def
/Tj { show currentpoint cairo_store_point } bind def
/TJ {
  {
    dup
    type /stringtype eq
    { show } { -0.001 mul 0 cairo_font_matrix dtransform rmoveto } ifelse
  } forall
  currentpoint cairo_store_point
} bind def
/cairo_selectfont { cairo_font_matrix aload pop pop pop 0 0 6 array astore
    cairo_font exch selectfont cairo_point_x cairo_point_y moveto } bind def
/Tf { pop /cairo_font exch def /cairo_font_matrix where
      { pop cairo_selectfont } if } bind def
/Td { matrix translate cairo_font_matrix matrix concatmatrix dup
      /cairo_font_matrix exch def dup 4 get exch 5 get cairo_store_point
      /cairo_font where { pop cairo_selectfont } if } bind def
/Tm { 2 copy 8 2 roll 6 array astore /cairo_font_matrix exch def
      cairo_store_point /cairo_font where { pop cairo_selectfont } if } bind def
/g { setgray } bind def
/rg { setrgbcolor } bind def
/d1 { setcachedevice } bind def
%%EndProlog
%%Page: 1 1
%%BeginPageSetup
%%PageBoundingBox: 0 -1 50 75
%%EndPageSetup
q 0 -1 50 76 rectclip q
0 74.009 50 -75 re W n
0 g
46.305 64.931 m 38.227 64.931 l 38.227 65.915 l 38.227 67.087 37.273 
68.04 36.102 68.04 c 30.535 68.04 l 30.535 71.884 l 30.535 73.056 
29.582 74.009 28.41 74.009 c 20.922 74.009 l 19.754 74.009 18.797 
73.056 18.797 71.884 c 18.797 68.04 l 13.23 68.04 l 12.062 68.04 11.105 
67.087 11.105 65.915 c 11.105 64.931 l 3.031 64.931 l 1.359 64.931 0 
63.571 0 61.899 c 0 3.028 l 0 1.36 1.359 0.001 3.031 0.001 c 46.305 
0.001 l 47.973 0.001 49.332 1.36 49.332 3.028 c 49.332 61.899 l 49.332 
63.571 47.973 64.931 46.305 64.931 c h
21.656 71.431 m 21.656 71.552 21.758 71.653 21.883 71.653 c 27.449 
71.653 l 27.574 71.653 27.676 71.552 27.676 71.431 c 27.676 68.571 l 
21.66 68.571 l 21.66 71.431 l h
45.438 4.47 m 45.438 4.235 45.246 4.048 45.012 4.048 c 4.32 4.048 l 
4.086 4.048 3.895 4.235 3.895 4.47 c 3.895 60.024 l 3.895 60.259 4.086 
60.45 4.32 60.45 c 11.371 60.45 l 11.371 57.208 l 11.371 56.06 12.309 
55.126 13.457 55.126 c 35.875 55.126 l 37.023 55.126 37.957 56.06 
37.957 57.208 c 37.957 60.45 l 45.012 60.45 l 45.246 60.45 45.438 
60.259 45.438 60.024 c h
45.438 4.47 m f
24.645 27.79 m 24.645 27.79 l 24.648 27.786 24.652 27.786 24.656 27.786 
c 24.688 27.786 l 24.688 27.79 l 28.902 27.724 31.465 31.415 31.531 
37.501 c 31.574 41.724 28.957 44.138 24.695 44.251 c 24.641 44.251 l 
20.375 44.138 17.758 41.724 17.801 37.501 c 17.867 31.415 20.43 27.724 
24.645 27.79 c h
24.645 27.79 m f
34.34 23.884 m 34.023 24.415 33.547 24.798 33.012 25.017 c 29.395 
26.681 l 27.656 28.149 l 24.672 25.177 l 21.676 28.149 l 19.938 26.681 
l 16.32 25.017 l 15.785 24.798 15.312 24.415 14.992 23.884 c 9.715 
15.06 l 9.457 14.626 9.328 14.142 9.324 13.653 c 40.012 13.653 l 40.008 
14.142 39.879 14.626 39.621 15.06 c h
34.34 23.884 m f
Q Q
showpage
%%Trailer
count op_count sub {pop} repeat
countdictstack dict_count sub {end} repeat
cairo_eps_state restore
%%EOF
