%!PS-Adobe-3.0 EPSF-3.0
%%Creator: cairo 1.10.2 (http://cairographics.org)
%%CreationDate: Fri Jul  4 08:48:44 2014
%%Pages: 1
%%BoundingBox: 0 -1 54 76
%%DocumentData: Clean7Bit
%%LanguageLevel: 2
%%EndComments
%%BeginProlog
/cairo_eps_state save def
/dict_count countdictstack def
/op_count count 1 sub def
userdict begin
/q { gsave } bind def
/Q { grestore } bind def
/cm { 6 array astore concat } bind def
/w { setlinewidth } bind def
/J { setlinecap } bind def
/j { setlinejoin } bind def
/M { setmiterlimit } bind def
/d { setdash } bind def
/m { moveto } bind def
/l { lineto } bind def
/c { curveto } bind def
/h { closepath } bind def
/re { exch dup neg 3 1 roll 5 3 roll moveto 0 rlineto
      0 exch rlineto 0 rlineto closepath } bind def
/S { stroke } bind def
/f { fill } bind def
/f* { eofill } bind def
/n { newpath } bind def
/W { clip } bind def
/W* { eoclip } bind def
/BT { } bind def
/ET { } bind def
/pdfmark where { pop globaldict /?pdfmark /exec load put }
    { globaldict begin /?pdfmark /pop load def /pdfmark
    /cleartomark load def end } ifelse
/BDC { mark 3 1 roll /BDC pdfmark } bind def
/EMC { mark /EMC pdfmark } bind def
/cairo_store_point { /cairo_point_y exch def /cairo_point_x exch def } def
/Tj { show currentpoint cairo_store_point } bind def
/TJ {
  {
    dup
    type /stringtype eq
    { show } { -0.001 mul 0 cairo_font_matrix dtransform rmoveto } ifelse
  } forall
  currentpoint cairo_store_point
} bind def
/cairo_selectfont { cairo_font_matrix aload pop pop pop 0 0 6 array astore
    cairo_font exch selectfont cairo_point_x cairo_point_y moveto } bind def
/Tf { pop /cairo_font exch def /cairo_font_matrix where
      { pop cairo_selectfont } if } bind def
/Td { matrix translate cairo_font_matrix matrix concatmatrix dup
      /cairo_font_matrix exch def dup 4 get exch 5 get cairo_store_point
      /cairo_font where { pop cairo_selectfont } if } bind def
/Tm { 2 copy 8 2 roll 6 array astore /cairo_font_matrix exch def
      cairo_store_point /cairo_font where { pop cairo_selectfont } if } bind def
/g { setgray } bind def
/rg { setrgbcolor } bind def
/d1 { setcachedevice } bind def
%%EndProlog
%%Page: 1 1
%%BeginPageSetup
%%PageBoundingBox: 0 -1 54 76
%%EndPageSetup
q 0 -1 54 77 rectclip q
0 75.871 54 -76 re W n
0 g
22.73 56.918 m 27.68 57.336 30.328 61.891 29.68 68.887 c 29.23 73.746 
26.18 76.235 21.164 75.828 c 15.953 75.41 13.422 73.43 13.914 68.594 c 
14.594 61.863 17.922 56.516 22.73 56.918 c h
22.73 56.918 m f
16.266 36.137 m 12.73 55.719 l 12.434 57.36 11.008 58.555 9.34 58.555 c 
3.445 58.555 l 1.543 58.555 0 57.012 0 55.11 c 0 53.207 1.543 51.664 
3.445 51.664 c 6.461 51.664 l 10.543 28.965 l 10.711 28.043 11.23 
27.274 11.938 26.766 c 11.027 24.516 10.523 22.063 10.523 19.488 c 
10.523 8.742 19.266 0 30.012 0 c 37.906 0 43.703 4.348 47.363 10.297 c 
47.902 10.067 48.488 9.942 49.078 9.942 c 49.863 9.942 50.656 10.153 
51.371 10.598 c 53.422 11.867 54.051 14.555 52.781 16.606 c 49.309 
22.203 l 48.953 24.75 48.102 27.141 46.859 29.274 c 48.113 29.856 
48.984 31.035 48.984 32.508 c 48.984 34.535 47.34 36.18 45.312 36.18 c 
34.926 36.192 l 32.473 49.981 l 31.926 54.129 28.117 57.043 23.965 56.5 
c 19.816 55.949 16.895 52.141 17.445 47.988 c 18.996 36.27 l 30.012 
5.676 m 22.395 5.676 16.199 11.875 16.199 19.488 c 16.199 23.137 17.621 
26.457 19.941 28.93 c 40.082 28.93 l 42.402 26.457 43.824 23.137 43.824 
19.488 c 43.824 11.875 37.629 5.676 30.012 5.676 c h
30.012 5.676 m f
Q Q
showpage
%%Trailer
count op_count sub {pop} repeat
countdictstack dict_count sub {end} repeat
cairo_eps_state restore
%%EOF
