%!PS-Adobe-3.0 EPSF-3.0
%%Creator: cairo 1.10.2 (http://cairographics.org)
%%CreationDate: Fri Jul  4 09:24:43 2014
%%Pages: 1
%%BoundingBox: 0 -1 76 55
%%DocumentData: Clean7Bit
%%LanguageLevel: 2
%%EndComments
%%BeginProlog
/cairo_eps_state save def
/dict_count countdictstack def
/op_count count 1 sub def
userdict begin
/q { gsave } bind def
/Q { grestore } bind def
/cm { 6 array astore concat } bind def
/w { setlinewidth } bind def
/J { setlinecap } bind def
/j { setlinejoin } bind def
/M { setmiterlimit } bind def
/d { setdash } bind def
/m { moveto } bind def
/l { lineto } bind def
/c { curveto } bind def
/h { closepath } bind def
/re { exch dup neg 3 1 roll 5 3 roll moveto 0 rlineto
      0 exch rlineto 0 rlineto closepath } bind def
/S { stroke } bind def
/f { fill } bind def
/f* { eofill } bind def
/n { newpath } bind def
/W { clip } bind def
/W* { eoclip } bind def
/BT { } bind def
/ET { } bind def
/pdfmark where { pop globaldict /?pdfmark /exec load put }
    { globaldict begin /?pdfmark /pop load def /pdfmark
    /cleartomark load def end } ifelse
/BDC { mark 3 1 roll /BDC pdfmark } bind def
/EMC { mark /EMC pdfmark } bind def
/cairo_store_point { /cairo_point_y exch def /cairo_point_x exch def } def
/Tj { show currentpoint cairo_store_point } bind def
/TJ {
  {
    dup
    type /stringtype eq
    { show } { -0.001 mul 0 cairo_font_matrix dtransform rmoveto } ifelse
  } forall
  currentpoint cairo_store_point
} bind def
/cairo_selectfont { cairo_font_matrix aload pop pop pop 0 0 6 array astore
    cairo_font exch selectfont cairo_point_x cairo_point_y moveto } bind def
/Tf { pop /cairo_font exch def /cairo_font_matrix where
      { pop cairo_selectfont } if } bind def
/Td { matrix translate cairo_font_matrix matrix concatmatrix dup
      /cairo_font_matrix exch def dup 4 get exch 5 get cairo_store_point
      /cairo_font where { pop cairo_selectfont } if } bind def
/Tm { 2 copy 8 2 roll 6 array astore /cairo_font_matrix exch def
      cairo_store_point /cairo_font where { pop cairo_selectfont } if } bind def
/g { setgray } bind def
/rg { setrgbcolor } bind def
/d1 { setcachedevice } bind def
%%EndProlog
%%Page: 1 1
%%BeginPageSetup
%%PageBoundingBox: 0 -1 76 55
%%EndPageSetup
q 0 -1 76 56 rectclip q
0 54.133 76 -55 re W n
0 g
63.445 39.285 m 63.445 54.133 l 0 54.133 l 0 -0 l 63.445 -0 l 63.445 
14.848 l 75.664 27.066 l h
18.703 48.613 m 18.777 48.613 l 24.781 48.453 28.473 45.055 28.41 
39.105 c 28.316 30.535 24.707 25.336 18.766 25.426 c 18.711 25.426 l 
12.77 25.336 9.16 30.535 9.066 39.105 c 9.008 45.051 12.695 48.453 
18.703 48.613 c h
20.957 5.527 m 18.738 19.367 l 16.523 5.527 l 5.113 5.52 l 5.113 19.922 
l 5.562 20.676 6.23 21.211 6.984 21.52 c 12.078 23.867 l 14.527 25.93 l 
18.746 21.746 l 22.953 25.93 l 25.402 23.867 l 30.496 21.52 l 31.25 
21.211 31.922 20.676 32.367 19.922 c 32.383 5.52 l h
57.184 13.523 m 57.184 22.187 l 38.727 22.187 l 38.727 31.945 l 57.18 
31.945 l 57.18 40.609 l 70.727 27.066 l h
57.184 13.523 m f
Q Q
showpage
%%Trailer
count op_count sub {pop} repeat
countdictstack dict_count sub {end} repeat
cairo_eps_state restore
%%EOF
