%!PS-Adobe-3.0 EPSF-3.0
%%Creator: cairo 1.10.2 (http://cairographics.org)
%%CreationDate: Fri Jul  4 08:35:50 2014
%%Pages: 1
%%BoundingBox: 0 -1 73 74
%%DocumentData: Clean7Bit
%%LanguageLevel: 2
%%EndComments
%%BeginProlog
/cairo_eps_state save def
/dict_count countdictstack def
/op_count count 1 sub def
userdict begin
/q { gsave } bind def
/Q { grestore } bind def
/cm { 6 array astore concat } bind def
/w { setlinewidth } bind def
/J { setlinecap } bind def
/j { setlinejoin } bind def
/M { setmiterlimit } bind def
/d { setdash } bind def
/m { moveto } bind def
/l { lineto } bind def
/c { curveto } bind def
/h { closepath } bind def
/re { exch dup neg 3 1 roll 5 3 roll moveto 0 rlineto
      0 exch rlineto 0 rlineto closepath } bind def
/S { stroke } bind def
/f { fill } bind def
/f* { eofill } bind def
/n { newpath } bind def
/W { clip } bind def
/W* { eoclip } bind def
/BT { } bind def
/ET { } bind def
/pdfmark where { pop globaldict /?pdfmark /exec load put }
    { globaldict begin /?pdfmark /pop load def /pdfmark
    /cleartomark load def end } ifelse
/BDC { mark 3 1 roll /BDC pdfmark } bind def
/EMC { mark /EMC pdfmark } bind def
/cairo_store_point { /cairo_point_y exch def /cairo_point_x exch def } def
/Tj { show currentpoint cairo_store_point } bind def
/TJ {
  {
    dup
    type /stringtype eq
    { show } { -0.001 mul 0 cairo_font_matrix dtransform rmoveto } ifelse
  } forall
  currentpoint cairo_store_point
} bind def
/cairo_selectfont { cairo_font_matrix aload pop pop pop 0 0 6 array astore
    cairo_font exch selectfont cairo_point_x cairo_point_y moveto } bind def
/Tf { pop /cairo_font exch def /cairo_font_matrix where
      { pop cairo_selectfont } if } bind def
/Td { matrix translate cairo_font_matrix matrix concatmatrix dup
      /cairo_font_matrix exch def dup 4 get exch 5 get cairo_store_point
      /cairo_font where { pop cairo_selectfont } if } bind def
/Tm { 2 copy 8 2 roll 6 array astore /cairo_font_matrix exch def
      cairo_store_point /cairo_font where { pop cairo_selectfont } if } bind def
/g { setgray } bind def
/rg { setrgbcolor } bind def
/d1 { setcachedevice } bind def
%%EndProlog
%%Page: 1 1
%%BeginPageSetup
%%PageBoundingBox: 0 -1 73 74
%%EndPageSetup
q 0 -1 73 75 rectclip q
0 73.92 73 -74 re W n
0 g
0 73.92 m 0 -0.002 l 72.398 -0.002 l 72.398 73.92 l h
36.145 69.596 m 36.145 69.6 l 36.156 69.6 36.164 69.6 36.184 69.6 c 
36.188 69.6 36.195 69.6 36.199 69.6 c 36.207 69.6 36.215 69.6 36.219 
69.6 c 36.23 69.6 36.242 69.6 36.258 69.6 c 36.258 69.596 l 45.355 
69.357 50.941 64.205 50.852 55.197 c 50.711 42.213 45.238 34.338 36.242 
34.475 c 36.242 34.471 l 36.234 34.471 36.227 34.475 36.219 34.475 c 
36.215 34.475 36.211 34.471 36.207 34.471 c 36.195 34.471 l 36.188 
34.471 36.18 34.475 36.18 34.475 c 36.172 34.475 36.164 34.471 36.156 
34.471 c 36.156 34.475 l 27.16 34.338 21.691 42.213 21.547 55.197 c 
21.457 64.205 27.043 69.357 36.145 69.596 c h
6.449 44.529 m 15.738 36.959 l 6.449 29.393 l h
39.547 4.33 m 36.191 25.299 l 32.832 4.33 l 32.832 4.33 22.902 4.318 
15.551 4.318 c 8.199 4.318 15.547 26.139 15.547 26.139 c 16.102 27.51 
17.238 28.088 18.383 28.557 c 26.102 32.111 l 29.812 35.236 l 36.195 
28.9 l 42.57 35.236 l 46.281 32.111 l 54 28.557 l 55.141 28.088 56.602 
27.311 56.832 26.139 c 56.832 26.139 63.641 4.318 56.852 4.318 c 50.066 
4.318 39.547 4.33 39.547 4.33 c h
58.656 29.393 m 58.656 44.529 l 67.945 36.959 l h
58.656 29.393 m f
Q Q
showpage
%%Trailer
count op_count sub {pop} repeat
countdictstack dict_count sub {end} repeat
cairo_eps_state restore
%%EOF
