%!PS-Adobe-3.0 EPSF-3.0
%%Creator: cairo 1.10.2 (http://cairographics.org)
%%CreationDate: Fri Jul  4 09:50:39 2014
%%Pages: 1
%%BoundingBox: 0 -1 76 75
%%DocumentData: Clean7Bit
%%LanguageLevel: 2
%%EndComments
%%BeginProlog
/cairo_eps_state save def
/dict_count countdictstack def
/op_count count 1 sub def
userdict begin
/q { gsave } bind def
/Q { grestore } bind def
/cm { 6 array astore concat } bind def
/w { setlinewidth } bind def
/J { setlinecap } bind def
/j { setlinejoin } bind def
/M { setmiterlimit } bind def
/d { setdash } bind def
/m { moveto } bind def
/l { lineto } bind def
/c { curveto } bind def
/h { closepath } bind def
/re { exch dup neg 3 1 roll 5 3 roll moveto 0 rlineto
      0 exch rlineto 0 rlineto closepath } bind def
/S { stroke } bind def
/f { fill } bind def
/f* { eofill } bind def
/n { newpath } bind def
/W { clip } bind def
/W* { eoclip } bind def
/BT { } bind def
/ET { } bind def
/pdfmark where { pop globaldict /?pdfmark /exec load put }
    { globaldict begin /?pdfmark /pop load def /pdfmark
    /cleartomark load def end } ifelse
/BDC { mark 3 1 roll /BDC pdfmark } bind def
/EMC { mark /EMC pdfmark } bind def
/cairo_store_point { /cairo_point_y exch def /cairo_point_x exch def } def
/Tj { show currentpoint cairo_store_point } bind def
/TJ {
  {
    dup
    type /stringtype eq
    { show } { -0.001 mul 0 cairo_font_matrix dtransform rmoveto } ifelse
  } forall
  currentpoint cairo_store_point
} bind def
/cairo_selectfont { cairo_font_matrix aload pop pop pop 0 0 6 array astore
    cairo_font exch selectfont cairo_point_x cairo_point_y moveto } bind def
/Tf { pop /cairo_font exch def /cairo_font_matrix where
      { pop cairo_selectfont } if } bind def
/Td { matrix translate cairo_font_matrix matrix concatmatrix dup
      /cairo_font_matrix exch def dup 4 get exch 5 get cairo_store_point
      /cairo_font where { pop cairo_selectfont } if } bind def
/Tm { 2 copy 8 2 roll 6 array astore /cairo_font_matrix exch def
      cairo_store_point /cairo_font where { pop cairo_selectfont } if } bind def
/g { setgray } bind def
/rg { setrgbcolor } bind def
/d1 { setcachedevice } bind def
%%EndProlog
%%Page: 1 1
%%BeginPageSetup
%%PageBoundingBox: 0 -1 76 75
%%EndPageSetup
q 0 -1 76 76 rectclip q
0 74.388 76 -75 re W n
0 g
37.895 34.716 m 47.832 34.904 54.391 44.236 54.363 58.165 c 54.359 
61.228 53.742 63.9 52.59 66.13 c 54.414 68.529 53.977 69.513 53.977 
69.513 c 53.34 68.896 52.402 69.404 50.789 68.79 c 50.766 68.818 50.738 
68.841 50.711 68.865 c 53.703 72.208 53.234 74.388 53.234 74.388 c 
52.043 73.232 49.395 72.798 46.02 72.228 c 43.527 73.329 40.539 73.88 
37.105 73.802 c 35.809 73.775 34.586 73.658 33.438 73.458 c 25.398 
72.064 21.027 66.572 21.121 57.775 c 21.277 43.302 27.66 34.529 37.895 
34.716 c h
37.895 34.716 m f
74.125 3.439 m 61.211 25.029 l 60.43 26.333 59.27 27.263 57.961 27.802 
c 49.109 31.876 l 44.859 35.462 l 37.551 28.197 l 30.227 35.462 l 
25.973 31.876 l 17.121 27.802 l 15.812 27.263 14.652 26.333 13.871 
25.029 c 0.957 3.439 l 0.324 2.38 0.008 1.189 0 0.001 c 75.082 0.001 l 
75.074 1.189 74.758 2.376 74.125 3.439 c h
74.125 3.439 m f
Q Q
showpage
%%Trailer
count op_count sub {pop} repeat
countdictstack dict_count sub {end} repeat
cairo_eps_state restore
%%EOF
