%!PS-Adobe-3.0 EPSF-3.0
%%Creator: cairo 1.10.2 (http://cairographics.org)
%%CreationDate: Fri Jul  4 08:49:13 2014
%%Pages: 1
%%BoundingBox: 0 -1 65 75
%%DocumentData: Clean7Bit
%%LanguageLevel: 2
%%EndComments
%%BeginProlog
/cairo_eps_state save def
/dict_count countdictstack def
/op_count count 1 sub def
userdict begin
/q { gsave } bind def
/Q { grestore } bind def
/cm { 6 array astore concat } bind def
/w { setlinewidth } bind def
/J { setlinecap } bind def
/j { setlinejoin } bind def
/M { setmiterlimit } bind def
/d { setdash } bind def
/m { moveto } bind def
/l { lineto } bind def
/c { curveto } bind def
/h { closepath } bind def
/re { exch dup neg 3 1 roll 5 3 roll moveto 0 rlineto
      0 exch rlineto 0 rlineto closepath } bind def
/S { stroke } bind def
/f { fill } bind def
/f* { eofill } bind def
/n { newpath } bind def
/W { clip } bind def
/W* { eoclip } bind def
/BT { } bind def
/ET { } bind def
/pdfmark where { pop globaldict /?pdfmark /exec load put }
    { globaldict begin /?pdfmark /pop load def /pdfmark
    /cleartomark load def end } ifelse
/BDC { mark 3 1 roll /BDC pdfmark } bind def
/EMC { mark /EMC pdfmark } bind def
/cairo_store_point { /cairo_point_y exch def /cairo_point_x exch def } def
/Tj { show currentpoint cairo_store_point } bind def
/TJ {
  {
    dup
    type /stringtype eq
    { show } { -0.001 mul 0 cairo_font_matrix dtransform rmoveto } ifelse
  } forall
  currentpoint cairo_store_point
} bind def
/cairo_selectfont { cairo_font_matrix aload pop pop pop 0 0 6 array astore
    cairo_font exch selectfont cairo_point_x cairo_point_y moveto } bind def
/Tf { pop /cairo_font exch def /cairo_font_matrix where
      { pop cairo_selectfont } if } bind def
/Td { matrix translate cairo_font_matrix matrix concatmatrix dup
      /cairo_font_matrix exch def dup 4 get exch 5 get cairo_store_point
      /cairo_font where { pop cairo_selectfont } if } bind def
/Tm { 2 copy 8 2 roll 6 array astore /cairo_font_matrix exch def
      cairo_store_point /cairo_font where { pop cairo_selectfont } if } bind def
/g { setgray } bind def
/rg { setrgbcolor } bind def
/d1 { setcachedevice } bind def
%%EndProlog
%%Page: 1 1
%%BeginPageSetup
%%PageBoundingBox: 0 -1 65 75
%%EndPageSetup
q 0 -1 65 76 rectclip q
0 74.941 65 -75 re W n
0 g
29.27 74.941 m 29.27 70.187 l 45.812 69.663 55.668 60.003 55.691 44.011 
c 55.738 21.23 45.262 5.796 29.27 4.781 c 29.27 -0.001 l 64.398 -0.001 
l 64.398 74.941 l h
29.27 74.941 m f
48.195 45.609 m 48.195 41.804 45.109 38.722 41.309 38.722 c 37.504 
38.722 34.422 41.804 34.422 45.609 c 34.422 49.413 37.504 52.495 41.309 
52.495 c 45.109 52.495 48.195 49.413 48.195 45.609 c h
48.195 45.609 m f
31.414 18.515 m 31.668 18.519 32.297 18.535 33.188 18.601 c 33.492 
15.206 l 37.219 15.538 l 36.902 19.066 l 37.633 19.191 38.402 19.347 
39.191 19.542 c 39.441 16.738 l 43.168 17.074 l 42.844 20.542 l 44.875 
21.21 47.273 22.671 49.41 25.445 c 50.777 27.347 l 47.059 30.078 l 
45.613 28.179 l 44.582 27.019 43.238 26.089 42.402 25.644 c 42.234 
27.527 l 38.504 27.191 l 38.766 24.288 l 38 24.081 37.23 23.906 36.48 
23.765 c 36.281 25.992 l 32.555 25.656 l 32.766 23.269 l 32.219 23.226 
31.734 23.203 31.348 23.199 c 29.246 23.167 l 29.254 23.167 29.262 
23.167 29.27 23.167 c 29.27 70.187 l 28.453 70.214 27.629 70.226 26.781 
70.206 c 9.414 69.812 -0.176 60.199 0.004 43.359 c 0.266 19.113 10.961 
4.413 28.102 4.726 c 28.496 4.734 28.887 4.757 29.27 4.781 c 29.27 
18.488 l h
9.906 45.609 m 9.906 49.413 12.992 52.495 16.797 52.495 c 20.598 52.495 
23.684 49.413 23.684 45.609 c 23.684 41.804 20.602 38.722 16.797 38.722 
c 12.992 38.722 9.906 41.804 9.906 45.609 c h
26.961 18.531 m 22.273 18.531 15.957 20.753 12.348 23.132 c 11.324 
23.808 11.039 25.183 11.715 26.21 c 12.391 27.238 13.77 27.519 14.797 
26.843 c 18.258 24.562 24.43 22.648 29.09 23.003 c 29.152 18.542 l 
28.449 18.535 27.66 18.531 26.961 18.531 c h
26.961 18.531 m f
Q Q
showpage
%%Trailer
count op_count sub {pop} repeat
countdictstack dict_count sub {end} repeat
cairo_eps_state restore
%%EOF
