%!PS-Adobe-3.0 EPSF-3.0
%%Creator: cairo 1.10.2 (http://cairographics.org)
%%CreationDate: Fri Jul  4 08:48:30 2014
%%Pages: 1
%%BoundingBox: 0 -1 54 75
%%DocumentData: Clean7Bit
%%LanguageLevel: 2
%%EndComments
%%BeginProlog
/cairo_eps_state save def
/dict_count countdictstack def
/op_count count 1 sub def
userdict begin
/q { gsave } bind def
/Q { grestore } bind def
/cm { 6 array astore concat } bind def
/w { setlinewidth } bind def
/J { setlinecap } bind def
/j { setlinejoin } bind def
/M { setmiterlimit } bind def
/d { setdash } bind def
/m { moveto } bind def
/l { lineto } bind def
/c { curveto } bind def
/h { closepath } bind def
/re { exch dup neg 3 1 roll 5 3 roll moveto 0 rlineto
      0 exch rlineto 0 rlineto closepath } bind def
/S { stroke } bind def
/f { fill } bind def
/f* { eofill } bind def
/n { newpath } bind def
/W { clip } bind def
/W* { eoclip } bind def
/BT { } bind def
/ET { } bind def
/pdfmark where { pop globaldict /?pdfmark /exec load put }
    { globaldict begin /?pdfmark /pop load def /pdfmark
    /cleartomark load def end } ifelse
/BDC { mark 3 1 roll /BDC pdfmark } bind def
/EMC { mark /EMC pdfmark } bind def
/cairo_store_point { /cairo_point_y exch def /cairo_point_x exch def } def
/Tj { show currentpoint cairo_store_point } bind def
/TJ {
  {
    dup
    type /stringtype eq
    { show } { -0.001 mul 0 cairo_font_matrix dtransform rmoveto } ifelse
  } forall
  currentpoint cairo_store_point
} bind def
/cairo_selectfont { cairo_font_matrix aload pop pop pop 0 0 6 array astore
    cairo_font exch selectfont cairo_point_x cairo_point_y moveto } bind def
/Tf { pop /cairo_font exch def /cairo_font_matrix where
      { pop cairo_selectfont } if } bind def
/Td { matrix translate cairo_font_matrix matrix concatmatrix dup
      /cairo_font_matrix exch def dup 4 get exch 5 get cairo_store_point
      /cairo_font where { pop cairo_selectfont } if } bind def
/Tm { 2 copy 8 2 roll 6 array astore /cairo_font_matrix exch def
      cairo_store_point /cairo_font where { pop cairo_selectfont } if } bind def
/g { setgray } bind def
/rg { setrgbcolor } bind def
/d1 { setcachedevice } bind def
%%EndProlog
%%Page: 1 1
%%BeginPageSetup
%%PageBoundingBox: 0 -1 54 75
%%EndPageSetup
q 0 -1 54 76 rectclip q
0 74.145 54 -75 re W n
0 g
33.363 32.137 m 39.395 39.598 48.949 55.481 44.016 65.875 c 41.41 
71.364 35.637 74.145 26.855 74.145 c 18.074 74.145 12.301 71.364 9.695 
65.875 c 5.195 56.399 13.199 42.344 18.797 34.301 c 25.293 42.617 l 
20.676 49.891 17.035 58.051 18.715 61.594 c 19.773 63.824 24.27 64.16 
26.855 64.16 c 29.438 64.16 33.898 63.809 34.992 61.594 c 37.938 55.645 
26.781 40.344 26.746 40.395 c 20.434 32.016 l 20.438 32.008 20.441 
32.008 20.445 32.004 c 12.027 21.059 2.473 9.426 0 6.68 c 7.422 0 l 
9.793 2.637 18.48 13.192 26.637 23.696 c 26.641 23.692 26.641 23.692 
26.645 23.688 c 33.355 32.145 l h
33.363 32.137 m f
34.746 29.52 m 28.34 21.446 l 33.461 14.766 39.461 7.59 46.289 0 c 
53.711 6.68 l 46.359 14.848 40.012 22.5 34.746 29.52 c h
34.746 29.52 m f
Q Q
showpage
%%Trailer
count op_count sub {pop} repeat
countdictstack dict_count sub {end} repeat
cairo_eps_state restore
%%EOF
