%!PS-Adobe-3.0 EPSF-3.0
%%Creator: cairo 1.10.2 (http://cairographics.org)
%%CreationDate: Fri Jul  4 08:48:27 2014
%%Pages: 1
%%BoundingBox: 0 -1 76 41
%%DocumentData: Clean7Bit
%%LanguageLevel: 2
%%EndComments
%%BeginProlog
/cairo_eps_state save def
/dict_count countdictstack def
/op_count count 1 sub def
userdict begin
/q { gsave } bind def
/Q { grestore } bind def
/cm { 6 array astore concat } bind def
/w { setlinewidth } bind def
/J { setlinecap } bind def
/j { setlinejoin } bind def
/M { setmiterlimit } bind def
/d { setdash } bind def
/m { moveto } bind def
/l { lineto } bind def
/c { curveto } bind def
/h { closepath } bind def
/re { exch dup neg 3 1 roll 5 3 roll moveto 0 rlineto
      0 exch rlineto 0 rlineto closepath } bind def
/S { stroke } bind def
/f { fill } bind def
/f* { eofill } bind def
/n { newpath } bind def
/W { clip } bind def
/W* { eoclip } bind def
/BT { } bind def
/ET { } bind def
/pdfmark where { pop globaldict /?pdfmark /exec load put }
    { globaldict begin /?pdfmark /pop load def /pdfmark
    /cleartomark load def end } ifelse
/BDC { mark 3 1 roll /BDC pdfmark } bind def
/EMC { mark /EMC pdfmark } bind def
/cairo_store_point { /cairo_point_y exch def /cairo_point_x exch def } def
/Tj { show currentpoint cairo_store_point } bind def
/TJ {
  {
    dup
    type /stringtype eq
    { show } { -0.001 mul 0 cairo_font_matrix dtransform rmoveto } ifelse
  } forall
  currentpoint cairo_store_point
} bind def
/cairo_selectfont { cairo_font_matrix aload pop pop pop 0 0 6 array astore
    cairo_font exch selectfont cairo_point_x cairo_point_y moveto } bind def
/Tf { pop /cairo_font exch def /cairo_font_matrix where
      { pop cairo_selectfont } if } bind def
/Td { matrix translate cairo_font_matrix matrix concatmatrix dup
      /cairo_font_matrix exch def dup 4 get exch 5 get cairo_store_point
      /cairo_font where { pop cairo_selectfont } if } bind def
/Tm { 2 copy 8 2 roll 6 array astore /cairo_font_matrix exch def
      cairo_store_point /cairo_font where { pop cairo_selectfont } if } bind def
/g { setgray } bind def
/rg { setrgbcolor } bind def
/d1 { setcachedevice } bind def
%%EndProlog
%%Page: 1 1
%%BeginPageSetup
%%PageBoundingBox: 0 -1 76 41
%%EndPageSetup
q 0 -1 76 42 rectclip q
0 40.472 76 -41 re W n
0 g
75.074 19.085 m 75.074 19.745 75.074 20.265 75.074 20.554 c 75.074 
22.554 62.301 27.058 62.301 27.058 c 47.797 40.472 l 0 40.472 l 0 6.062 
l 11.02 6.062 l 11.762 2.702 14.758 0.179 18.34 0.179 c 21.918 0.179 
24.914 2.699 25.66 6.062 c 53.043 6.062 l 53.789 2.601 56.871 -0.001 
60.551 -0.001 c 64.23 -0.001 67.309 2.601 68.055 6.062 c 75.055 6.062 l 
75.055 6.062 75.062 11.042 75.066 15.218 c 72.641 15.218 l 72.641 
19.085 l h
18.34 4.179 m 16.406 4.179 14.836 5.749 14.836 7.683 c 14.836 9.613 
16.41 11.183 18.34 11.183 c 20.27 11.183 21.84 9.613 21.84 7.683 c 
21.84 5.749 20.27 4.179 18.34 4.179 c h
18.379 17.308 m 12.758 17.308 8.203 21.867 8.203 27.488 c 8.203 33.105 
12.758 37.663 18.379 37.663 c 24 37.663 28.555 33.105 28.555 27.488 c 
28.555 21.867 24 17.308 18.379 17.308 c h
36.746 27.816 m 36.746 35.41 l 46.129 35.41 l 54.609 27.816 l h
60.551 3.999 m 58.52 3.999 56.867 5.652 56.867 7.683 c 56.867 9.71 
58.52 11.363 60.551 11.363 c 62.578 11.363 64.23 9.71 64.23 7.683 c 
64.23 5.652 62.582 3.999 60.551 3.999 c h
60.551 3.999 m f
20.496 33.699 m 16.262 33.699 l 16.262 29.601 l 12.164 29.601 l 12.164 
25.37 l 16.262 25.37 l 16.262 21.273 l 20.496 21.273 l 20.496 25.37 l 
24.594 25.37 l 24.594 29.601 l 20.496 29.601 l h
20.496 33.699 m f
Q Q
showpage
%%Trailer
count op_count sub {pop} repeat
countdictstack dict_count sub {end} repeat
cairo_eps_state restore
%%EOF
