%!PS-Adobe-3.0 EPSF-3.0
%%Creator: cairo 1.10.2 (http://cairographics.org)
%%CreationDate: Fri Jul  4 08:49:02 2014
%%Pages: 1
%%BoundingBox: 0 -1 76 76
%%DocumentData: Clean7Bit
%%LanguageLevel: 2
%%EndComments
%%BeginProlog
/cairo_eps_state save def
/dict_count countdictstack def
/op_count count 1 sub def
userdict begin
/q { gsave } bind def
/Q { grestore } bind def
/cm { 6 array astore concat } bind def
/w { setlinewidth } bind def
/J { setlinecap } bind def
/j { setlinejoin } bind def
/M { setmiterlimit } bind def
/d { setdash } bind def
/m { moveto } bind def
/l { lineto } bind def
/c { curveto } bind def
/h { closepath } bind def
/re { exch dup neg 3 1 roll 5 3 roll moveto 0 rlineto
      0 exch rlineto 0 rlineto closepath } bind def
/S { stroke } bind def
/f { fill } bind def
/f* { eofill } bind def
/n { newpath } bind def
/W { clip } bind def
/W* { eoclip } bind def
/BT { } bind def
/ET { } bind def
/pdfmark where { pop globaldict /?pdfmark /exec load put }
    { globaldict begin /?pdfmark /pop load def /pdfmark
    /cleartomark load def end } ifelse
/BDC { mark 3 1 roll /BDC pdfmark } bind def
/EMC { mark /EMC pdfmark } bind def
/cairo_store_point { /cairo_point_y exch def /cairo_point_x exch def } def
/Tj { show currentpoint cairo_store_point } bind def
/TJ {
  {
    dup
    type /stringtype eq
    { show } { -0.001 mul 0 cairo_font_matrix dtransform rmoveto } ifelse
  } forall
  currentpoint cairo_store_point
} bind def
/cairo_selectfont { cairo_font_matrix aload pop pop pop 0 0 6 array astore
    cairo_font exch selectfont cairo_point_x cairo_point_y moveto } bind def
/Tf { pop /cairo_font exch def /cairo_font_matrix where
      { pop cairo_selectfont } if } bind def
/Td { matrix translate cairo_font_matrix matrix concatmatrix dup
      /cairo_font_matrix exch def dup 4 get exch 5 get cairo_store_point
      /cairo_font where { pop cairo_selectfont } if } bind def
/Tm { 2 copy 8 2 roll 6 array astore /cairo_font_matrix exch def
      cairo_store_point /cairo_font where { pop cairo_selectfont } if } bind def
/g { setgray } bind def
/rg { setrgbcolor } bind def
/d1 { setcachedevice } bind def
%%EndProlog
%%Page: 1 1
%%BeginPageSetup
%%PageBoundingBox: 0 -1 76 76
%%EndPageSetup
q 0 -1 76 77 rectclip q
0 75.395 76 -76 re W n
0 g
74.801 24.336 m 73.949 26.793 72.109 29.172 69.625 31.035 c 67.012 
32.989 63.957 34.11 61.238 34.11 c 59.395 34.11 57.797 33.606 56.594 
32.653 c 48.27 38 41.164 41.106 36.586 42.789 c 36.031 44.094 35.719 
44.867 35.703 44.907 c 35.672 44.977 35.641 45.047 35.605 45.117 c 
35.457 45.407 31.957 52.242 27.492 59.285 c 18.91 72.825 14.547 74.922 
12.012 75.325 c 10.262 75.598 8.629 75.075 7.387 73.828 c 6.367 72.809 
6.367 71.153 7.387 70.133 c 8.371 69.145 10.094 69.145 11.082 70.133 c 
11.195 70.16 l 11.793 70.067 15.164 68.969 23.062 56.512 c 25.602 
52.508 27.852 48.512 29.289 45.867 c 26.66 47.34 22.691 49.645 18.719 
52.242 c 6.406 60.285 5.328 63.707 5.238 64.313 c 5.227 64.399 5.23 
64.426 5.273 64.465 c 6.293 65.485 6.293 67.141 5.273 68.16 c 4.285 
69.149 2.562 69.149 1.578 68.16 c 0.32 66.907 -0.199 65.305 0.07 63.528 
c 0.453 60.981 2.512 56.582 15.883 47.852 c 22.91 43.258 29.602 39.731 
29.883 39.582 c 29.988 39.524 30.098 39.477 30.211 39.438 c 30.422 
39.313 30.648 39.219 30.883 39.16 c 30.91 39.153 31.555 38.981 32.695 
38.606 c 34.59 34.262 38.297 26.114 42.555 18.578 c 40.246 15.489 
40.941 10.141 44.277 5.688 c 46.902 2.18 50.57 0 53.848 0 c 55.266 0 
56.57 0.418 57.625 1.203 c 57.848 1.371 58.059 1.555 58.254 1.75 c 
61.172 4.668 60.664 10.481 57.078 15.274 c 55.707 17.102 54.078 18.567 
52.32 19.563 c 52.699 19.719 l 52.691 20.055 l 52.672 21.012 52.254 
22.629 50.816 22.629 c 50.461 22.629 50.07 22.52 49.652 22.305 c 49.18 
22.059 47.828 21.825 46.844 21.653 c 46.82 21.649 l 43.977 26.735 
41.426 32.016 39.633 35.899 c 44.246 33.86 48.867 31.375 53.395 28.492 
c 53.273 27.825 53.078 26.832 52.879 26.442 c 52.484 25.68 52.445 
25.016 52.77 24.477 c 53.367 23.473 54.949 23.446 55.125 23.442 c 
55.492 23.465 l 56.48 21.539 58.062 19.711 60.035 18.235 c 62.645 
16.278 65.703 15.157 68.422 15.157 c 70.539 15.157 72.316 15.813 73.559 
17.055 c 73.754 17.25 73.938 17.465 74.105 17.688 c 75.426 19.45 75.672 
21.813 74.801 24.336 c h
34.207 39.254 m 32.773 42.278 l 34.457 42.996 l 35.891 39.977 l h
46.293 16.016 m 46.34 16.063 46.387 16.106 46.438 16.141 c 46.703 16.34 
47.082 16.446 47.531 16.446 c 49.035 16.446 51.453 15.246 53.461 12.567 
c 55.789 9.461 56.172 6.059 55.062 4.95 c 55.016 4.903 54.969 4.86 
54.918 4.821 c 53.754 3.953 50.5 4.918 47.895 8.399 c 45.566 11.504 
45.184 14.907 46.293 16.016 c h
70.488 20.395 m 70.453 20.344 70.41 20.297 70.367 20.25 c 69.984 19.871 
69.297 19.66 68.43 19.66 c 66.699 19.66 64.574 20.481 62.746 21.852 c 
59.238 24.477 58.301 27.711 59.172 28.875 c 59.207 28.922 59.25 28.973 
59.293 29.016 c 59.676 29.399 60.363 29.606 61.23 29.606 c 62.961 
29.606 65.086 28.789 66.914 27.418 c 70.422 24.789 71.359 21.559 70.488 
20.395 c h
70.488 20.395 m f
Q Q
showpage
%%Trailer
count op_count sub {pop} repeat
countdictstack dict_count sub {end} repeat
cairo_eps_state restore
%%EOF
