%!PS-Adobe-3.0 EPSF-3.0
%%Creator: cairo 1.10.2 (http://cairographics.org)
%%CreationDate: Fri Jul  4 08:47:43 2014
%%Pages: 1
%%BoundingBox: 0 -1 76 75
%%DocumentData: Clean7Bit
%%LanguageLevel: 2
%%EndComments
%%BeginProlog
/cairo_eps_state save def
/dict_count countdictstack def
/op_count count 1 sub def
userdict begin
/q { gsave } bind def
/Q { grestore } bind def
/cm { 6 array astore concat } bind def
/w { setlinewidth } bind def
/J { setlinecap } bind def
/j { setlinejoin } bind def
/M { setmiterlimit } bind def
/d { setdash } bind def
/m { moveto } bind def
/l { lineto } bind def
/c { curveto } bind def
/h { closepath } bind def
/re { exch dup neg 3 1 roll 5 3 roll moveto 0 rlineto
      0 exch rlineto 0 rlineto closepath } bind def
/S { stroke } bind def
/f { fill } bind def
/f* { eofill } bind def
/n { newpath } bind def
/W { clip } bind def
/W* { eoclip } bind def
/BT { } bind def
/ET { } bind def
/pdfmark where { pop globaldict /?pdfmark /exec load put }
    { globaldict begin /?pdfmark /pop load def /pdfmark
    /cleartomark load def end } ifelse
/BDC { mark 3 1 roll /BDC pdfmark } bind def
/EMC { mark /EMC pdfmark } bind def
/cairo_store_point { /cairo_point_y exch def /cairo_point_x exch def } def
/Tj { show currentpoint cairo_store_point } bind def
/TJ {
  {
    dup
    type /stringtype eq
    { show } { -0.001 mul 0 cairo_font_matrix dtransform rmoveto } ifelse
  } forall
  currentpoint cairo_store_point
} bind def
/cairo_selectfont { cairo_font_matrix aload pop pop pop 0 0 6 array astore
    cairo_font exch selectfont cairo_point_x cairo_point_y moveto } bind def
/Tf { pop /cairo_font exch def /cairo_font_matrix where
      { pop cairo_selectfont } if } bind def
/Td { matrix translate cairo_font_matrix matrix concatmatrix dup
      /cairo_font_matrix exch def dup 4 get exch 5 get cairo_store_point
      /cairo_font where { pop cairo_selectfont } if } bind def
/Tm { 2 copy 8 2 roll 6 array astore /cairo_font_matrix exch def
      cairo_store_point /cairo_font where { pop cairo_selectfont } if } bind def
/g { setgray } bind def
/rg { setrgbcolor } bind def
/d1 { setcachedevice } bind def
%%EndProlog
%%Page: 1 1
%%BeginPageSetup
%%PageBoundingBox: 0 -1 76 75
%%EndPageSetup
q 0 -1 76 76 rectclip q
0 74.865 76 -75 re W n
0 g
37.492 34.587 m 37.492 34.584 l 37.5 34.584 37.512 34.584 37.52 34.584 
c 37.523 34.584 37.531 34.584 37.535 34.584 c 37.547 34.584 l 37.555 
34.584 37.562 34.584 37.562 34.584 c 37.574 34.584 37.582 34.584 37.59 
34.584 c 37.59 34.587 l 47.852 34.431 54.105 43.361 54.336 58.099 c 
42.371 58.099 l 41.438 56.392 39.625 55.232 37.543 55.232 c 35.457 
55.232 33.645 56.392 32.711 58.099 c 20.75 58.099 l 20.977 43.361 
27.234 34.431 37.492 34.587 c h
37.492 34.587 m f
37.543 66.232 m 39.859 66.232 41.84 64.794 42.648 62.767 c 53.922 
62.767 l 52.371 70.341 46.441 74.627 37.609 74.861 c 37.609 74.865 l 
37.594 74.865 37.578 74.865 37.562 74.865 c 37.555 74.865 37.547 74.865 
37.543 74.865 c 37.535 74.865 37.527 74.865 37.52 74.865 c 37.504 
74.865 37.492 74.865 37.477 74.865 c 37.477 74.861 l 28.641 74.627 
22.715 70.341 21.16 62.767 c 32.434 62.767 l 33.242 64.794 35.223 
66.232 37.543 66.232 c h
37.543 66.232 m f
74.125 3.439 m 61.211 25.029 l 60.434 26.337 59.27 27.263 57.961 27.802 
c 49.109 31.877 l 44.859 35.462 l 37.551 28.197 l 30.227 35.462 l 
25.973 31.877 l 17.125 27.802 l 15.812 27.263 14.652 26.337 13.875 
25.029 c 0.957 3.439 l 0.324 2.38 0.008 1.193 0 0.002 c 33.691 0.025 l 
37.543 24.068 l 41.391 0.025 l 75.082 0.002 l 75.074 1.193 74.758 2.38 
74.125 3.439 c h
59.875 9.052 m 56.387 9.052 l 56.387 5.564 l 52.297 5.564 l 52.297 
9.052 l 48.809 9.052 l 48.809 13.138 l 52.297 13.138 l 52.297 16.63 l 
56.387 16.63 l 56.387 13.138 l 59.875 13.138 l h
59.875 9.052 m f
Q Q
showpage
%%Trailer
count op_count sub {pop} repeat
countdictstack dict_count sub {end} repeat
cairo_eps_state restore
%%EOF
