%!PS-Adobe-3.0 EPSF-3.0
%%Creator: cairo 1.10.2 (http://cairographics.org)
%%CreationDate: Fri Jul  4 08:48:47 2014
%%Pages: 1
%%BoundingBox: 0 -1 73 73
%%DocumentData: Clean7Bit
%%LanguageLevel: 2
%%EndComments
%%BeginProlog
/cairo_eps_state save def
/dict_count countdictstack def
/op_count count 1 sub def
userdict begin
/q { gsave } bind def
/Q { grestore } bind def
/cm { 6 array astore concat } bind def
/w { setlinewidth } bind def
/J { setlinecap } bind def
/j { setlinejoin } bind def
/M { setmiterlimit } bind def
/d { setdash } bind def
/m { moveto } bind def
/l { lineto } bind def
/c { curveto } bind def
/h { closepath } bind def
/re { exch dup neg 3 1 roll 5 3 roll moveto 0 rlineto
      0 exch rlineto 0 rlineto closepath } bind def
/S { stroke } bind def
/f { fill } bind def
/f* { eofill } bind def
/n { newpath } bind def
/W { clip } bind def
/W* { eoclip } bind def
/BT { } bind def
/ET { } bind def
/pdfmark where { pop globaldict /?pdfmark /exec load put }
    { globaldict begin /?pdfmark /pop load def /pdfmark
    /cleartomark load def end } ifelse
/BDC { mark 3 1 roll /BDC pdfmark } bind def
/EMC { mark /EMC pdfmark } bind def
/cairo_store_point { /cairo_point_y exch def /cairo_point_x exch def } def
/Tj { show currentpoint cairo_store_point } bind def
/TJ {
  {
    dup
    type /stringtype eq
    { show } { -0.001 mul 0 cairo_font_matrix dtransform rmoveto } ifelse
  } forall
  currentpoint cairo_store_point
} bind def
/cairo_selectfont { cairo_font_matrix aload pop pop pop 0 0 6 array astore
    cairo_font exch selectfont cairo_point_x cairo_point_y moveto } bind def
/Tf { pop /cairo_font exch def /cairo_font_matrix where
      { pop cairo_selectfont } if } bind def
/Td { matrix translate cairo_font_matrix matrix concatmatrix dup
      /cairo_font_matrix exch def dup 4 get exch 5 get cairo_store_point
      /cairo_font where { pop cairo_selectfont } if } bind def
/Tm { 2 copy 8 2 roll 6 array astore /cairo_font_matrix exch def
      cairo_store_point /cairo_font where { pop cairo_selectfont } if } bind def
/g { setgray } bind def
/rg { setrgbcolor } bind def
/d1 { setcachedevice } bind def
%%EndProlog
%%Page: 1 1
%%BeginPageSetup
%%PageBoundingBox: 0 -1 73 73
%%EndPageSetup
q 0 -1 73 74 rectclip q
0 72.425 73 -73 re W n
0 g
71.508 16.425 m 54.73 30.386 l 54.152 30.866 53.398 31.069 52.66 30.94 
c 50.039 30.475 47.645 29.249 45.727 27.386 c 44.793 26.475 l 43.883 
25.593 43.105 24.593 42.477 23.507 c 41.879 22.464 l 40.898 23.163 l 
34.105 28.015 28.016 34.104 23.164 40.897 c 22.465 41.878 l 23.508 
42.479 l 24.594 43.104 25.59 43.882 26.473 44.792 c 27.391 45.733 l 
29.25 47.647 30.48 50.042 30.941 52.663 c 31.07 53.401 30.867 54.155 
30.391 54.729 c 16.426 71.507 l 16.375 71.569 16.32 71.628 16.266 
71.682 c 15.812 72.136 15.207 72.397 14.562 72.421 c 11.66 72.53 5.664 
70.085 2.418 65.386 c 0.391 62.448 -1.402 57.464 1.578 50.405 c 1.617 
50.315 l 6.715 39.421 13.223 29.999 21.512 21.515 c 21.543 21.483 l 
30.008 13.21 39.418 6.714 50.316 1.62 c 50.402 1.581 l 57.465 -1.403 
62.449 0.393 65.387 2.421 c 70.086 5.667 72.531 11.659 72.422 14.565 c 
72.398 15.284 72.07 15.964 71.508 16.425 c h
71.508 16.425 m f
45.793 39.261 m 53.324 39.261 l 53.324 46.55 l 60.617 46.55 l 60.617 
54.085 l 53.324 54.085 l 53.324 61.374 l 45.793 61.374 l 45.793 54.085 
l 38.496 54.085 l 38.496 46.55 l 45.793 46.55 l h
45.793 39.261 m f
Q Q
showpage
%%Trailer
count op_count sub {pop} repeat
countdictstack dict_count sub {end} repeat
cairo_eps_state restore
%%EOF
