%!PS-Adobe-3.0 EPSF-3.0
%%Creator: cairo 1.10.2 (http://cairographics.org)
%%CreationDate: Fri Jul  4 09:52:21 2014
%%Pages: 1
%%BoundingBox: 0 -1 76 75
%%DocumentData: Clean7Bit
%%LanguageLevel: 2
%%EndComments
%%BeginProlog
/cairo_eps_state save def
/dict_count countdictstack def
/op_count count 1 sub def
userdict begin
/q { gsave } bind def
/Q { grestore } bind def
/cm { 6 array astore concat } bind def
/w { setlinewidth } bind def
/J { setlinecap } bind def
/j { setlinejoin } bind def
/M { setmiterlimit } bind def
/d { setdash } bind def
/m { moveto } bind def
/l { lineto } bind def
/c { curveto } bind def
/h { closepath } bind def
/re { exch dup neg 3 1 roll 5 3 roll moveto 0 rlineto
      0 exch rlineto 0 rlineto closepath } bind def
/S { stroke } bind def
/f { fill } bind def
/f* { eofill } bind def
/n { newpath } bind def
/W { clip } bind def
/W* { eoclip } bind def
/BT { } bind def
/ET { } bind def
/pdfmark where { pop globaldict /?pdfmark /exec load put }
    { globaldict begin /?pdfmark /pop load def /pdfmark
    /cleartomark load def end } ifelse
/BDC { mark 3 1 roll /BDC pdfmark } bind def
/EMC { mark /EMC pdfmark } bind def
/cairo_store_point { /cairo_point_y exch def /cairo_point_x exch def } def
/Tj { show currentpoint cairo_store_point } bind def
/TJ {
  {
    dup
    type /stringtype eq
    { show } { -0.001 mul 0 cairo_font_matrix dtransform rmoveto } ifelse
  } forall
  currentpoint cairo_store_point
} bind def
/cairo_selectfont { cairo_font_matrix aload pop pop pop 0 0 6 array astore
    cairo_font exch selectfont cairo_point_x cairo_point_y moveto } bind def
/Tf { pop /cairo_font exch def /cairo_font_matrix where
      { pop cairo_selectfont } if } bind def
/Td { matrix translate cairo_font_matrix matrix concatmatrix dup
      /cairo_font_matrix exch def dup 4 get exch 5 get cairo_store_point
      /cairo_font where { pop cairo_selectfont } if } bind def
/Tm { 2 copy 8 2 roll 6 array astore /cairo_font_matrix exch def
      cairo_store_point /cairo_font where { pop cairo_selectfont } if } bind def
/g { setgray } bind def
/rg { setrgbcolor } bind def
/d1 { setcachedevice } bind def
%%EndProlog
%%Page: 1 1
%%BeginPageSetup
%%PageBoundingBox: 0 -1 76 75
%%EndPageSetup
q 0 -1 76 76 rectclip q
0 74.864 76 -75 re W n
0 g
37.492 34.587 m 37.492 34.583 l 37.5 34.583 37.508 34.583 37.52 34.583 
c 37.52 34.583 37.527 34.583 37.535 34.583 c 37.547 34.583 l 37.555 
34.583 37.562 34.583 37.562 34.583 c 37.57 34.583 37.582 34.583 37.59 
34.583 c 37.59 34.587 l 47.906 34.43 54.176 43.458 54.34 58.348 c 
54.445 68.676 48.039 74.583 37.605 74.86 c 37.605 74.864 l 37.59 74.864 
37.578 74.864 37.562 74.864 c 37.555 74.864 37.547 74.864 37.539 74.864 
c 37.535 74.864 37.527 74.864 37.52 74.864 c 37.504 74.864 37.492 
74.864 37.477 74.864 c 37.477 74.86 l 27.043 74.583 20.637 68.676 
20.742 58.348 c 20.902 43.462 27.176 34.43 37.492 34.587 c h
37.492 34.587 m f
37.539 16.012 m 42.223 21.153 l 37.746 0.001 l 75.082 0.001 l 75.074 
1.192 74.758 2.38 74.125 3.438 c 61.211 25.028 l 60.43 26.337 59.27 
27.262 57.961 27.801 c 49.109 31.876 l 44.859 35.462 l 37.551 28.196 l 
30.227 35.462 l 25.973 31.876 l 17.125 27.801 l 15.812 27.262 14.652 
26.337 13.871 25.028 c 0.957 3.438 l 0.324 2.38 0.008 1.192 0 0.001 c 
37.332 0.001 l 32.859 21.153 l h
48.809 13.137 m 52.297 13.137 l 52.297 16.63 l 56.383 16.63 l 56.383 
13.137 l 59.875 13.137 l 59.875 9.051 l 56.383 9.051 l 56.383 5.563 l 
52.297 5.563 l 52.297 9.051 l 48.809 9.051 l h
48.809 13.137 m f
Q Q
showpage
%%Trailer
count op_count sub {pop} repeat
countdictstack dict_count sub {end} repeat
cairo_eps_state restore
%%EOF
