%!PS-Adobe-3.0 EPSF-3.0
%%Creator: cairo 1.10.2 (http://cairographics.org)
%%CreationDate: Fri Jul  4 08:49:33 2014
%%Pages: 1
%%BoundingBox: 0 -1 74 74
%%DocumentData: Clean7Bit
%%LanguageLevel: 2
%%EndComments
%%BeginProlog
/cairo_eps_state save def
/dict_count countdictstack def
/op_count count 1 sub def
userdict begin
/q { gsave } bind def
/Q { grestore } bind def
/cm { 6 array astore concat } bind def
/w { setlinewidth } bind def
/J { setlinecap } bind def
/j { setlinejoin } bind def
/M { setmiterlimit } bind def
/d { setdash } bind def
/m { moveto } bind def
/l { lineto } bind def
/c { curveto } bind def
/h { closepath } bind def
/re { exch dup neg 3 1 roll 5 3 roll moveto 0 rlineto
      0 exch rlineto 0 rlineto closepath } bind def
/S { stroke } bind def
/f { fill } bind def
/f* { eofill } bind def
/n { newpath } bind def
/W { clip } bind def
/W* { eoclip } bind def
/BT { } bind def
/ET { } bind def
/pdfmark where { pop globaldict /?pdfmark /exec load put }
    { globaldict begin /?pdfmark /pop load def /pdfmark
    /cleartomark load def end } ifelse
/BDC { mark 3 1 roll /BDC pdfmark } bind def
/EMC { mark /EMC pdfmark } bind def
/cairo_store_point { /cairo_point_y exch def /cairo_point_x exch def } def
/Tj { show currentpoint cairo_store_point } bind def
/TJ {
  {
    dup
    type /stringtype eq
    { show } { -0.001 mul 0 cairo_font_matrix dtransform rmoveto } ifelse
  } forall
  currentpoint cairo_store_point
} bind def
/cairo_selectfont { cairo_font_matrix aload pop pop pop 0 0 6 array astore
    cairo_font exch selectfont cairo_point_x cairo_point_y moveto } bind def
/Tf { pop /cairo_font exch def /cairo_font_matrix where
      { pop cairo_selectfont } if } bind def
/Td { matrix translate cairo_font_matrix matrix concatmatrix dup
      /cairo_font_matrix exch def dup 4 get exch 5 get cairo_store_point
      /cairo_font where { pop cairo_selectfont } if } bind def
/Tm { 2 copy 8 2 roll 6 array astore /cairo_font_matrix exch def
      cairo_store_point /cairo_font where { pop cairo_selectfont } if } bind def
/g { setgray } bind def
/rg { setrgbcolor } bind def
/d1 { setcachedevice } bind def
%%EndProlog
%%Page: 1 1
%%BeginPageSetup
%%PageBoundingBox: 0 -1 74 74
%%EndPageSetup
q 0 -1 74 75 rectclip q
0 73.77 74 -74 re W n
0 g
67.965 31.328 m 65.336 33.301 62.258 34.43 59.527 34.43 c 57.828 34.43 
56.328 33.996 55.172 33.172 c 54.797 33.383 54.039 33.809 52.961 34.414 
c 52.215 34.832 51.316 35.336 50.297 35.91 c 46.461 38.109 l 45.121 
38.875 43.672 39.719 42.137 40.613 c 36.875 43.695 l 33.793 45.516 
30.527 47.445 27.254 49.379 c 26.242 50.961 25.23 52.543 24.23 54.102 c 
21.012 59.149 l 18.789 62.57 16.617 65.496 14.562 67.848 c 12.262 
70.481 10.27 72.191 8.48 73.078 c 7.609 73.52 6.668 73.77 5.906 73.77 c 
5.836 73.77 l 5.48 73.77 5.203 73.727 5.035 73.691 c 4.77 73.633 l 
4.074 73.473 3.617 72.801 3.734 72.094 c 3.852 71.367 4.551 70.863 
5.285 70.981 c 5.535 71.024 l 5.582 71.031 5.648 71.039 5.738 71.039 c 
5.82 71.035 l 5.992 71.031 6.469 70.981 7.203 70.582 c 7.883 70.223 
8.68 69.621 9.512 68.844 c 10.34 68.074 11.258 67.078 12.242 65.879 c 
14.098 63.609 16.137 60.66 18.137 57.352 c 20.457 53.43 l 18.285 54.727 
l 18.074 54.848 17.863 54.969 17.66 55.086 c 16.422 55.82 l 13.113 
57.82 10.164 59.859 7.895 61.719 c 6.699 62.699 5.703 63.617 4.926 
64.449 c 4.152 65.277 3.551 66.074 3.188 66.758 c 2.789 67.492 2.738 
67.969 2.734 68.145 c 2.73 68.277 2.738 68.367 2.75 68.426 c 2.793 
68.676 l 2.906 69.379 2.449 70.055 1.754 70.211 c 1.035 70.367 0.297 
69.902 0.141 69.188 c 0.078 68.918 l 0.043 68.742 -0.004 68.457 0 
68.102 c -0.008 67.328 0.242 66.371 0.691 65.477 c 1.582 63.688 3.293 
61.695 5.926 59.395 c 8.285 57.332 11.211 55.164 14.621 52.945 c 16.5 
51.762 l 16.5 51.758 l 24.516 46.625 l 30.523 36.457 l 33.344 31.633 l 
34.238 30.102 35.082 28.649 35.848 27.309 c 40.699 18.754 l 38.277 
15.707 38.961 10.266 42.359 5.727 c 45.004 2.195 48.684 0 51.961 0 c 
53.379 0 54.629 0.399 55.68 1.184 c 55.898 1.348 56.105 1.531 56.293 
1.719 c 59.195 4.617 58.664 10.43 55.062 15.238 c 53.562 17.246 51.75 
18.816 49.801 19.816 c 50.527 20.113 l 50.523 20.281 l 50.52 20.379 
50.453 22.668 48.855 22.668 c 48.531 22.668 48.172 22.566 47.781 22.363 
c 47.262 22.094 45.914 21.863 44.832 21.676 c 44.602 21.633 l 39.723 
29.617 l 38.906 30.945 38.016 32.375 37.066 33.883 c 32.047 41.84 l 
39.887 36.891 l 41.398 35.941 42.824 35.047 44.156 34.231 c 47.777 
31.992 l 52.137 29.359 l 52.094 29.102 l 51.906 28.027 51.672 26.691 
51.406 26.176 c 51.047 25.477 51.008 24.883 51.289 24.406 c 51.84 
23.481 53.426 23.438 53.492 23.434 c 53.66 23.43 l 53.859 23.918 l 
54.855 21.957 56.434 20.137 58.453 18.625 c 61.082 16.652 64.16 15.524 
66.891 15.524 c 68.992 15.524 70.75 16.172 71.973 17.395 c 72.16 17.578 
72.34 17.789 72.512 18.012 c 75.176 21.574 73.18 27.426 67.965 31.328 c 
h
25.156 48.207 m 24.668 48.207 24.27 48.512 24.27 48.883 c 24.27 49.258 
24.668 49.559 25.156 49.559 c 25.648 49.559 26.047 49.258 26.047 48.883 
c 26.047 48.512 25.648 48.207 25.156 48.207 c h
44.043 16.332 m 44.098 16.383 44.156 16.438 44.219 16.481 c 44.535 
16.719 44.977 16.844 45.492 16.844 c 47.098 16.844 49.66 15.586 51.77 
12.77 c 54.23 9.481 54.598 5.84 53.383 4.629 c 53.328 4.574 53.27 4.524 
53.211 4.477 c 52.891 4.238 52.453 4.113 51.938 4.113 c 50.332 4.113 
47.766 5.375 45.656 8.191 c 43.16 11.527 42.809 15.094 44.043 16.332 c 
h
69.215 20.481 m 69.164 20.418 69.113 20.359 69.062 20.305 c 68.625 
19.867 67.855 19.629 66.895 19.629 c 65.07 19.629 62.84 20.484 60.922 
21.922 c 59.266 23.16 57.984 24.688 57.316 26.219 c 56.73 27.563 56.691 
28.777 57.207 29.469 c 57.254 29.531 57.305 29.59 57.359 29.645 c 
57.797 30.082 58.566 30.324 59.523 30.324 c 61.348 30.324 63.582 29.469 
65.496 28.031 c 68.934 25.461 70.293 21.922 69.215 20.481 c h
69.215 20.481 m f
Q Q
showpage
%%Trailer
count op_count sub {pop} repeat
countdictstack dict_count sub {end} repeat
cairo_eps_state restore
%%EOF
