%!PS-Adobe-3.0 EPSF-3.0
%%Creator: cairo 1.10.2 (http://cairographics.org)
%%CreationDate: Fri Jul  4 08:29:19 2014
%%Pages: 1
%%BoundingBox: 0 -1 74 48
%%DocumentData: Clean7Bit
%%LanguageLevel: 2
%%EndComments
%%BeginProlog
/cairo_eps_state save def
/dict_count countdictstack def
/op_count count 1 sub def
userdict begin
/q { gsave } bind def
/Q { grestore } bind def
/cm { 6 array astore concat } bind def
/w { setlinewidth } bind def
/J { setlinecap } bind def
/j { setlinejoin } bind def
/M { setmiterlimit } bind def
/d { setdash } bind def
/m { moveto } bind def
/l { lineto } bind def
/c { curveto } bind def
/h { closepath } bind def
/re { exch dup neg 3 1 roll 5 3 roll moveto 0 rlineto
      0 exch rlineto 0 rlineto closepath } bind def
/S { stroke } bind def
/f { fill } bind def
/f* { eofill } bind def
/n { newpath } bind def
/W { clip } bind def
/W* { eoclip } bind def
/BT { } bind def
/ET { } bind def
/pdfmark where { pop globaldict /?pdfmark /exec load put }
    { globaldict begin /?pdfmark /pop load def /pdfmark
    /cleartomark load def end } ifelse
/BDC { mark 3 1 roll /BDC pdfmark } bind def
/EMC { mark /EMC pdfmark } bind def
/cairo_store_point { /cairo_point_y exch def /cairo_point_x exch def } def
/Tj { show currentpoint cairo_store_point } bind def
/TJ {
  {
    dup
    type /stringtype eq
    { show } { -0.001 mul 0 cairo_font_matrix dtransform rmoveto } ifelse
  } forall
  currentpoint cairo_store_point
} bind def
/cairo_selectfont { cairo_font_matrix aload pop pop pop 0 0 6 array astore
    cairo_font exch selectfont cairo_point_x cairo_point_y moveto } bind def
/Tf { pop /cairo_font exch def /cairo_font_matrix where
      { pop cairo_selectfont } if } bind def
/Td { matrix translate cairo_font_matrix matrix concatmatrix dup
      /cairo_font_matrix exch def dup 4 get exch 5 get cairo_store_point
      /cairo_font where { pop cairo_selectfont } if } bind def
/Tm { 2 copy 8 2 roll 6 array astore /cairo_font_matrix exch def
      cairo_store_point /cairo_font where { pop cairo_selectfont } if } bind def
/g { setgray } bind def
/rg { setrgbcolor } bind def
/d1 { setcachedevice } bind def
%%EndProlog
%%Page: 1 1
%%BeginPageSetup
%%PageBoundingBox: 0 -1 74 48
%%EndPageSetup
q 0 -1 74 49 rectclip q
0 47.927 74 -48 re W n
0 g
15.68 16.693 m 11.078 16.693 7.332 12.947 7.332 8.345 c 7.332 3.744 
11.078 0.001 15.68 0.001 c 20.281 0.001 24.023 3.744 24.023 8.345 c 
24.023 12.947 20.281 16.693 15.68 16.693 c h
15.68 4.552 m 13.586 4.552 11.887 6.251 11.887 8.345 c 11.887 10.439 
13.586 12.138 15.68 12.138 c 17.77 12.138 19.473 10.439 19.473 8.345 c 
19.473 6.255 17.77 4.552 15.68 4.552 c h
15.68 4.552 m f
57.66 16.693 m 53.059 16.693 49.316 12.947 49.316 8.345 c 49.316 3.744 
53.059 0.001 57.66 0.001 c 62.262 0.001 66.008 3.744 66.008 8.345 c 
66.008 12.947 62.262 16.693 57.66 16.693 c h
57.66 4.552 m 55.57 4.552 53.867 6.251 53.867 8.345 c 53.867 10.439 
55.57 12.138 57.66 12.138 c 59.754 12.138 61.453 10.439 61.453 8.345 c 
61.453 6.255 59.754 4.552 57.66 4.552 c h
57.66 4.552 m f
71.191 47.927 m 25.289 47.927 l 24.031 47.927 23.012 46.908 23.012 
45.65 c 23.012 40.943 l 18.02 40.943 l 3.719 26.619 l 2.277 26.619 l 
1.02 26.619 0 25.599 0 24.341 c 0 11.115 l 0 9.857 1.02 8.837 2.277 
8.837 c 5.5 8.837 l 5.5 14.486 10.094 19.08 15.742 19.08 c 21.27 19.08 
25.773 14.681 25.969 9.201 c 47.5 9.201 l 47.695 14.681 52.199 19.08 
57.727 19.08 c 63.25 19.08 67.754 14.681 67.949 9.201 c 71.191 9.201 l 
72.449 9.201 73.469 10.22 73.469 11.478 c 73.469 45.65 l 73.469 46.908 
72.449 47.927 71.191 47.927 c h
23.395 25.884 m 10.117 25.884 l 21.117 36.982 l 23.395 36.978 l h
58.723 29.724 m 52.84 29.724 l 52.84 23.841 l 47.434 23.841 l 47.434 
29.724 l 41.555 29.724 l 41.555 35.13 l 47.434 35.13 l 47.434 41.013 l 
52.84 41.013 l 52.84 35.13 l 58.723 35.13 l h
58.723 29.724 m f
Q Q
showpage
%%Trailer
count op_count sub {pop} repeat
countdictstack dict_count sub {end} repeat
cairo_eps_state restore
%%EOF
