%!PS-Adobe-3.0 EPSF-3.0
%%Creator: cairo 1.10.2 (http://cairographics.org)
%%CreationDate: Fri Jul  4 08:48:21 2014
%%Pages: 1
%%BoundingBox: 0 -1 68 75
%%DocumentData: Clean7Bit
%%LanguageLevel: 2
%%EndComments
%%BeginProlog
/cairo_eps_state save def
/dict_count countdictstack def
/op_count count 1 sub def
userdict begin
/q { gsave } bind def
/Q { grestore } bind def
/cm { 6 array astore concat } bind def
/w { setlinewidth } bind def
/J { setlinecap } bind def
/j { setlinejoin } bind def
/M { setmiterlimit } bind def
/d { setdash } bind def
/m { moveto } bind def
/l { lineto } bind def
/c { curveto } bind def
/h { closepath } bind def
/re { exch dup neg 3 1 roll 5 3 roll moveto 0 rlineto
      0 exch rlineto 0 rlineto closepath } bind def
/S { stroke } bind def
/f { fill } bind def
/f* { eofill } bind def
/n { newpath } bind def
/W { clip } bind def
/W* { eoclip } bind def
/BT { } bind def
/ET { } bind def
/pdfmark where { pop globaldict /?pdfmark /exec load put }
    { globaldict begin /?pdfmark /pop load def /pdfmark
    /cleartomark load def end } ifelse
/BDC { mark 3 1 roll /BDC pdfmark } bind def
/EMC { mark /EMC pdfmark } bind def
/cairo_store_point { /cairo_point_y exch def /cairo_point_x exch def } def
/Tj { show currentpoint cairo_store_point } bind def
/TJ {
  {
    dup
    type /stringtype eq
    { show } { -0.001 mul 0 cairo_font_matrix dtransform rmoveto } ifelse
  } forall
  currentpoint cairo_store_point
} bind def
/cairo_selectfont { cairo_font_matrix aload pop pop pop 0 0 6 array astore
    cairo_font exch selectfont cairo_point_x cairo_point_y moveto } bind def
/Tf { pop /cairo_font exch def /cairo_font_matrix where
      { pop cairo_selectfont } if } bind def
/Td { matrix translate cairo_font_matrix matrix concatmatrix dup
      /cairo_font_matrix exch def dup 4 get exch 5 get cairo_store_point
      /cairo_font where { pop cairo_selectfont } if } bind def
/Tm { 2 copy 8 2 roll 6 array astore /cairo_font_matrix exch def
      cairo_store_point /cairo_font where { pop cairo_selectfont } if } bind def
/g { setgray } bind def
/rg { setrgbcolor } bind def
/d1 { setcachedevice } bind def
%%EndProlog
%%Page: 1 1
%%BeginPageSetup
%%PageBoundingBox: 0 -1 68 75
%%EndPageSetup
q 0 -1 68 76 rectclip q
0 74.8 68 -75 re W n
0 g
33.77 28.777 m 43.188 28.956 49.41 37.718 49.379 50.921 c 17.867 50.905 
l 18.012 37.187 24.066 28.601 33.77 28.777 c h
33.77 28.777 m f
55.473 19.855 m 54.73 21.093 53.621 21.956 52.375 22.445 c 43.938 
26.265 l 40.48 29.398 l 33.621 23.136 l 26.922 29.452 l 23.008 26.155 l 
14.867 22.409 l 13.664 21.913 12.594 21.058 11.875 19.855 c 0 -0.001 l 
30.309 -0.001 l 33.574 16.206 l 36.934 -0.001 l 67.344 -0.001 l h
52.988 8.077 m 49.926 8.077 l 49.926 5.015 l 46.34 5.015 l 46.34 8.077 
l 43.277 8.077 l 43.277 11.663 l 46.34 11.663 l 46.34 14.726 l 49.926 
14.726 l 49.926 11.663 l 52.988 11.663 l h
52.988 8.077 m f
49.531 58.433 m 49.531 63.448 45.594 67.538 40.641 67.804 c 40.641 
67.812 40.641 67.823 40.641 67.831 c 40.641 71.675 37.516 74.8 33.672 
74.8 c 29.828 74.8 26.703 71.675 26.703 67.831 c 26.703 67.82 26.703 
67.812 26.703 67.804 c 21.75 67.538 17.812 63.452 17.812 58.433 c 
17.812 54.202 l 49.531 54.202 l h
33.672 71.777 m 35.848 71.777 37.621 70.007 37.621 67.831 c 37.621 
65.652 35.848 63.882 33.672 63.882 c 31.496 63.882 29.723 65.652 29.723 
67.831 c 29.723 70.007 31.496 71.777 33.672 71.777 c h
33.672 71.777 m f
Q Q
showpage
%%Trailer
count op_count sub {pop} repeat
countdictstack dict_count sub {end} repeat
cairo_eps_state restore
%%EOF
