%!PS-Adobe-3.0 EPSF-3.0
%%Creator: cairo 1.10.2 (http://cairographics.org)
%%CreationDate: Fri Jul  4 08:48:54 2014
%%Pages: 1
%%BoundingBox: 0 -1 68 75
%%DocumentData: Clean7Bit
%%LanguageLevel: 2
%%EndComments
%%BeginProlog
/cairo_eps_state save def
/dict_count countdictstack def
/op_count count 1 sub def
userdict begin
/q { gsave } bind def
/Q { grestore } bind def
/cm { 6 array astore concat } bind def
/w { setlinewidth } bind def
/J { setlinecap } bind def
/j { setlinejoin } bind def
/M { setmiterlimit } bind def
/d { setdash } bind def
/m { moveto } bind def
/l { lineto } bind def
/c { curveto } bind def
/h { closepath } bind def
/re { exch dup neg 3 1 roll 5 3 roll moveto 0 rlineto
      0 exch rlineto 0 rlineto closepath } bind def
/S { stroke } bind def
/f { fill } bind def
/f* { eofill } bind def
/n { newpath } bind def
/W { clip } bind def
/W* { eoclip } bind def
/BT { } bind def
/ET { } bind def
/pdfmark where { pop globaldict /?pdfmark /exec load put }
    { globaldict begin /?pdfmark /pop load def /pdfmark
    /cleartomark load def end } ifelse
/BDC { mark 3 1 roll /BDC pdfmark } bind def
/EMC { mark /EMC pdfmark } bind def
/cairo_store_point { /cairo_point_y exch def /cairo_point_x exch def } def
/Tj { show currentpoint cairo_store_point } bind def
/TJ {
  {
    dup
    type /stringtype eq
    { show } { -0.001 mul 0 cairo_font_matrix dtransform rmoveto } ifelse
  } forall
  currentpoint cairo_store_point
} bind def
/cairo_selectfont { cairo_font_matrix aload pop pop pop 0 0 6 array astore
    cairo_font exch selectfont cairo_point_x cairo_point_y moveto } bind def
/Tf { pop /cairo_font exch def /cairo_font_matrix where
      { pop cairo_selectfont } if } bind def
/Td { matrix translate cairo_font_matrix matrix concatmatrix dup
      /cairo_font_matrix exch def dup 4 get exch 5 get cairo_store_point
      /cairo_font where { pop cairo_selectfont } if } bind def
/Tm { 2 copy 8 2 roll 6 array astore /cairo_font_matrix exch def
      cairo_store_point /cairo_font where { pop cairo_selectfont } if } bind def
/g { setgray } bind def
/rg { setrgbcolor } bind def
/d1 { setcachedevice } bind def
%%EndProlog
%%Page: 1 1
%%BeginPageSetup
%%PageBoundingBox: 0 -1 68 75
%%EndPageSetup
q 0 -1 68 76 rectclip q
0 74.822 68 -75 re W n
0 g
54.406 42.111 m 54.406 70.361 l 47.73 70.361 l 47.73 74.822 l 33.457 
74.822 l 33.457 70.361 l 21.258 70.361 l 21.258 74.822 l 6.98 74.822 l 
6.98 70.361 l 0 70.361 l 0 16.147 l 24.805 16.147 l 27.34 6.854 35.852 
-0.002 45.938 -0.002 c 58.016 -0.002 67.844 9.826 67.844 21.908 c 
67.844 30.986 62.293 38.795 54.406 42.111 c h
30.086 16.99 m 29.969 17.358 29.883 17.736 29.793 18.115 c 29.738 
18.365 29.676 18.608 29.633 18.858 c 29.621 18.916 29.617 18.979 29.605 
19.041 c 29.379 20.389 29.379 23.217 29.379 23.217 c 29.375 23.811 
29.188 24.389 28.82 24.858 c 21.371 34.299 l 32.285 33.119 l 33.07 
33.033 33.848 33.299 34.414 33.846 c 37.527 36.85 41.617 38.506 45.938 
38.506 c 55.09 38.506 62.535 31.061 62.535 21.908 c 62.535 12.756 55.09 
5.311 45.938 5.311 c 38.504 5.311 32.195 10.221 30.09 16.967 c 30.09 
16.979 30.086 16.983 30.086 16.99 c h
37.637 70.639 m 43.547 70.639 l 43.547 62.502 l 37.637 62.502 l h
11.164 70.639 m 17.074 70.639 l 17.074 62.502 l 11.164 62.502 l h
4.551 20.693 m 4.551 53.49 l 49.855 53.49 l 49.855 43.459 l 48.582 
43.69 47.273 43.818 45.938 43.818 c 40.66 43.818 35.641 41.947 31.668 
38.526 c 15.656 40.26 l 14.598 40.373 13.562 39.842 13.047 38.908 c 
12.527 37.971 12.621 36.815 13.285 35.975 c 24.035 22.346 l 24.031 
22.201 24.031 22.057 24.031 21.908 c 24.031 21.502 24.043 21.096 24.066 
20.697 c 4.551 20.697 l h
4.551 20.693 m f
Q Q
showpage
%%Trailer
count op_count sub {pop} repeat
countdictstack dict_count sub {end} repeat
cairo_eps_state restore
%%EOF
