%!PS-Adobe-3.0 EPSF-3.0
%%Creator: cairo 1.10.2 (http://cairographics.org)
%%CreationDate: Fri Jul  4 08:49:35 2014
%%Pages: 1
%%BoundingBox: 0 -1 38 72
%%DocumentData: Clean7Bit
%%LanguageLevel: 2
%%EndComments
%%BeginProlog
/cairo_eps_state save def
/dict_count countdictstack def
/op_count count 1 sub def
userdict begin
/q { gsave } bind def
/Q { grestore } bind def
/cm { 6 array astore concat } bind def
/w { setlinewidth } bind def
/J { setlinecap } bind def
/j { setlinejoin } bind def
/M { setmiterlimit } bind def
/d { setdash } bind def
/m { moveto } bind def
/l { lineto } bind def
/c { curveto } bind def
/h { closepath } bind def
/re { exch dup neg 3 1 roll 5 3 roll moveto 0 rlineto
      0 exch rlineto 0 rlineto closepath } bind def
/S { stroke } bind def
/f { fill } bind def
/f* { eofill } bind def
/n { newpath } bind def
/W { clip } bind def
/W* { eoclip } bind def
/BT { } bind def
/ET { } bind def
/pdfmark where { pop globaldict /?pdfmark /exec load put }
    { globaldict begin /?pdfmark /pop load def /pdfmark
    /cleartomark load def end } ifelse
/BDC { mark 3 1 roll /BDC pdfmark } bind def
/EMC { mark /EMC pdfmark } bind def
/cairo_store_point { /cairo_point_y exch def /cairo_point_x exch def } def
/Tj { show currentpoint cairo_store_point } bind def
/TJ {
  {
    dup
    type /stringtype eq
    { show } { -0.001 mul 0 cairo_font_matrix dtransform rmoveto } ifelse
  } forall
  currentpoint cairo_store_point
} bind def
/cairo_selectfont { cairo_font_matrix aload pop pop pop 0 0 6 array astore
    cairo_font exch selectfont cairo_point_x cairo_point_y moveto } bind def
/Tf { pop /cairo_font exch def /cairo_font_matrix where
      { pop cairo_selectfont } if } bind def
/Td { matrix translate cairo_font_matrix matrix concatmatrix dup
      /cairo_font_matrix exch def dup 4 get exch 5 get cairo_store_point
      /cairo_font where { pop cairo_selectfont } if } bind def
/Tm { 2 copy 8 2 roll 6 array astore /cairo_font_matrix exch def
      cairo_store_point /cairo_font where { pop cairo_selectfont } if } bind def
/g { setgray } bind def
/rg { setrgbcolor } bind def
/d1 { setcachedevice } bind def
%%EndProlog
%%Page: 1 1
%%BeginPageSetup
%%PageBoundingBox: 0 -1 38 72
%%EndPageSetup
q 0 -1 38 73 rectclip q
0 71.576 38 -72 re W n
0 g
31.602 51.318 m 31.398 51.318 l 31.398 57.521 l 6.199 57.521 l 6.199 
51.318 l 6 51.318 l 2.691 51.318 0 48.627 0 45.318 c 0 6.002 l 0 2.689 
2.691 0.002 6 0.002 c 31.602 0.002 l 34.91 0.002 37.602 2.689 37.602 
6.002 c 37.602 45.318 l 37.602 48.627 34.91 51.318 31.602 51.318 c h
33.602 6.002 m 33.602 4.896 32.703 4.002 31.602 4.002 c 6 4.002 l 4.898 
4.002 4 4.896 4 6.002 c 4 17.361 l 33.602 17.361 l h
33.602 40.162 m 4 40.162 l 4 45.318 l 4 46.42 4.898 47.318 6 47.318 c 
10.199 47.318 l 10.199 53.521 l 27.398 53.521 l 27.398 47.318 l 31.602 
47.318 l 32.703 47.318 33.602 46.42 33.602 45.318 c h
33.602 40.162 m f
31.5 67.638 m 31.5 69.814 29.738 71.576 27.562 71.576 c 10.039 71.576 l 
7.863 71.576 6.102 69.814 6.102 67.638 c 6.102 60.748 l 31.5 60.748 l h
31.5 67.638 m f
Q Q
showpage
%%Trailer
count op_count sub {pop} repeat
countdictstack dict_count sub {end} repeat
cairo_eps_state restore
%%EOF
