%!PS-Adobe-3.0 EPSF-3.0
%%Creator: cairo 1.10.2 (http://cairographics.org)
%%CreationDate: Fri Jul  4 08:48:35 2014
%%Pages: 1
%%BoundingBox: 0 -1 60 75
%%DocumentData: Clean7Bit
%%LanguageLevel: 2
%%EndComments
%%BeginProlog
/cairo_eps_state save def
/dict_count countdictstack def
/op_count count 1 sub def
userdict begin
/q { gsave } bind def
/Q { grestore } bind def
/cm { 6 array astore concat } bind def
/w { setlinewidth } bind def
/J { setlinecap } bind def
/j { setlinejoin } bind def
/M { setmiterlimit } bind def
/d { setdash } bind def
/m { moveto } bind def
/l { lineto } bind def
/c { curveto } bind def
/h { closepath } bind def
/re { exch dup neg 3 1 roll 5 3 roll moveto 0 rlineto
      0 exch rlineto 0 rlineto closepath } bind def
/S { stroke } bind def
/f { fill } bind def
/f* { eofill } bind def
/n { newpath } bind def
/W { clip } bind def
/W* { eoclip } bind def
/BT { } bind def
/ET { } bind def
/pdfmark where { pop globaldict /?pdfmark /exec load put }
    { globaldict begin /?pdfmark /pop load def /pdfmark
    /cleartomark load def end } ifelse
/BDC { mark 3 1 roll /BDC pdfmark } bind def
/EMC { mark /EMC pdfmark } bind def
/cairo_store_point { /cairo_point_y exch def /cairo_point_x exch def } def
/Tj { show currentpoint cairo_store_point } bind def
/TJ {
  {
    dup
    type /stringtype eq
    { show } { -0.001 mul 0 cairo_font_matrix dtransform rmoveto } ifelse
  } forall
  currentpoint cairo_store_point
} bind def
/cairo_selectfont { cairo_font_matrix aload pop pop pop 0 0 6 array astore
    cairo_font exch selectfont cairo_point_x cairo_point_y moveto } bind def
/Tf { pop /cairo_font exch def /cairo_font_matrix where
      { pop cairo_selectfont } if } bind def
/Td { matrix translate cairo_font_matrix matrix concatmatrix dup
      /cairo_font_matrix exch def dup 4 get exch 5 get cairo_store_point
      /cairo_font where { pop cairo_selectfont } if } bind def
/Tm { 2 copy 8 2 roll 6 array astore /cairo_font_matrix exch def
      cairo_store_point /cairo_font where { pop cairo_selectfont } if } bind def
/g { setgray } bind def
/rg { setrgbcolor } bind def
/d1 { setcachedevice } bind def
%%EndProlog
%%Page: 1 1
%%BeginPageSetup
%%PageBoundingBox: 0 -1 60 75
%%EndPageSetup
q 0 -1 60 76 rectclip q
0 74.8 60 -75 re W n
0 g
59.055 34.671 m 59.055 50.741 48.504 64.03 34.934 65.905 c 34.934 70.73 
l 34.934 72.98 33.113 74.8 30.867 74.8 c 25.984 74.8 l 23.734 74.8 
21.914 72.98 21.914 70.73 c 21.914 48.648 l 21.914 46.398 23.734 44.577 
25.984 44.577 c 30.867 44.577 l 33.113 44.577 34.934 46.398 34.934 
48.648 c 34.934 55.995 l 43.098 54.089 49.289 45.253 49.289 34.671 c 
49.289 24.476 43.539 15.905 35.82 13.589 c 34.215 13.034 l 35.328 
15.382 36.234 18.558 36.234 21.327 c 36.234 31.335 28.121 39.445 18.117 
39.445 c 8.113 39.445 0 31.335 0 21.327 c 0 13.968 4.395 7.636 10.699 
4.804 c 10.699 -0.001 l 56.09 -0.001 l 56.09 13.585 l 51.969 13.585 l 
56.371 19.171 59.055 26.57 59.055 34.671 c h
17.898 7.823 m 10.328 7.823 4.191 13.96 4.191 21.53 c 4.191 29.101 
10.328 35.238 17.898 35.238 c 25.473 35.238 31.609 29.101 31.609 21.53 
c 31.609 13.96 25.473 7.823 17.898 7.823 c h
17.898 7.823 m f
15.043 24.624 m 15.043 22.902 13.645 21.507 11.922 21.507 c 10.199 
21.507 8.805 22.902 8.805 24.624 c 8.805 26.347 10.199 27.745 11.922 
27.745 c 13.645 27.745 15.043 26.347 15.043 24.624 c h
15.043 24.624 m f
25.941 25.921 m 25.941 24.179 24.527 22.769 22.789 22.769 c 21.047 
22.769 19.637 24.179 19.637 25.921 c 19.637 27.659 21.047 29.07 22.789 
29.07 c 24.527 29.07 25.941 27.659 25.941 25.921 c h
25.941 25.921 m f
22.988 15.843 m 22.988 13.886 21.402 12.3 19.445 12.3 c 17.488 12.3 
15.902 13.886 15.902 15.843 c 15.902 17.796 17.488 19.386 19.445 19.386 
c 21.402 19.386 22.988 17.796 22.988 15.843 c h
22.988 15.843 m f
Q Q
showpage
%%Trailer
count op_count sub {pop} repeat
countdictstack dict_count sub {end} repeat
cairo_eps_state restore
%%EOF
