%!PS-Adobe-3.0 EPSF-3.0
%%Creator: cairo 1.10.2 (http://cairographics.org)
%%CreationDate: Fri Jul  4 09:59:39 2014
%%Pages: 1
%%BoundingBox: 0 -1 75 62
%%DocumentData: Clean7Bit
%%LanguageLevel: 2
%%EndComments
%%BeginProlog
/cairo_eps_state save def
/dict_count countdictstack def
/op_count count 1 sub def
userdict begin
/q { gsave } bind def
/Q { grestore } bind def
/cm { 6 array astore concat } bind def
/w { setlinewidth } bind def
/J { setlinecap } bind def
/j { setlinejoin } bind def
/M { setmiterlimit } bind def
/d { setdash } bind def
/m { moveto } bind def
/l { lineto } bind def
/c { curveto } bind def
/h { closepath } bind def
/re { exch dup neg 3 1 roll 5 3 roll moveto 0 rlineto
      0 exch rlineto 0 rlineto closepath } bind def
/S { stroke } bind def
/f { fill } bind def
/f* { eofill } bind def
/n { newpath } bind def
/W { clip } bind def
/W* { eoclip } bind def
/BT { } bind def
/ET { } bind def
/pdfmark where { pop globaldict /?pdfmark /exec load put }
    { globaldict begin /?pdfmark /pop load def /pdfmark
    /cleartomark load def end } ifelse
/BDC { mark 3 1 roll /BDC pdfmark } bind def
/EMC { mark /EMC pdfmark } bind def
/cairo_store_point { /cairo_point_y exch def /cairo_point_x exch def } def
/Tj { show currentpoint cairo_store_point } bind def
/TJ {
  {
    dup
    type /stringtype eq
    { show } { -0.001 mul 0 cairo_font_matrix dtransform rmoveto } ifelse
  } forall
  currentpoint cairo_store_point
} bind def
/cairo_selectfont { cairo_font_matrix aload pop pop pop 0 0 6 array astore
    cairo_font exch selectfont cairo_point_x cairo_point_y moveto } bind def
/Tf { pop /cairo_font exch def /cairo_font_matrix where
      { pop cairo_selectfont } if } bind def
/Td { matrix translate cairo_font_matrix matrix concatmatrix dup
      /cairo_font_matrix exch def dup 4 get exch 5 get cairo_store_point
      /cairo_font where { pop cairo_selectfont } if } bind def
/Tm { 2 copy 8 2 roll 6 array astore /cairo_font_matrix exch def
      cairo_store_point /cairo_font where { pop cairo_selectfont } if } bind def
/g { setgray } bind def
/rg { setrgbcolor } bind def
/d1 { setcachedevice } bind def
%%EndProlog
%%Page: 1 1
%%BeginPageSetup
%%PageBoundingBox: 0 -1 75 62
%%EndPageSetup
q 0 -1 75 63 rectclip q
0 61.553 75 -62 re W n
0 g
62.016 53.455 m 62.016 54.295 l 55.258 54.295 l 55.258 53.455 l 50.59 
53.455 l 50.59 57.818 l 50.59 59.877 48.914 61.553 46.855 61.553 c 
27.652 61.553 l 25.594 61.553 23.914 59.877 23.914 57.818 c 23.914 
53.455 l 19.113 53.455 l 19.113 54.295 l 12.355 54.295 l 12.355 53.455 
l 0 53.455 l 0 2.065 l 2.133 2.065 l 2.133 -0.002 l 13.246 -0.002 l 
13.246 2.065 l 61.137 2.065 l 61.137 -0.002 l 72.25 -0.002 l 72.25 
2.065 l 74.508 2.065 l 74.508 53.455 l h
27.117 57.818 m 27.117 58.111 27.355 58.354 27.652 58.354 c 46.855 
58.354 l 47.148 58.354 47.391 58.111 47.391 57.818 c 47.391 53.455 l 
27.117 53.455 l h
46.898 13.635 m 48.746 13.635 50.52 13.951 52.172 14.525 c 49.07 12.264 
45.25 10.924 41.121 10.924 c 30.746 10.924 22.336 19.334 22.336 29.709 
c 22.336 40.084 30.746 48.494 41.121 48.494 c 45.25 48.494 49.07 47.158 
52.172 44.893 c 50.52 45.467 48.746 45.783 46.898 45.783 c 38.02 45.783 
30.824 38.584 30.824 29.709 c 30.824 20.834 38.02 13.635 46.898 13.635 
c h
46.898 13.635 m f
Q Q
showpage
%%Trailer
count op_count sub {pop} repeat
countdictstack dict_count sub {end} repeat
cairo_eps_state restore
%%EOF
