%!PS-Adobe-3.0 EPSF-3.0
%%Creator: cairo 1.10.2 (http://cairographics.org)
%%CreationDate: Fri Jul  4 08:48:57 2014
%%Pages: 1
%%BoundingBox: 0 -1 75 75
%%DocumentData: Clean7Bit
%%LanguageLevel: 2
%%EndComments
%%BeginProlog
/cairo_eps_state save def
/dict_count countdictstack def
/op_count count 1 sub def
userdict begin
/q { gsave } bind def
/Q { grestore } bind def
/cm { 6 array astore concat } bind def
/w { setlinewidth } bind def
/J { setlinecap } bind def
/j { setlinejoin } bind def
/M { setmiterlimit } bind def
/d { setdash } bind def
/m { moveto } bind def
/l { lineto } bind def
/c { curveto } bind def
/h { closepath } bind def
/re { exch dup neg 3 1 roll 5 3 roll moveto 0 rlineto
      0 exch rlineto 0 rlineto closepath } bind def
/S { stroke } bind def
/f { fill } bind def
/f* { eofill } bind def
/n { newpath } bind def
/W { clip } bind def
/W* { eoclip } bind def
/BT { } bind def
/ET { } bind def
/pdfmark where { pop globaldict /?pdfmark /exec load put }
    { globaldict begin /?pdfmark /pop load def /pdfmark
    /cleartomark load def end } ifelse
/BDC { mark 3 1 roll /BDC pdfmark } bind def
/EMC { mark /EMC pdfmark } bind def
/cairo_store_point { /cairo_point_y exch def /cairo_point_x exch def } def
/Tj { show currentpoint cairo_store_point } bind def
/TJ {
  {
    dup
    type /stringtype eq
    { show } { -0.001 mul 0 cairo_font_matrix dtransform rmoveto } ifelse
  } forall
  currentpoint cairo_store_point
} bind def
/cairo_selectfont { cairo_font_matrix aload pop pop pop 0 0 6 array astore
    cairo_font exch selectfont cairo_point_x cairo_point_y moveto } bind def
/Tf { pop /cairo_font exch def /cairo_font_matrix where
      { pop cairo_selectfont } if } bind def
/Td { matrix translate cairo_font_matrix matrix concatmatrix dup
      /cairo_font_matrix exch def dup 4 get exch 5 get cairo_store_point
      /cairo_font where { pop cairo_selectfont } if } bind def
/Tm { 2 copy 8 2 roll 6 array astore /cairo_font_matrix exch def
      cairo_store_point /cairo_font where { pop cairo_selectfont } if } bind def
/g { setgray } bind def
/rg { setrgbcolor } bind def
/d1 { setcachedevice } bind def
%%EndProlog
%%Page: 1 1
%%BeginPageSetup
%%PageBoundingBox: 0 -1 75 75
%%EndPageSetup
q 0 -1 75 76 rectclip q
0 74.713 75 -75 re W n
0 g
61.277 21.935 m 60.461 23.299 59.234 24.256 57.859 24.791 c 48.535 
29.014 l 44.719 32.475 l 37.141 25.56 l 29.738 32.537 l 25.418 28.892 l 
16.422 24.752 l 15.094 24.205 13.91 23.264 13.117 21.932 c 0 0.002 l 
33.48 0.002 l 37.094 17.9 l 40.801 0.002 l 74.395 0.002 l h
58.539 8.924 m 55.156 8.924 l 55.156 5.541 l 51.191 5.541 l 51.191 
8.924 l 47.809 8.924 l 47.809 12.885 l 51.191 12.885 l 51.191 16.267 l 
55.156 16.267 l 55.156 12.885 l 58.539 12.885 l h
58.539 8.924 m f
27.047 35.377 m 29.805 32.975 33.27 31.713 37.305 31.787 c 41.055 
31.857 44.336 33.033 47.012 35.369 c 53.41 31.041 67.148 28.537 61.16 
32.537 c 53.543 37.627 54.508 54.451 54.508 54.451 c 54.496 54.439 l 
54.523 55.068 54.551 55.697 54.551 56.35 c 54.551 56.611 54.527 56.857 
54.52 57.111 c 19.77 57.111 l 19.754 56.725 19.734 56.342 19.738 55.939 
c 19.742 55.42 19.773 54.928 19.797 54.428 c 19.777 54.451 l 19.777 
54.451 20.742 37.627 13.125 32.537 c 7.207 28.584 20.555 31.139 27.047 
35.377 c h
27.047 35.377 m f
19.891 61.076 m 54.504 61.076 l 54.504 67.771 l 54.504 73.435 58.562 
74.713 51.59 74.713 c 22.805 74.713 l 15.832 74.713 19.891 73.435 
19.891 67.771 c h
19.891 61.076 m f
Q Q
showpage
%%Trailer
count op_count sub {pop} repeat
countdictstack dict_count sub {end} repeat
cairo_eps_state restore
%%EOF
