%!PS-Adobe-3.0 EPSF-3.0
%%Creator: cairo 1.10.2 (http://cairographics.org)
%%CreationDate: Fri Jul  4 08:48:22 2014
%%Pages: 1
%%BoundingBox: 0 -1 36 75
%%DocumentData: Clean7Bit
%%LanguageLevel: 2
%%EndComments
%%BeginProlog
/cairo_eps_state save def
/dict_count countdictstack def
/op_count count 1 sub def
userdict begin
/q { gsave } bind def
/Q { grestore } bind def
/cm { 6 array astore concat } bind def
/w { setlinewidth } bind def
/J { setlinecap } bind def
/j { setlinejoin } bind def
/M { setmiterlimit } bind def
/d { setdash } bind def
/m { moveto } bind def
/l { lineto } bind def
/c { curveto } bind def
/h { closepath } bind def
/re { exch dup neg 3 1 roll 5 3 roll moveto 0 rlineto
      0 exch rlineto 0 rlineto closepath } bind def
/S { stroke } bind def
/f { fill } bind def
/f* { eofill } bind def
/n { newpath } bind def
/W { clip } bind def
/W* { eoclip } bind def
/BT { } bind def
/ET { } bind def
/pdfmark where { pop globaldict /?pdfmark /exec load put }
    { globaldict begin /?pdfmark /pop load def /pdfmark
    /cleartomark load def end } ifelse
/BDC { mark 3 1 roll /BDC pdfmark } bind def
/EMC { mark /EMC pdfmark } bind def
/cairo_store_point { /cairo_point_y exch def /cairo_point_x exch def } def
/Tj { show currentpoint cairo_store_point } bind def
/TJ {
  {
    dup
    type /stringtype eq
    { show } { -0.001 mul 0 cairo_font_matrix dtransform rmoveto } ifelse
  } forall
  currentpoint cairo_store_point
} bind def
/cairo_selectfont { cairo_font_matrix aload pop pop pop 0 0 6 array astore
    cairo_font exch selectfont cairo_point_x cairo_point_y moveto } bind def
/Tf { pop /cairo_font exch def /cairo_font_matrix where
      { pop cairo_selectfont } if } bind def
/Td { matrix translate cairo_font_matrix matrix concatmatrix dup
      /cairo_font_matrix exch def dup 4 get exch 5 get cairo_store_point
      /cairo_font where { pop cairo_selectfont } if } bind def
/Tm { 2 copy 8 2 roll 6 array astore /cairo_font_matrix exch def
      cairo_store_point /cairo_font where { pop cairo_selectfont } if } bind def
/g { setgray } bind def
/rg { setrgbcolor } bind def
/d1 { setcachedevice } bind def
%%EndProlog
%%Page: 1 1
%%BeginPageSetup
%%PageBoundingBox: 0 -1 36 75
%%EndPageSetup
q 0 -1 36 76 rectclip q
0 74.438 36 -75 re W n
0 g
24.672 59.188 m 24.672 66.47 l 24.672 66.95 24.621 67.419 24.527 67.868 
c 26.016 67.868 l 26.016 70.501 l 32.512 70.501 l 32.512 73.356 l 
26.016 73.356 l 26.016 74.438 l 9.676 74.438 l 9.676 67.868 l 11.168 
67.868 l 11.074 67.419 11.023 66.95 11.023 66.47 c 11.023 66.302 l 
7.742 66.302 l 7.742 66.63 l 7.742 67.97 6.656 69.059 5.312 69.059 c 
3.973 69.059 2.887 67.97 2.887 66.63 c 2.887 60.595 l 2.887 59.255 
3.973 58.165 5.312 58.165 c 6.656 58.165 7.742 59.255 7.742 60.595 c 
7.742 60.923 l 11.023 60.923 l 11.023 59.188 l 4.633 57.181 0 48.067 0 
41.013 c 0 3.938 l 0 1.763 1.762 0.001 3.938 0.001 c 31.758 0.001 l 
33.93 0.001 35.691 1.763 35.691 3.938 c 35.691 41.013 l 35.691 48.067 
31.059 57.181 24.672 59.188 c h
13.648 24.856 m 9.195 24.856 6.09 28.298 6.09 33.224 c 6.09 38.294 
9.281 41.837 13.855 41.837 c 18.305 41.837 21.414 38.407 21.414 33.493 
c 21.414 27.528 17.512 24.856 13.648 24.856 c h
29.605 20.395 m 21.414 20.395 l 21.414 22.962 l 22.738 24.247 l 24.684 
26.099 25.605 27.118 25.613 27.927 c 25.613 28.294 25.57 28.333 25.164 
28.333 c 24.727 28.333 24.328 28.056 24.129 27.888 c 22.824 26.802 l 
21.34 30.079 l 22.09 30.708 l 23.004 31.481 24.184 31.907 25.406 31.907 
c 28.141 31.907 29.387 29.915 29.387 28.063 c 29.387 26.505 28.629 
25.243 27.488 23.97 c 29.602 23.97 l 29.602 20.395 l h
29.605 20.395 m f
13.773 37.782 m 11.43 37.782 10.598 35.349 10.598 33.267 c 10.598 
31.165 11.586 28.911 13.75 28.911 c 15.945 28.911 16.926 31.169 16.926 
33.407 c 16.926 34.919 16.266 37.782 13.773 37.782 c h
13.773 37.782 m f
Q Q
showpage
%%Trailer
count op_count sub {pop} repeat
countdictstack dict_count sub {end} repeat
cairo_eps_state restore
%%EOF
