%!PS-Adobe-3.0 EPSF-3.0
%%Creator: cairo 1.10.2 (http://cairographics.org)
%%CreationDate: Fri Jul  4 08:48:02 2014
%%Pages: 1
%%BoundingBox: 0 -1 59 75
%%DocumentData: Clean7Bit
%%LanguageLevel: 2
%%EndComments
%%BeginProlog
/cairo_eps_state save def
/dict_count countdictstack def
/op_count count 1 sub def
userdict begin
/q { gsave } bind def
/Q { grestore } bind def
/cm { 6 array astore concat } bind def
/w { setlinewidth } bind def
/J { setlinecap } bind def
/j { setlinejoin } bind def
/M { setmiterlimit } bind def
/d { setdash } bind def
/m { moveto } bind def
/l { lineto } bind def
/c { curveto } bind def
/h { closepath } bind def
/re { exch dup neg 3 1 roll 5 3 roll moveto 0 rlineto
      0 exch rlineto 0 rlineto closepath } bind def
/S { stroke } bind def
/f { fill } bind def
/f* { eofill } bind def
/n { newpath } bind def
/W { clip } bind def
/W* { eoclip } bind def
/BT { } bind def
/ET { } bind def
/pdfmark where { pop globaldict /?pdfmark /exec load put }
    { globaldict begin /?pdfmark /pop load def /pdfmark
    /cleartomark load def end } ifelse
/BDC { mark 3 1 roll /BDC pdfmark } bind def
/EMC { mark /EMC pdfmark } bind def
/cairo_store_point { /cairo_point_y exch def /cairo_point_x exch def } def
/Tj { show currentpoint cairo_store_point } bind def
/TJ {
  {
    dup
    type /stringtype eq
    { show } { -0.001 mul 0 cairo_font_matrix dtransform rmoveto } ifelse
  } forall
  currentpoint cairo_store_point
} bind def
/cairo_selectfont { cairo_font_matrix aload pop pop pop 0 0 6 array astore
    cairo_font exch selectfont cairo_point_x cairo_point_y moveto } bind def
/Tf { pop /cairo_font exch def /cairo_font_matrix where
      { pop cairo_selectfont } if } bind def
/Td { matrix translate cairo_font_matrix matrix concatmatrix dup
      /cairo_font_matrix exch def dup 4 get exch 5 get cairo_store_point
      /cairo_font where { pop cairo_selectfont } if } bind def
/Tm { 2 copy 8 2 roll 6 array astore /cairo_font_matrix exch def
      cairo_store_point /cairo_font where { pop cairo_selectfont } if } bind def
/g { setgray } bind def
/rg { setrgbcolor } bind def
/d1 { setcachedevice } bind def
%%EndProlog
%%Page: 1 1
%%BeginPageSetup
%%PageBoundingBox: 0 -1 59 75
%%EndPageSetup
q 0 -1 59 76 rectclip q
0 74.669 59 -75 re W n
0 g
58.008 16.712 m 58.008 17.098 57.969 17.477 57.91 17.852 c 58.473 
18.759 58.531 19.938 57.957 20.931 c 57.387 21.919 56.34 22.462 55.273 
22.431 c 54.684 22.911 54.016 23.294 53.293 23.571 c 52.785 24.513 
51.793 25.149 50.652 25.149 c 49.508 25.149 48.516 24.513 48.008 23.571 
c 47.285 23.294 46.617 22.911 46.027 22.431 c 45.766 22.438 45.504 
22.411 45.254 22.348 c 39.695 29.192 42.012 42.173 41.668 50.196 c 
41.453 55.329 40.566 61.02 36.543 64.63 c 31.953 68.747 25.086 68.325 
19.266 67.263 c 17.18 67.263 l 17.18 69.161 l 23.719 69.161 l 23.719 
72.333 l 17.203 72.333 l 17.203 74.669 l 14.168 74.669 l 14.168 72.333 
l 7.656 72.333 l 7.656 69.161 l 14.168 69.161 l 14.168 67.263 l 11.953 
67.263 l 11.953 61.036 l 5.102 59.352 0 53.177 0 45.817 c 0 1.493 l 0 
0.669 0.668 0.001 1.492 0.001 c 29.879 0.001 l 30.707 0.001 31.375 
0.669 31.375 1.493 c 31.375 45.817 l 31.375 53.177 26.27 59.352 19.422 
61.036 c 19.422 63.501 l 25.105 64.606 32.445 65.255 35.805 59.692 c 
38.602 55.063 38.055 48.556 37.996 43.388 c 37.898 35.235 37.672 25.376 
42.941 19.388 c 42.949 18.845 43.105 18.313 43.391 17.848 c 43.332 
17.477 43.293 17.098 43.293 16.712 c 43.293 16.321 43.332 15.942 43.391 
15.571 c 42.828 14.661 42.77 13.481 43.344 12.493 c 43.914 11.505 
44.961 10.962 46.027 10.993 c 46.617 10.513 47.285 10.13 48.008 9.848 c 
48.516 8.911 49.508 8.27 50.652 8.27 c 51.793 8.27 52.785 8.911 53.293 
9.848 c 54.016 10.13 54.684 10.513 55.273 10.993 c 56.34 10.962 57.391 
11.505 57.957 12.493 c 58.531 13.481 58.473 14.661 57.91 15.571 c 
57.969 15.946 58.008 16.325 58.008 16.712 c h
50.652 13.993 m 49.148 13.993 47.93 15.208 47.93 16.712 c 47.93 18.212 
49.148 19.431 50.652 19.431 c 52.152 19.431 53.371 18.212 53.371 16.712 
c 53.371 15.208 52.152 13.993 50.652 13.993 c h
50.652 13.993 m f
Q Q
showpage
%%Trailer
count op_count sub {pop} repeat
countdictstack dict_count sub {end} repeat
cairo_eps_state restore
%%EOF
