%!PS-Adobe-3.0 EPSF-3.0
%%Creator: cairo 1.10.2 (http://cairographics.org)
%%CreationDate: Fri Jul  4 08:47:45 2014
%%Pages: 1
%%BoundingBox: 0 -1 56 75
%%DocumentData: Clean7Bit
%%LanguageLevel: 2
%%EndComments
%%BeginProlog
/cairo_eps_state save def
/dict_count countdictstack def
/op_count count 1 sub def
userdict begin
/q { gsave } bind def
/Q { grestore } bind def
/cm { 6 array astore concat } bind def
/w { setlinewidth } bind def
/J { setlinecap } bind def
/j { setlinejoin } bind def
/M { setmiterlimit } bind def
/d { setdash } bind def
/m { moveto } bind def
/l { lineto } bind def
/c { curveto } bind def
/h { closepath } bind def
/re { exch dup neg 3 1 roll 5 3 roll moveto 0 rlineto
      0 exch rlineto 0 rlineto closepath } bind def
/S { stroke } bind def
/f { fill } bind def
/f* { eofill } bind def
/n { newpath } bind def
/W { clip } bind def
/W* { eoclip } bind def
/BT { } bind def
/ET { } bind def
/pdfmark where { pop globaldict /?pdfmark /exec load put }
    { globaldict begin /?pdfmark /pop load def /pdfmark
    /cleartomark load def end } ifelse
/BDC { mark 3 1 roll /BDC pdfmark } bind def
/EMC { mark /EMC pdfmark } bind def
/cairo_store_point { /cairo_point_y exch def /cairo_point_x exch def } def
/Tj { show currentpoint cairo_store_point } bind def
/TJ {
  {
    dup
    type /stringtype eq
    { show } { -0.001 mul 0 cairo_font_matrix dtransform rmoveto } ifelse
  } forall
  currentpoint cairo_store_point
} bind def
/cairo_selectfont { cairo_font_matrix aload pop pop pop 0 0 6 array astore
    cairo_font exch selectfont cairo_point_x cairo_point_y moveto } bind def
/Tf { pop /cairo_font exch def /cairo_font_matrix where
      { pop cairo_selectfont } if } bind def
/Td { matrix translate cairo_font_matrix matrix concatmatrix dup
      /cairo_font_matrix exch def dup 4 get exch 5 get cairo_store_point
      /cairo_font where { pop cairo_selectfont } if } bind def
/Tm { 2 copy 8 2 roll 6 array astore /cairo_font_matrix exch def
      cairo_store_point /cairo_font where { pop cairo_selectfont } if } bind def
/g { setgray } bind def
/rg { setrgbcolor } bind def
/d1 { setcachedevice } bind def
%%EndProlog
%%Page: 1 1
%%BeginPageSetup
%%PageBoundingBox: 0 -1 56 75
%%EndPageSetup
q 0 -1 56 76 rectclip q
0 74.022 56 -75 re W n
0 g
36.418 65.175 m 36.418 60.284 32.453 56.323 27.566 56.323 c 22.68 
56.323 18.719 60.284 18.719 65.175 c 18.719 70.061 22.68 74.022 27.566 
74.022 c 32.453 74.022 36.418 70.061 36.418 65.175 c h
36.418 65.175 m f
32.98 22.175 m 32.98 53.823 l 22.152 53.823 l 22.152 51.733 l 11.43 
51.733 l 11.43 43.405 l 22.152 43.405 l 22.152 32.999 l 12.934 32.999 l 
0 20.065 l 7.656 12.413 l 17.418 22.175 l h
32.98 22.175 m f
36.73 44.124 m 36.73 39.026 l 44.578 37.28 50.207 30.323 50.207 22.226 
c 50.207 12.726 42.48 4.999 32.98 4.999 c 25.758 4.999 19.301 9.573 
16.832 16.284 c 13.023 12.476 l 16.746 4.878 24.52 -0.001 32.98 -0.001 
c 45.234 -0.001 55.203 9.968 55.203 22.222 c 55.203 33.065 47.328 
42.319 36.73 44.124 c h
36.73 44.124 m f
Q Q
showpage
%%Trailer
count op_count sub {pop} repeat
countdictstack dict_count sub {end} repeat
cairo_eps_state restore
%%EOF
