%!PS-Adobe-3.0 EPSF-3.0
%%Creator: cairo 1.10.2 (http://cairographics.org)
%%CreationDate: Fri Jul  4 08:49:18 2014
%%Pages: 1
%%BoundingBox: 0 -1 74 52
%%DocumentData: Clean7Bit
%%LanguageLevel: 2
%%EndComments
%%BeginProlog
/cairo_eps_state save def
/dict_count countdictstack def
/op_count count 1 sub def
userdict begin
/q { gsave } bind def
/Q { grestore } bind def
/cm { 6 array astore concat } bind def
/w { setlinewidth } bind def
/J { setlinecap } bind def
/j { setlinejoin } bind def
/M { setmiterlimit } bind def
/d { setdash } bind def
/m { moveto } bind def
/l { lineto } bind def
/c { curveto } bind def
/h { closepath } bind def
/re { exch dup neg 3 1 roll 5 3 roll moveto 0 rlineto
      0 exch rlineto 0 rlineto closepath } bind def
/S { stroke } bind def
/f { fill } bind def
/f* { eofill } bind def
/n { newpath } bind def
/W { clip } bind def
/W* { eoclip } bind def
/BT { } bind def
/ET { } bind def
/pdfmark where { pop globaldict /?pdfmark /exec load put }
    { globaldict begin /?pdfmark /pop load def /pdfmark
    /cleartomark load def end } ifelse
/BDC { mark 3 1 roll /BDC pdfmark } bind def
/EMC { mark /EMC pdfmark } bind def
/cairo_store_point { /cairo_point_y exch def /cairo_point_x exch def } def
/Tj { show currentpoint cairo_store_point } bind def
/TJ {
  {
    dup
    type /stringtype eq
    { show } { -0.001 mul 0 cairo_font_matrix dtransform rmoveto } ifelse
  } forall
  currentpoint cairo_store_point
} bind def
/cairo_selectfont { cairo_font_matrix aload pop pop pop 0 0 6 array astore
    cairo_font exch selectfont cairo_point_x cairo_point_y moveto } bind def
/Tf { pop /cairo_font exch def /cairo_font_matrix where
      { pop cairo_selectfont } if } bind def
/Td { matrix translate cairo_font_matrix matrix concatmatrix dup
      /cairo_font_matrix exch def dup 4 get exch 5 get cairo_store_point
      /cairo_font where { pop cairo_selectfont } if } bind def
/Tm { 2 copy 8 2 roll 6 array astore /cairo_font_matrix exch def
      cairo_store_point /cairo_font where { pop cairo_selectfont } if } bind def
/g { setgray } bind def
/rg { setrgbcolor } bind def
/d1 { setcachedevice } bind def
%%EndProlog
%%Page: 1 1
%%BeginPageSetup
%%PageBoundingBox: 0 -1 74 52
%%EndPageSetup
q 0 -1 74 53 rectclip q
0 51.466 74 -52 re W n
0 g
65.438 25.731 m 65.438 17.145 l 8.562 17.145 l 8.562 51.466 l 0 51.466 
l 0 0.001 l 8.562 0.001 l 8.562 8.583 l 65.438 8.583 l 65.438 0.001 l 
74 0.001 l 74 25.731 l h
65.438 25.731 m f
14.332 21.04 m 20.719 21.04 l 22.715 21.04 24.336 22.661 24.336 24.661 
c 24.336 26.657 22.715 28.278 20.719 28.278 c 14.332 28.278 l 12.336 
28.278 10.715 26.657 10.715 24.661 c 10.715 22.661 12.336 21.04 14.332 
21.04 c h
14.332 21.04 m f
26.984 36.063 m 26.984 32.833 24.367 30.216 21.137 30.216 c 17.906 
30.216 15.289 32.833 15.289 36.063 c 15.289 39.294 17.906 41.911 21.137 
41.911 c 24.367 41.911 26.984 39.294 26.984 36.063 c h
26.984 36.063 m f
30.883 21.04 m 58.633 21.04 l 60.789 21.04 62.535 22.786 62.535 24.938 
c 62.535 27.095 61.035 28.45 58.633 28.837 c 30.883 34.688 l 28.664 
34.946 26.984 27.095 26.984 24.938 c 26.984 22.786 28.73 21.04 30.883 
21.04 c h
30.883 21.04 m f
Q Q
showpage
%%Trailer
count op_count sub {pop} repeat
countdictstack dict_count sub {end} repeat
cairo_eps_state restore
%%EOF
