%!PS-Adobe-3.0 EPSF-3.0
%%Creator: cairo 1.10.2 (http://cairographics.org)
%%CreationDate: Fri Jul  4 08:49:26 2014
%%Pages: 1
%%BoundingBox: 0 -1 64 75
%%DocumentData: Clean7Bit
%%LanguageLevel: 2
%%EndComments
%%BeginProlog
/cairo_eps_state save def
/dict_count countdictstack def
/op_count count 1 sub def
userdict begin
/q { gsave } bind def
/Q { grestore } bind def
/cm { 6 array astore concat } bind def
/w { setlinewidth } bind def
/J { setlinecap } bind def
/j { setlinejoin } bind def
/M { setmiterlimit } bind def
/d { setdash } bind def
/m { moveto } bind def
/l { lineto } bind def
/c { curveto } bind def
/h { closepath } bind def
/re { exch dup neg 3 1 roll 5 3 roll moveto 0 rlineto
      0 exch rlineto 0 rlineto closepath } bind def
/S { stroke } bind def
/f { fill } bind def
/f* { eofill } bind def
/n { newpath } bind def
/W { clip } bind def
/W* { eoclip } bind def
/BT { } bind def
/ET { } bind def
/pdfmark where { pop globaldict /?pdfmark /exec load put }
    { globaldict begin /?pdfmark /pop load def /pdfmark
    /cleartomark load def end } ifelse
/BDC { mark 3 1 roll /BDC pdfmark } bind def
/EMC { mark /EMC pdfmark } bind def
/cairo_store_point { /cairo_point_y exch def /cairo_point_x exch def } def
/Tj { show currentpoint cairo_store_point } bind def
/TJ {
  {
    dup
    type /stringtype eq
    { show } { -0.001 mul 0 cairo_font_matrix dtransform rmoveto } ifelse
  } forall
  currentpoint cairo_store_point
} bind def
/cairo_selectfont { cairo_font_matrix aload pop pop pop 0 0 6 array astore
    cairo_font exch selectfont cairo_point_x cairo_point_y moveto } bind def
/Tf { pop /cairo_font exch def /cairo_font_matrix where
      { pop cairo_selectfont } if } bind def
/Td { matrix translate cairo_font_matrix matrix concatmatrix dup
      /cairo_font_matrix exch def dup 4 get exch 5 get cairo_store_point
      /cairo_font where { pop cairo_selectfont } if } bind def
/Tm { 2 copy 8 2 roll 6 array astore /cairo_font_matrix exch def
      cairo_store_point /cairo_font where { pop cairo_selectfont } if } bind def
/g { setgray } bind def
/rg { setrgbcolor } bind def
/d1 { setcachedevice } bind def
%%EndProlog
%%Page: 1 1
%%BeginPageSetup
%%PageBoundingBox: 0 -1 64 75
%%EndPageSetup
q 0 -1 64 76 rectclip q
0 74.846 64 -75 re W n
0 g
49.848 13.842 m 44.523 13.26 40.594 9.166 35.008 10.236 c 31.316 10.943 
30.938 14.096 31.082 17.264 c 31.945 17.264 l 31.945 19.869 l 34.824 
19.869 l 34.824 69.775 l 25.297 69.775 l 25.074 72.639 21.699 74.846 
17.414 74.846 c 13.129 74.846 9.75 72.639 9.531 69.775 c 0 69.775 l 0 
19.869 l 25.777 19.869 l 25.777 17.264 l 26.707 17.264 l 26.684 12.029 
27.645 7.568 33.809 5.892 c 38.242 4.689 41.855 6.146 45.836 7.939 c 
48.566 9.166 51.363 9.892 54.328 9.193 c 56.523 8.678 58.805 4.244 
58.91 2.174 c 59.055 -0.717 63.559 -0.733 63.41 2.174 c 63.039 9.627 
57.047 14.631 49.848 13.842 c h
17.414 71.514 m 19.84 71.514 21.543 70.557 21.906 69.775 c 12.918 
69.775 l 13.285 70.557 14.984 71.514 17.414 71.514 c h
4.523 44.822 m 4.523 65.252 l 30.301 65.252 l 30.301 61.822 l 23.723 
61.822 l 23.723 57.982 l 30.301 57.982 l 30.301 53.596 l 23.723 53.596 
l 23.723 49.756 l 30.301 49.756 l 30.301 44.822 l h
4.523 44.822 m f
Q Q
showpage
%%Trailer
count op_count sub {pop} repeat
countdictstack dict_count sub {end} repeat
cairo_eps_state restore
%%EOF
