%!PS-Adobe-3.0 EPSF-3.0
%%Creator: cairo 1.10.2 (http://cairographics.org)
%%CreationDate: Fri Jul  4 09:24:09 2014
%%Pages: 1
%%BoundingBox: 0 -1 76 40
%%DocumentData: Clean7Bit
%%LanguageLevel: 2
%%EndComments
%%BeginProlog
/cairo_eps_state save def
/dict_count countdictstack def
/op_count count 1 sub def
userdict begin
/q { gsave } bind def
/Q { grestore } bind def
/cm { 6 array astore concat } bind def
/w { setlinewidth } bind def
/J { setlinecap } bind def
/j { setlinejoin } bind def
/M { setmiterlimit } bind def
/d { setdash } bind def
/m { moveto } bind def
/l { lineto } bind def
/c { curveto } bind def
/h { closepath } bind def
/re { exch dup neg 3 1 roll 5 3 roll moveto 0 rlineto
      0 exch rlineto 0 rlineto closepath } bind def
/S { stroke } bind def
/f { fill } bind def
/f* { eofill } bind def
/n { newpath } bind def
/W { clip } bind def
/W* { eoclip } bind def
/BT { } bind def
/ET { } bind def
/pdfmark where { pop globaldict /?pdfmark /exec load put }
    { globaldict begin /?pdfmark /pop load def /pdfmark
    /cleartomark load def end } ifelse
/BDC { mark 3 1 roll /BDC pdfmark } bind def
/EMC { mark /EMC pdfmark } bind def
/cairo_store_point { /cairo_point_y exch def /cairo_point_x exch def } def
/Tj { show currentpoint cairo_store_point } bind def
/TJ {
  {
    dup
    type /stringtype eq
    { show } { -0.001 mul 0 cairo_font_matrix dtransform rmoveto } ifelse
  } forall
  currentpoint cairo_store_point
} bind def
/cairo_selectfont { cairo_font_matrix aload pop pop pop 0 0 6 array astore
    cairo_font exch selectfont cairo_point_x cairo_point_y moveto } bind def
/Tf { pop /cairo_font exch def /cairo_font_matrix where
      { pop cairo_selectfont } if } bind def
/Td { matrix translate cairo_font_matrix matrix concatmatrix dup
      /cairo_font_matrix exch def dup 4 get exch 5 get cairo_store_point
      /cairo_font where { pop cairo_selectfont } if } bind def
/Tm { 2 copy 8 2 roll 6 array astore /cairo_font_matrix exch def
      cairo_store_point /cairo_font where { pop cairo_selectfont } if } bind def
/g { setgray } bind def
/rg { setrgbcolor } bind def
/d1 { setcachedevice } bind def
%%EndProlog
%%Page: 1 1
%%BeginPageSetup
%%PageBoundingBox: 0 -1 76 40
%%EndPageSetup
q 0 -1 76 41 rectclip q
0 39.794 76 -40 re W n
0 g
74.191 21.673 m 73.535 22.411 57.812 39.794 37.887 39.794 c 17.965 
39.794 2.242 22.411 1.582 21.673 c 0 19.895 l 1.582 18.122 l 2.242 
17.383 17.965 0.001 37.887 0.001 c 57.812 0.001 73.535 17.383 74.191 
18.122 c 75.773 19.895 l h
37.887 5.376 m 23.961 5.376 11.82 15.673 7.426 19.895 c 11.82 24.122 
23.961 34.419 37.887 34.419 c 51.812 34.419 63.957 24.122 68.348 19.895 
c 63.953 15.673 51.812 5.376 37.887 5.376 c h
37.887 5.376 m f
23.961 19.895 m 23.961 12.309 30.195 6.161 37.887 6.161 c 45.578 6.161 
51.812 12.309 51.812 19.895 c 51.812 27.485 45.578 33.633 37.887 33.633 
c 30.195 33.633 23.961 27.485 23.961 19.895 c h
46.723 21.954 m 46.723 17.84 l 39.969 17.84 l 39.969 11.18 l 35.805 
11.18 l 35.805 17.84 l 29.055 17.84 l 29.055 21.954 l 35.805 21.954 l 
35.805 28.61 l 39.969 28.61 l 39.969 21.954 l h
46.723 21.954 m f
Q Q
showpage
%%Trailer
count op_count sub {pop} repeat
countdictstack dict_count sub {end} repeat
cairo_eps_state restore
%%EOF
