%!PS-Adobe-3.0 EPSF-3.0
%%Creator: cairo 1.10.2 (http://cairographics.org)
%%CreationDate: Fri Jul  4 08:48:07 2014
%%Pages: 1
%%BoundingBox: 0 -1 46 77
%%DocumentData: Clean7Bit
%%LanguageLevel: 2
%%EndComments
%%BeginProlog
/cairo_eps_state save def
/dict_count countdictstack def
/op_count count 1 sub def
userdict begin
/q { gsave } bind def
/Q { grestore } bind def
/cm { 6 array astore concat } bind def
/w { setlinewidth } bind def
/J { setlinecap } bind def
/j { setlinejoin } bind def
/M { setmiterlimit } bind def
/d { setdash } bind def
/m { moveto } bind def
/l { lineto } bind def
/c { curveto } bind def
/h { closepath } bind def
/re { exch dup neg 3 1 roll 5 3 roll moveto 0 rlineto
      0 exch rlineto 0 rlineto closepath } bind def
/S { stroke } bind def
/f { fill } bind def
/f* { eofill } bind def
/n { newpath } bind def
/W { clip } bind def
/W* { eoclip } bind def
/BT { } bind def
/ET { } bind def
/pdfmark where { pop globaldict /?pdfmark /exec load put }
    { globaldict begin /?pdfmark /pop load def /pdfmark
    /cleartomark load def end } ifelse
/BDC { mark 3 1 roll /BDC pdfmark } bind def
/EMC { mark /EMC pdfmark } bind def
/cairo_store_point { /cairo_point_y exch def /cairo_point_x exch def } def
/Tj { show currentpoint cairo_store_point } bind def
/TJ {
  {
    dup
    type /stringtype eq
    { show } { -0.001 mul 0 cairo_font_matrix dtransform rmoveto } ifelse
  } forall
  currentpoint cairo_store_point
} bind def
/cairo_selectfont { cairo_font_matrix aload pop pop pop 0 0 6 array astore
    cairo_font exch selectfont cairo_point_x cairo_point_y moveto } bind def
/Tf { pop /cairo_font exch def /cairo_font_matrix where
      { pop cairo_selectfont } if } bind def
/Td { matrix translate cairo_font_matrix matrix concatmatrix dup
      /cairo_font_matrix exch def dup 4 get exch 5 get cairo_store_point
      /cairo_font where { pop cairo_selectfont } if } bind def
/Tm { 2 copy 8 2 roll 6 array astore /cairo_font_matrix exch def
      cairo_store_point /cairo_font where { pop cairo_selectfont } if } bind def
/g { setgray } bind def
/rg { setrgbcolor } bind def
/d1 { setcachedevice } bind def
%%EndProlog
%%Page: 1 1
%%BeginPageSetup
%%PageBoundingBox: 0 -1 46 77
%%EndPageSetup
q 0 -1 46 78 rectclip q
0 76.012 46 -77 re W n
0 g
15.41 34.989 m 15.41 30.739 18.859 27.293 23.109 27.293 c 27.359 27.293 
30.805 30.739 30.805 34.989 c 30.805 39.242 23.109 49.024 23.109 49.024 
c 23.109 49.024 15.41 39.239 15.41 34.989 c h
15.41 34.989 m f
32.91 71.977 m 28.77 71.977 l 27.953 74.321 25.727 76.012 23.109 76.012 
c 20.488 76.012 18.262 74.321 17.445 71.977 c 13.086 71.977 l 5.859 
71.977 0 70.7 0 63.473 c 0 23.992 l 0 16.766 5.859 10.907 13.086 10.907 
c 15.41 10.907 l 15.41 0 l 20.82 0 l 20.82 10.907 l 25.398 10.907 l 
25.398 4.364 l 30.805 4.364 l 30.805 10.907 l 32.91 10.907 l 40.137 
10.907 45.996 16.766 45.996 23.992 c 45.996 63.473 l 45.996 70.7 40.137 
71.977 32.91 71.977 c h
23.109 73.395 m 24.238 73.395 25.234 72.832 25.848 71.977 c 20.367 
71.977 l 20.98 72.832 21.977 73.395 23.109 73.395 c h
37.828 23.914 m 8.168 23.914 l 8.168 58.969 l 37.828 58.969 l h
37.828 23.914 m f
11.875 55.512 22.465 -4.801 re f
Q Q
showpage
%%Trailer
count op_count sub {pop} repeat
countdictstack dict_count sub {end} repeat
cairo_eps_state restore
%%EOF
