%!PS-Adobe-3.0 EPSF-3.0
%%Creator: cairo 1.10.2 (http://cairographics.org)
%%CreationDate: Fri Jul  4 09:58:58 2014
%%Pages: 1
%%BoundingBox: 0 -1 75 75
%%DocumentData: Clean7Bit
%%LanguageLevel: 2
%%EndComments
%%BeginProlog
/cairo_eps_state save def
/dict_count countdictstack def
/op_count count 1 sub def
userdict begin
/q { gsave } bind def
/Q { grestore } bind def
/cm { 6 array astore concat } bind def
/w { setlinewidth } bind def
/J { setlinecap } bind def
/j { setlinejoin } bind def
/M { setmiterlimit } bind def
/d { setdash } bind def
/m { moveto } bind def
/l { lineto } bind def
/c { curveto } bind def
/h { closepath } bind def
/re { exch dup neg 3 1 roll 5 3 roll moveto 0 rlineto
      0 exch rlineto 0 rlineto closepath } bind def
/S { stroke } bind def
/f { fill } bind def
/f* { eofill } bind def
/n { newpath } bind def
/W { clip } bind def
/W* { eoclip } bind def
/BT { } bind def
/ET { } bind def
/pdfmark where { pop globaldict /?pdfmark /exec load put }
    { globaldict begin /?pdfmark /pop load def /pdfmark
    /cleartomark load def end } ifelse
/BDC { mark 3 1 roll /BDC pdfmark } bind def
/EMC { mark /EMC pdfmark } bind def
/cairo_store_point { /cairo_point_y exch def /cairo_point_x exch def } def
/Tj { show currentpoint cairo_store_point } bind def
/TJ {
  {
    dup
    type /stringtype eq
    { show } { -0.001 mul 0 cairo_font_matrix dtransform rmoveto } ifelse
  } forall
  currentpoint cairo_store_point
} bind def
/cairo_selectfont { cairo_font_matrix aload pop pop pop 0 0 6 array astore
    cairo_font exch selectfont cairo_point_x cairo_point_y moveto } bind def
/Tf { pop /cairo_font exch def /cairo_font_matrix where
      { pop cairo_selectfont } if } bind def
/Td { matrix translate cairo_font_matrix matrix concatmatrix dup
      /cairo_font_matrix exch def dup 4 get exch 5 get cairo_store_point
      /cairo_font where { pop cairo_selectfont } if } bind def
/Tm { 2 copy 8 2 roll 6 array astore /cairo_font_matrix exch def
      cairo_store_point /cairo_font where { pop cairo_selectfont } if } bind def
/g { setgray } bind def
/rg { setrgbcolor } bind def
/d1 { setcachedevice } bind def
%%EndProlog
%%Page: 1 1
%%BeginPageSetup
%%PageBoundingBox: 0 -1 75 75
%%EndPageSetup
q 0 -1 75 76 rectclip q
0 74.303 75 -75 re W n
0 g
71.09 42.065 m 66.793 46.382 59.789 46.401 55.473 42.108 c 54.938 
41.577 54.477 40.995 54.074 40.389 c 3.609 73.893 l 3.574 73.917 3.488 
73.964 3.488 73.964 c 3.488 73.964 1.789 74.885 0.598 73.698 c -0.594 
72.514 0.355 70.968 0.414 70.87 c 33.828 20.253 l 33.219 19.854 32.641 
19.397 32.105 18.866 c 27.789 14.569 27.77 7.565 32.062 3.249 c 36.355 
-1.068 43.359 -1.087 47.676 3.206 c 51.992 7.499 52.012 14.503 47.719 
18.823 c 45.492 21.061 42.535 22.132 39.602 22.057 c 40.133 23.05 
41.023 24.323 42.52 25.714 c 40.16 28.257 l 38.547 26.757 37.477 25.339 
36.766 24.108 c 10.57 63.776 l 50.199 37.468 l 48.965 36.764 47.539 
35.706 46.035 34.1 c 48.566 31.725 l 49.969 33.218 51.242 34.1 52.238 
34.624 c 52.148 31.694 53.203 28.733 55.43 26.491 c 59.727 22.175 
66.727 22.155 71.047 26.448 c 75.363 30.745 75.383 37.749 71.09 42.065 
c h
45.258 16.374 m 48.203 13.413 48.188 8.612 45.23 5.667 c 42.27 2.721 
37.465 2.737 34.523 5.694 c 31.578 8.655 31.59 13.46 34.551 16.401 c 
37.512 19.346 42.316 19.331 45.258 16.374 c h
68.598 28.909 m 65.637 25.968 60.836 25.979 57.891 28.94 c 54.949 
31.897 54.961 36.702 57.922 39.647 c 60.883 42.589 65.684 42.577 68.629 
39.616 c 71.57 36.655 71.559 31.854 68.598 28.909 c h
68.598 28.909 m f
Q Q
showpage
%%Trailer
count op_count sub {pop} repeat
countdictstack dict_count sub {end} repeat
cairo_eps_state restore
%%EOF
