%!PS-Adobe-3.0 EPSF-3.0
%%Creator: cairo 1.10.2 (http://cairographics.org)
%%CreationDate: Fri Jul  4 09:58:55 2014
%%Pages: 1
%%BoundingBox: 0 -1 75 75
%%DocumentData: Clean7Bit
%%LanguageLevel: 2
%%EndComments
%%BeginProlog
/cairo_eps_state save def
/dict_count countdictstack def
/op_count count 1 sub def
userdict begin
/q { gsave } bind def
/Q { grestore } bind def
/cm { 6 array astore concat } bind def
/w { setlinewidth } bind def
/J { setlinecap } bind def
/j { setlinejoin } bind def
/M { setmiterlimit } bind def
/d { setdash } bind def
/m { moveto } bind def
/l { lineto } bind def
/c { curveto } bind def
/h { closepath } bind def
/re { exch dup neg 3 1 roll 5 3 roll moveto 0 rlineto
      0 exch rlineto 0 rlineto closepath } bind def
/S { stroke } bind def
/f { fill } bind def
/f* { eofill } bind def
/n { newpath } bind def
/W { clip } bind def
/W* { eoclip } bind def
/BT { } bind def
/ET { } bind def
/pdfmark where { pop globaldict /?pdfmark /exec load put }
    { globaldict begin /?pdfmark /pop load def /pdfmark
    /cleartomark load def end } ifelse
/BDC { mark 3 1 roll /BDC pdfmark } bind def
/EMC { mark /EMC pdfmark } bind def
/cairo_store_point { /cairo_point_y exch def /cairo_point_x exch def } def
/Tj { show currentpoint cairo_store_point } bind def
/TJ {
  {
    dup
    type /stringtype eq
    { show } { -0.001 mul 0 cairo_font_matrix dtransform rmoveto } ifelse
  } forall
  currentpoint cairo_store_point
} bind def
/cairo_selectfont { cairo_font_matrix aload pop pop pop 0 0 6 array astore
    cairo_font exch selectfont cairo_point_x cairo_point_y moveto } bind def
/Tf { pop /cairo_font exch def /cairo_font_matrix where
      { pop cairo_selectfont } if } bind def
/Td { matrix translate cairo_font_matrix matrix concatmatrix dup
      /cairo_font_matrix exch def dup 4 get exch 5 get cairo_store_point
      /cairo_font where { pop cairo_selectfont } if } bind def
/Tm { 2 copy 8 2 roll 6 array astore /cairo_font_matrix exch def
      cairo_store_point /cairo_font where { pop cairo_selectfont } if } bind def
/g { setgray } bind def
/rg { setrgbcolor } bind def
/d1 { setcachedevice } bind def
%%EndProlog
%%Page: 1 1
%%BeginPageSetup
%%PageBoundingBox: 0 -1 75 75
%%EndPageSetup
q 0 -1 75 76 rectclip q
0 74.829 75 -75 re W n
0 g
72.82 26.985 m 63.906 35.899 l 62.508 37.298 60.645 38.067 58.664 
38.067 c 56.68 38.067 54.816 37.298 53.418 35.899 c 53.125 35.606 
52.855 35.286 52.609 34.934 c 45.891 38.634 38.898 41.798 35.191 43.415 
c 34.629 44.727 34.277 45.587 34.184 45.817 c 33.773 46.931 23.941 
73.153 8.477 74.813 c 7.109 74.962 5.93 73.977 5.785 72.645 c 5.641 
71.309 6.613 70.102 7.953 69.958 c 14.945 69.208 20.895 61.165 24.664 
54.524 c 18.82 61.239 10.902 67.888 2.441 67.934 c 1.102 67.934 0.004 
66.841 0 65.505 c -0.008 64.157 1.082 63.056 2.43 63.048 c 15.098 
62.981 27.977 41.891 28.102 41.681 c 28.184 41.54 28.285 41.407 28.387 
41.298 c 28.648 40.981 28.984 40.731 29.387 40.571 c 29.527 40.513 
30.277 40.208 31.477 39.696 c 33.406 35.29 36.387 28.829 39.844 22.556 
c 39.395 22.266 38.984 21.938 38.621 21.575 c 37.223 20.173 36.449 
18.313 36.453 16.329 c 36.449 14.345 37.223 12.481 38.621 11.083 c 
47.535 2.169 l 48.934 0.77 50.797 0.001 52.781 0.001 c 54.762 0.001 
56.625 0.77 58.027 2.169 c 60.918 5.059 60.914 9.77 58.012 12.673 c 
57.988 12.696 57.363 13.306 56.387 14.048 c 56.273 14.126 l 55.594 
14.559 54.887 14.95 54.168 15.345 c 52.789 16.106 51.484 16.829 50.43 
17.845 c 50.297 17.958 l 48.848 19.106 47.766 20.079 47.668 20.165 c 
47.414 20.431 47.148 20.7 46.883 20.966 c 50.09 22.27 l 50.082 22.583 l 
50.062 23.477 49.672 24.989 48.332 24.989 c 48 24.989 47.637 24.884 
47.246 24.684 c 46.801 24.454 45.535 24.235 44.609 24.075 c 44.59 
24.071 l 42.5 27.806 40.344 32.056 38.18 36.72 c 42.785 34.591 47 
32.466 50.734 30.391 c 50.625 29.806 50.449 28.915 50.27 28.563 c 
49.898 27.849 49.863 27.231 50.164 26.727 c 50.723 25.786 52.203 25.727 
52.371 25.724 c 52.684 25.72 l 53.625 28.04 l 54.02 27.634 54.422 
27.243 54.805 26.872 c 55.055 26.595 55.961 25.579 57.047 24.204 c 
57.16 24.075 l 58.164 23.036 58.883 21.731 59.645 20.352 c 60.008 
19.696 60.418 18.95 60.875 18.231 c 60.957 18.118 l 61.688 17.153 
62.305 16.524 62.332 16.497 c 63.73 15.099 65.594 14.329 67.578 14.329 
c 69.562 14.329 71.426 15.099 72.824 16.497 c 74.223 17.895 74.992 
19.759 74.992 21.743 c 74.992 23.724 74.219 25.587 72.82 26.985 c h
30.32 43.419 m 28.418 47.849 l 30.078 48.563 l 31.98 44.13 l h
41.375 18.825 m 41.68 19.13 42.035 19.376 42.398 19.54 c 42.637 19.653 
l 42.809 19.47 l 42.809 19.47 44.242 18.114 44.906 17.427 c 44.992 
17.345 l 45.039 17.302 46.176 16.263 47.801 14.977 c 49.199 13.645 
50.773 12.778 52.293 11.938 c 53 11.552 53.387 11.333 54.023 10.946 c 
54.656 10.563 55.273 9.907 55.273 9.907 c 55.938 9.243 56.305 8.356 
56.305 7.411 c 56.305 6.47 55.938 5.583 55.273 4.919 c 53.941 3.587 
51.613 3.587 50.285 4.919 c 41.371 13.833 l 40.707 14.497 40.34 15.384 
40.34 16.329 c 40.34 17.27 40.707 18.157 41.375 18.825 c h
70.07 19.247 m 69.406 18.579 68.52 18.212 67.57 18.212 c 66.633 18.212 
65.75 18.575 65.094 19.231 c 65.09 19.235 64.637 19.704 64.113 20.388 c 
63.75 20.958 63.41 21.575 63.051 22.227 c 62.211 23.751 61.344 25.321 
60.039 26.688 c 58.93 28.091 58.008 29.126 57.648 29.524 c 57.562 
29.614 l 56.988 30.169 56.332 30.813 55.742 31.462 c 55.297 31.927 l 
55.641 32.477 l 55.641 32.477 55.965 32.946 56.168 33.149 c 57.5 34.477 
59.824 34.477 61.156 33.149 c 70.07 24.235 l 71.445 22.86 71.445 20.622 
70.07 19.247 c h
70.07 19.247 m f
Q Q
showpage
%%Trailer
count op_count sub {pop} repeat
countdictstack dict_count sub {end} repeat
cairo_eps_state restore
%%EOF
