%!PS-Adobe-3.0 EPSF-3.0
%%Creator: cairo 1.10.2 (http://cairographics.org)
%%CreationDate: Fri Jul  4 08:48:11 2014
%%Pages: 1
%%BoundingBox: 0 -1 67 76
%%DocumentData: Clean7Bit
%%LanguageLevel: 2
%%EndComments
%%BeginProlog
/cairo_eps_state save def
/dict_count countdictstack def
/op_count count 1 sub def
userdict begin
/q { gsave } bind def
/Q { grestore } bind def
/cm { 6 array astore concat } bind def
/w { setlinewidth } bind def
/J { setlinecap } bind def
/j { setlinejoin } bind def
/M { setmiterlimit } bind def
/d { setdash } bind def
/m { moveto } bind def
/l { lineto } bind def
/c { curveto } bind def
/h { closepath } bind def
/re { exch dup neg 3 1 roll 5 3 roll moveto 0 rlineto
      0 exch rlineto 0 rlineto closepath } bind def
/S { stroke } bind def
/f { fill } bind def
/f* { eofill } bind def
/n { newpath } bind def
/W { clip } bind def
/W* { eoclip } bind def
/BT { } bind def
/ET { } bind def
/pdfmark where { pop globaldict /?pdfmark /exec load put }
    { globaldict begin /?pdfmark /pop load def /pdfmark
    /cleartomark load def end } ifelse
/BDC { mark 3 1 roll /BDC pdfmark } bind def
/EMC { mark /EMC pdfmark } bind def
/cairo_store_point { /cairo_point_y exch def /cairo_point_x exch def } def
/Tj { show currentpoint cairo_store_point } bind def
/TJ {
  {
    dup
    type /stringtype eq
    { show } { -0.001 mul 0 cairo_font_matrix dtransform rmoveto } ifelse
  } forall
  currentpoint cairo_store_point
} bind def
/cairo_selectfont { cairo_font_matrix aload pop pop pop 0 0 6 array astore
    cairo_font exch selectfont cairo_point_x cairo_point_y moveto } bind def
/Tf { pop /cairo_font exch def /cairo_font_matrix where
      { pop cairo_selectfont } if } bind def
/Td { matrix translate cairo_font_matrix matrix concatmatrix dup
      /cairo_font_matrix exch def dup 4 get exch 5 get cairo_store_point
      /cairo_font where { pop cairo_selectfont } if } bind def
/Tm { 2 copy 8 2 roll 6 array astore /cairo_font_matrix exch def
      cairo_store_point /cairo_font where { pop cairo_selectfont } if } bind def
/g { setgray } bind def
/rg { setrgbcolor } bind def
/d1 { setcachedevice } bind def
%%EndProlog
%%Page: 1 1
%%BeginPageSetup
%%PageBoundingBox: 0 -1 67 76
%%EndPageSetup
q 0 -1 67 77 rectclip q
0 75.209 67 -76 re W n
0 g
48.398 65.74 m 42.645 66.951 36.477 66.849 30.664 66.158 c 24.156 
65.392 18.223 62.966 14.199 57.595 c 9.926 51.896 8.598 44.615 8.074 
37.666 c 7.836 28.299 11.375 20.232 17.086 14.275 c 22.824 8.287 34.219 
5.787 40.289 12.752 c 45.871 19.154 42.676 28.201 44.164 35.705 c 
45.855 44.213 57.312 47.623 58.434 56.322 c 59.172 62.072 52.992 64.771 
48.398 65.74 c h
53.508 55.689 m 51.781 51.931 47.891 49.076 45.16 46.072 c 42.176 
42.783 39.863 39.22 39.387 34.744 c 38.516 35.267 37.496 35.572 36.406 
35.572 c 33.203 35.572 30.602 32.974 30.602 29.767 c 30.602 26.564 
33.203 23.966 36.406 23.966 c 37.406 23.966 38.348 24.216 39.168 24.666 
c 39.148 23.931 39.117 23.201 39.059 22.47 c 38.781 19.111 37.703 
15.404 34.309 14.009 c 30.191 12.318 25.664 13.42 22.176 15.927 c 
15.945 20.404 12.371 29.025 12.676 37.244 c 12.68 37.291 12.688 37.334 
12.691 37.381 c 13.348 46.431 15.859 56.814 25.316 60.31 c 28.875 
61.623 32.789 61.826 36.555 61.943 c 40.723 62.076 44.984 61.912 49.027 
60.818 c 51.367 60.181 54.879 58.681 53.508 55.689 c h
53.508 55.689 m f
66.52 60.177 m 66.445 61.162 65.582 61.9 64.602 61.826 c 64.129 61.791 
63.715 61.568 63.422 61.244 c 62.824 63.068 61.754 64.724 60.262 66.162 
c 60.316 66.158 60.371 66.146 60.43 66.146 c 60.941 66.146 61.449 
66.365 61.801 66.791 c 62.434 67.549 62.332 68.674 61.574 69.31 c 
61.145 69.666 60.688 70.013 60.207 70.341 c 59.395 70.896 58.281 70.689 
57.723 69.873 c 57.391 69.384 57.336 68.791 57.516 68.275 c 55.84 69.31 
53.863 70.162 51.617 70.791 c 52.012 71.037 52.316 71.435 52.422 71.927 
c 52.629 72.896 52.012 73.845 51.047 74.052 c 50.977 74.064 l 50.461 
74.177 49.938 74.275 49.406 74.369 c 48.434 74.545 47.508 73.892 47.336 
72.92 c 47.254 72.463 47.359 72.017 47.59 71.65 c 45.574 71.978 43.457 
72.189 41.254 72.275 c 41.512 72.584 41.672 72.97 41.676 73.4 c 41.688 
74.388 40.895 75.197 39.906 75.205 c 39.383 75.209 38.855 75.209 38.324 
75.205 c 37.336 75.189 36.547 74.377 36.559 73.388 c 36.566 72.974 
36.719 72.599 36.961 72.299 c 34.938 72.244 32.832 72.091 30.668 71.857 
c 30.859 72.185 30.953 72.576 30.898 72.982 c 30.766 73.963 29.863 
74.646 28.887 74.517 c 28.348 74.443 27.82 74.365 27.297 74.271 c 26.32 
74.103 25.668 73.177 25.84 72.205 c 25.91 71.799 26.113 71.459 26.391 
71.197 c 24.305 70.759 22.352 70.162 20.531 69.408 c 20.613 69.779 
20.582 70.181 20.402 70.556 c 19.977 71.447 18.91 71.822 18.02 71.396 c 
17.527 71.162 17.035 70.912 16.559 70.65 c 15.695 70.177 15.375 69.095 
15.848 68.228 c 16.043 67.869 16.34 67.607 16.688 67.451 c 14.957 
66.392 13.391 65.15 11.98 63.736 c 11.895 64.088 11.707 64.42 11.414 
64.674 c 10.668 65.322 9.535 65.24 8.891 64.494 c 8.531 64.076 8.18 
63.646 7.848 63.213 c 7.25 62.431 7.398 61.306 8.184 60.709 c 8.473 
60.482 8.809 60.373 9.148 60.349 c 7.973 58.681 7 56.943 6.203 55.166 c 
6.012 55.404 5.762 55.603 5.457 55.72 c 4.535 56.076 3.5 55.615 3.145 
54.693 c 2.949 54.193 2.77 53.685 2.594 53.177 c 2.277 52.244 2.777 
51.228 3.711 50.908 c 3.902 50.841 4.098 50.814 4.289 50.814 c 4.387 
50.814 4.484 50.822 4.582 50.838 c 3.984 48.896 3.547 46.951 3.219 
45.06 c 2.996 45.213 2.738 45.33 2.453 45.369 c 1.473 45.509 0.57 
44.834 0.43 43.853 c 0.352 43.326 0.281 42.802 0.219 42.287 c 0.098 
41.306 0.797 40.416 1.777 40.295 c 1.852 40.287 1.926 40.283 1.996 
40.283 c 2.203 40.283 2.402 40.322 2.594 40.388 c 2.52 39.642 2.453 
38.912 2.398 38.205 c 2.352 37.865 2.332 37.529 2.332 37.189 c 2.332 
36.295 2.379 35.4 2.441 34.506 c 2.18 34.611 1.891 34.662 1.59 34.627 c 
0.609 34.517 -0.098 33.634 0.012 32.654 c 0.07 32.119 0.141 31.588 
0.219 31.056 c 0.352 30.17 1.113 29.533 1.984 29.533 c 2.074 29.533 
2.164 29.541 2.25 29.552 c 2.555 29.595 2.82 29.72 3.047 29.892 c 3.422 
27.943 3.945 26.025 4.598 24.154 c 4.305 24.197 4 24.174 3.707 24.06 c 
2.781 23.705 2.324 22.67 2.68 21.748 c 2.871 21.248 3.074 20.752 3.281 
20.259 c 3.574 19.58 4.234 19.174 4.93 19.174 c 5.164 19.174 5.402 
19.22 5.629 19.318 c 5.938 19.447 6.18 19.658 6.363 19.908 c 7.238 
18.091 8.242 16.353 9.367 14.713 c 9.039 14.693 8.715 14.584 8.43 
14.373 c 7.633 13.791 7.461 12.674 8.043 11.877 c 8.363 11.439 8.691 
11.013 9.027 10.591 c 9.379 10.146 9.898 9.916 10.426 9.916 c 10.816 
9.916 11.207 10.045 11.539 10.306 c 11.836 10.545 12.031 10.853 12.133 
11.189 c 12.414 10.873 12.695 10.556 12.984 10.256 c 14.07 9.119 15.301 
8.091 16.629 7.189 c 16.262 7.056 15.93 6.81 15.707 6.451 c 15.191 
5.607 15.453 4.506 16.293 3.99 c 16.758 3.705 17.238 3.431 17.723 3.17 
c 17.992 3.025 18.281 2.959 18.566 2.959 c 19.207 2.959 19.824 3.299 
20.145 3.9 c 20.352 4.291 20.395 4.716 20.309 5.119 c 22.176 4.263 
24.145 3.631 26.141 3.252 c 25.832 2.974 25.613 2.595 25.555 2.154 c 
25.434 1.17 26.129 0.279 27.105 0.154 c 27.66 0.084 28.219 0.037 28.762 
0.002 c 28.797 0.002 28.832 0.002 28.867 0.002 c 29.809 0.002 30.598 
0.736 30.652 1.685 c 30.676 2.119 30.539 2.521 30.297 2.841 c 30.312 
2.841 30.324 2.841 30.336 2.841 c 30.34 2.841 l 32.371 2.841 34.324 
3.138 36.145 3.701 c 36.074 3.349 36.105 2.974 36.262 2.623 c 36.559 
1.959 37.211 1.564 37.895 1.564 c 38.141 1.564 38.387 1.615 38.625 1.72 
c 39.141 1.951 39.648 2.209 40.145 2.482 c 41.004 2.963 41.316 4.052 
40.836 4.916 c 40.684 5.185 40.465 5.4 40.215 5.552 c 41.668 6.455 
42.988 7.56 44.133 8.873 c 44.246 9.002 44.355 9.134 44.461 9.263 c 
44.578 9.138 44.711 9.017 44.871 8.927 c 45.152 8.763 45.461 8.685 
45.766 8.685 c 46.383 8.685 46.98 9.006 47.312 9.58 c 47.598 10.068 
47.859 10.572 48.098 11.084 c 48.516 11.978 48.133 13.041 47.234 13.463 
c 47.18 13.49 47.121 13.502 47.062 13.521 c 47.844 15.33 48.305 17.185 
48.574 19.033 c 49.48 19.076 50.227 19.795 50.273 20.716 c 50.305 
21.252 50.32 21.787 50.332 22.318 c 50.352 23.185 49.746 23.924 48.93 
24.099 c 48.941 25.213 48.922 26.295 48.906 27.334 c 48.891 28.189 
48.875 29.029 48.879 29.849 c 49.672 29.998 50.293 30.67 50.336 31.513 
c 50.363 32.029 50.402 32.498 50.453 32.947 c 50.543 33.787 50.039 
34.549 49.277 34.822 c 49.652 36.443 50.773 37.966 52.211 39.482 c 
52.43 39.388 52.668 39.338 52.906 39.338 c 53.371 39.338 53.836 39.517 
54.184 39.877 c 54.527 40.224 54.879 40.572 55.242 40.92 c 55.77 41.427 
55.918 42.181 55.68 42.826 c 57.047 44.115 58.5 45.525 59.801 47.134 c 
60.035 47.025 60.285 46.966 60.535 46.966 c 61.051 46.966 61.562 47.189 
61.918 47.619 c 62.277 48.06 62.617 48.498 62.93 48.931 c 63.504 49.728 
63.324 50.849 62.523 51.427 c 62.523 51.427 62.523 51.427 62.523 51.427 
c 63.176 52.838 63.66 54.377 63.879 56.076 c 63.914 56.349 63.938 
56.627 63.953 56.896 c 64.16 56.795 64.391 56.728 64.633 56.713 c 
64.672 56.713 64.711 56.709 64.746 56.709 c 65.684 56.709 66.473 57.439 
66.531 58.388 c 66.547 58.662 66.555 58.935 66.555 59.205 c 66.555 
59.529 66.543 59.857 66.52 60.177 c h
60.938 56.455 m 60.254 51.154 56.555 47.701 52.977 44.361 c 49.926 
41.513 47.043 38.826 46.332 35.24 c 45.844 32.791 45.891 30.115 45.941 
27.283 c 46.039 21.584 46.145 15.693 41.898 10.826 c 39.078 7.591 
34.973 5.81 30.34 5.81 c 30.336 5.81 l 24.793 5.81 18.965 8.299 15.125 
12.306 c 8.988 18.709 5.492 28.013 5.32 37.193 c 5.227 42.103 7.055 
52.646 12.008 59.263 c 16.055 64.658 22.191 67.877 30.254 68.83 c 
33.238 69.185 36.113 69.365 38.801 69.365 c 42.473 69.365 45.922 69.029 
49.051 68.369 c 57.105 66.674 61.66 62.107 60.938 56.455 c h
60.938 56.455 m f
30.496 45.748 m 30.496 42.541 27.895 39.943 24.691 39.943 c 21.484 
39.943 18.887 42.541 18.887 45.748 c 18.887 48.955 21.484 51.552 24.691 
51.552 c 27.895 51.552 30.496 48.955 30.496 45.748 c h
30.496 45.748 m f
Q Q
showpage
%%Trailer
count op_count sub {pop} repeat
countdictstack dict_count sub {end} repeat
cairo_eps_state restore
%%EOF
