%!PS-Adobe-3.0 EPSF-3.0
%%Creator: cairo 1.10.2 (http://cairographics.org)
%%CreationDate: Fri Jul  4 09:52:15 2014
%%Pages: 1
%%BoundingBox: 0 -1 69 76
%%DocumentData: Clean7Bit
%%LanguageLevel: 2
%%EndComments
%%BeginProlog
/cairo_eps_state save def
/dict_count countdictstack def
/op_count count 1 sub def
userdict begin
/q { gsave } bind def
/Q { grestore } bind def
/cm { 6 array astore concat } bind def
/w { setlinewidth } bind def
/J { setlinecap } bind def
/j { setlinejoin } bind def
/M { setmiterlimit } bind def
/d { setdash } bind def
/m { moveto } bind def
/l { lineto } bind def
/c { curveto } bind def
/h { closepath } bind def
/re { exch dup neg 3 1 roll 5 3 roll moveto 0 rlineto
      0 exch rlineto 0 rlineto closepath } bind def
/S { stroke } bind def
/f { fill } bind def
/f* { eofill } bind def
/n { newpath } bind def
/W { clip } bind def
/W* { eoclip } bind def
/BT { } bind def
/ET { } bind def
/pdfmark where { pop globaldict /?pdfmark /exec load put }
    { globaldict begin /?pdfmark /pop load def /pdfmark
    /cleartomark load def end } ifelse
/BDC { mark 3 1 roll /BDC pdfmark } bind def
/EMC { mark /EMC pdfmark } bind def
/cairo_store_point { /cairo_point_y exch def /cairo_point_x exch def } def
/Tj { show currentpoint cairo_store_point } bind def
/TJ {
  {
    dup
    type /stringtype eq
    { show } { -0.001 mul 0 cairo_font_matrix dtransform rmoveto } ifelse
  } forall
  currentpoint cairo_store_point
} bind def
/cairo_selectfont { cairo_font_matrix aload pop pop pop 0 0 6 array astore
    cairo_font exch selectfont cairo_point_x cairo_point_y moveto } bind def
/Tf { pop /cairo_font exch def /cairo_font_matrix where
      { pop cairo_selectfont } if } bind def
/Td { matrix translate cairo_font_matrix matrix concatmatrix dup
      /cairo_font_matrix exch def dup 4 get exch 5 get cairo_store_point
      /cairo_font where { pop cairo_selectfont } if } bind def
/Tm { 2 copy 8 2 roll 6 array astore /cairo_font_matrix exch def
      cairo_store_point /cairo_font where { pop cairo_selectfont } if } bind def
/g { setgray } bind def
/rg { setrgbcolor } bind def
/d1 { setcachedevice } bind def
%%EndProlog
%%Page: 1 1
%%BeginPageSetup
%%PageBoundingBox: 0 -1 69 76
%%EndPageSetup
q 0 -1 69 77 rectclip q
0 75.844 69 -76 re W n
0 g
68.086 39.168 m 68.086 60.074 53.453 75.844 34.047 75.844 c 34.035 
75.844 l 14.629 75.844 -0.004 60.074 0 39.168 c 0 27.364 6.656 20.551 
18.164 20.434 c 18.16 13.719 l 17.359 12.715 16.859 11.391 16.859 9.93 
c 16.859 3.614 l 16.859 2.231 17.309 0.981 18.031 0 c 25.547 0 l 26.27 
0.981 26.719 2.231 26.719 3.614 c 26.719 4.629 l 27.512 4.711 28.105 
4.918 28.82 5.227 c 28.82 3.614 l 28.82 2.231 29.273 0.981 29.996 0 c 
38.09 0 l 38.812 0.981 39.266 2.231 39.266 3.614 c 39.266 5.227 l 39.98 
4.918 40.574 4.711 41.367 4.629 c 41.367 3.614 l 41.367 2.231 41.816 
0.981 42.535 0 c 50.055 0 l 50.773 0.981 51.227 2.231 51.227 3.614 c 
51.227 9.93 l 51.227 11.391 50.723 12.715 49.922 13.719 c 49.922 20.434 
l 61.426 20.551 68.086 27.367 68.086 39.168 c h
21.621 38.938 m 14.633 33.817 11.77 39.352 11.617 44.696 c 11.535 
47.481 12.086 55.293 23.887 55.293 c 28.734 55.293 29.746 53.742 29.746 
48.801 c 29.746 45.746 26.895 42.805 21.621 38.938 c h
36.664 21.973 m 35.93 19.91 34.582 20.207 34.172 21.465 c 34.172 21.489 
l 34.141 21.571 34.121 21.66 34.102 21.75 c 34.07 21.91 34.047 22.078 
34.047 22.262 c 34.047 22.235 34.043 22.215 34.043 22.192 c 34.043 
22.215 34.035 22.235 34.035 22.262 c 34.035 22.078 34.016 21.91 33.984 
21.75 c 33.965 21.66 33.941 21.571 33.91 21.489 c 33.91 21.465 l 33.504 
20.207 32.152 19.91 31.422 21.973 c 29.566 27.176 27.02 30.813 30.629 
30.821 c 32.781 30.821 33.629 29.176 33.91 28.399 c 34.051 27.996 l 
34.172 28.399 l 34.457 29.176 35.305 30.821 37.457 30.821 c 41.066 
30.813 38.516 27.176 36.664 21.973 c h
56.469 44.696 m 56.316 39.348 53.453 33.817 46.465 38.938 c 41.191 
42.805 38.34 45.746 38.34 48.801 c 38.34 53.742 39.352 55.293 44.199 
55.293 c 56 55.293 56.551 47.481 56.469 44.696 c h
56.469 44.696 m f
Q Q
showpage
%%Trailer
count op_count sub {pop} repeat
countdictstack dict_count sub {end} repeat
cairo_eps_state restore
%%EOF
