%!PS-Adobe-3.0 EPSF-3.0
%%Creator: cairo 1.10.2 (http://cairographics.org)
%%CreationDate: Fri Jul  4 08:48:30 2014
%%Pages: 1
%%BoundingBox: 0 -1 71 76
%%DocumentData: Clean7Bit
%%LanguageLevel: 2
%%EndComments
%%BeginProlog
/cairo_eps_state save def
/dict_count countdictstack def
/op_count count 1 sub def
userdict begin
/q { gsave } bind def
/Q { grestore } bind def
/cm { 6 array astore concat } bind def
/w { setlinewidth } bind def
/J { setlinecap } bind def
/j { setlinejoin } bind def
/M { setmiterlimit } bind def
/d { setdash } bind def
/m { moveto } bind def
/l { lineto } bind def
/c { curveto } bind def
/h { closepath } bind def
/re { exch dup neg 3 1 roll 5 3 roll moveto 0 rlineto
      0 exch rlineto 0 rlineto closepath } bind def
/S { stroke } bind def
/f { fill } bind def
/f* { eofill } bind def
/n { newpath } bind def
/W { clip } bind def
/W* { eoclip } bind def
/BT { } bind def
/ET { } bind def
/pdfmark where { pop globaldict /?pdfmark /exec load put }
    { globaldict begin /?pdfmark /pop load def /pdfmark
    /cleartomark load def end } ifelse
/BDC { mark 3 1 roll /BDC pdfmark } bind def
/EMC { mark /EMC pdfmark } bind def
/cairo_store_point { /cairo_point_y exch def /cairo_point_x exch def } def
/Tj { show currentpoint cairo_store_point } bind def
/TJ {
  {
    dup
    type /stringtype eq
    { show } { -0.001 mul 0 cairo_font_matrix dtransform rmoveto } ifelse
  } forall
  currentpoint cairo_store_point
} bind def
/cairo_selectfont { cairo_font_matrix aload pop pop pop 0 0 6 array astore
    cairo_font exch selectfont cairo_point_x cairo_point_y moveto } bind def
/Tf { pop /cairo_font exch def /cairo_font_matrix where
      { pop cairo_selectfont } if } bind def
/Td { matrix translate cairo_font_matrix matrix concatmatrix dup
      /cairo_font_matrix exch def dup 4 get exch 5 get cairo_store_point
      /cairo_font where { pop cairo_selectfont } if } bind def
/Tm { 2 copy 8 2 roll 6 array astore /cairo_font_matrix exch def
      cairo_store_point /cairo_font where { pop cairo_selectfont } if } bind def
/g { setgray } bind def
/rg { setrgbcolor } bind def
/d1 { setcachedevice } bind def
%%EndProlog
%%Page: 1 1
%%BeginPageSetup
%%PageBoundingBox: 0 -1 71 76
%%EndPageSetup
q 0 -1 71 77 rectclip q
0 75.909 71 -76 re W n
0 g
22.824 42.604 m 25.004 42.577 l 25.004 30.561 l 29.027 30.561 l 29.027 
35.897 l 33.426 35.897 l 33.426 30.561 l 36.906 30.561 l 36.906 35.897 
l 41.305 35.897 l 41.305 30.561 l 45.328 30.561 l 45.328 42.577 l 
47.484 42.616 l 53.703 42.678 56.727 45.846 56.727 52.299 c 56.727 
58.92 54.5 64.959 50.461 69.315 c 46.516 73.569 41.082 75.909 35.164 
75.909 c 22.875 75.909 13.605 65.76 13.605 52.299 c 13.605 45.733 
16.535 42.651 22.824 42.604 c h
41.625 64.877 m 50.301 64.877 50.703 59.135 50.645 57.084 c 50.531 
53.155 48.426 49.084 43.289 52.854 c 39.414 55.698 37.316 57.858 37.316 
60.104 c 37.316 63.737 38.059 64.877 41.625 64.877 c h
35.168 46.901 m 35.168 46.901 35.598 48.975 37.668 48.975 c 40.32 
48.971 38.449 46.299 37.086 42.475 c 36.449 40.67 35.164 41.311 35.164 
42.686 c 35.164 41.373 33.82 40.916 33.395 42.135 c 32.078 45.905 
29.719 48.897 32.859 48.897 c 34.266 48.897 35.168 46.901 35.168 46.901 
c h
28.703 64.877 m 32.27 64.877 33.016 63.737 33.016 60.104 c 33.016 
57.858 30.918 55.694 27.039 52.854 c 21.906 49.084 19.801 53.155 19.688 
57.084 c 19.629 59.135 20.031 64.877 28.703 64.877 c h
28.703 64.877 m f
69.359 34.623 m 68.668 35.756 67.703 36.6 66.648 37.104 c 66.684 38.272 
66.375 39.514 65.684 40.647 c 64.004 43.401 60.734 44.467 58.383 43.03 
c 56.066 41.619 55.504 38.319 57.078 35.592 c 35.164 22.229 l 13.25 
35.592 l 14.824 38.315 14.262 41.619 11.949 43.03 c 9.594 44.467 6.324 
43.401 4.648 40.647 c 3.957 39.514 3.648 38.272 3.684 37.104 c 2.625 
36.6 1.664 35.756 0.973 34.623 c -0.707 31.873 -0.156 28.475 2.195 
27.041 c 4.512 25.631 7.703 26.639 9.406 29.287 c 28.074 17.905 l 
22.301 14.381 l 20.598 17.03 17.402 18.037 15.09 16.627 c 12.734 15.19 
12.188 11.799 13.863 9.045 c 14.555 7.912 15.516 7.069 16.574 6.565 c 
16.539 5.397 16.848 4.155 17.539 3.022 c 19.215 0.272 22.484 -0.798 
24.84 0.639 c 27.152 2.049 27.719 5.35 26.145 8.077 c 35.164 13.58 l 
44.188 8.077 l 42.613 5.354 43.176 2.049 45.492 0.639 c 47.844 -0.798 
51.113 0.272 52.793 3.022 c 53.484 4.155 53.793 5.397 53.758 6.565 c 
54.812 7.069 55.773 7.912 56.465 9.045 c 58.145 11.799 57.594 15.194 
55.242 16.627 c 52.926 18.041 49.734 17.03 48.031 14.381 c 42.254 
17.905 l 60.922 29.287 l 62.625 26.639 65.82 25.631 68.133 27.041 c 
70.488 28.479 71.035 31.873 69.359 34.623 c h
69.359 34.623 m f
Q Q
showpage
%%Trailer
count op_count sub {pop} repeat
countdictstack dict_count sub {end} repeat
cairo_eps_state restore
%%EOF
