%!PS-Adobe-3.0 EPSF-3.0
%%Creator: cairo 1.10.2 (http://cairographics.org)
%%CreationDate: Fri Jul  4 09:08:48 2014
%%Pages: 1
%%BoundingBox: 0 0 76 76
%%DocumentData: Clean7Bit
%%LanguageLevel: 2
%%EndComments
%%BeginProlog
/cairo_eps_state save def
/dict_count countdictstack def
/op_count count 1 sub def
userdict begin
/q { gsave } bind def
/Q { grestore } bind def
/cm { 6 array astore concat } bind def
/w { setlinewidth } bind def
/J { setlinecap } bind def
/j { setlinejoin } bind def
/M { setmiterlimit } bind def
/d { setdash } bind def
/m { moveto } bind def
/l { lineto } bind def
/c { curveto } bind def
/h { closepath } bind def
/re { exch dup neg 3 1 roll 5 3 roll moveto 0 rlineto
      0 exch rlineto 0 rlineto closepath } bind def
/S { stroke } bind def
/f { fill } bind def
/f* { eofill } bind def
/n { newpath } bind def
/W { clip } bind def
/W* { eoclip } bind def
/BT { } bind def
/ET { } bind def
/pdfmark where { pop globaldict /?pdfmark /exec load put }
    { globaldict begin /?pdfmark /pop load def /pdfmark
    /cleartomark load def end } ifelse
/BDC { mark 3 1 roll /BDC pdfmark } bind def
/EMC { mark /EMC pdfmark } bind def
/cairo_store_point { /cairo_point_y exch def /cairo_point_x exch def } def
/Tj { show currentpoint cairo_store_point } bind def
/TJ {
  {
    dup
    type /stringtype eq
    { show } { -0.001 mul 0 cairo_font_matrix dtransform rmoveto } ifelse
  } forall
  currentpoint cairo_store_point
} bind def
/cairo_selectfont { cairo_font_matrix aload pop pop pop 0 0 6 array astore
    cairo_font exch selectfont cairo_point_x cairo_point_y moveto } bind def
/Tf { pop /cairo_font exch def /cairo_font_matrix where
      { pop cairo_selectfont } if } bind def
/Td { matrix translate cairo_font_matrix matrix concatmatrix dup
      /cairo_font_matrix exch def dup 4 get exch 5 get cairo_store_point
      /cairo_font where { pop cairo_selectfont } if } bind def
/Tm { 2 copy 8 2 roll 6 array astore /cairo_font_matrix exch def
      cairo_store_point /cairo_font where { pop cairo_selectfont } if } bind def
/g { setgray } bind def
/rg { setrgbcolor } bind def
/d1 { setcachedevice } bind def
%%EndProlog
%%Page: 1 1
%%BeginPageSetup
%%PageBoundingBox: 0 0 76 76
%%EndPageSetup
q 0 0 76 76 rectclip q
0 g
53.617 37.238 7.602 -7.324 re f
53.629 49.133 m 50.938 53.395 53.18 55.949 53.441 56.223 c 52.434 
57.211 l 51.414 58.23 l 49.949 56.766 48.023 52.664 51.215 47.605 c 
53.906 43.344 51.668 40.793 51.414 40.527 c 53.434 38.508 l 54.898 
39.973 56.82 44.078 53.629 49.133 c h
53.629 49.133 m f
58.453 41.953 m 60.473 39.934 l 61.746 41.207 63.426 44.77 60.672 
49.133 c 58.516 52.547 60.277 54.578 60.488 54.801 c 59.465 55.797 l 
58.453 56.805 l 57.18 55.531 55.5 51.969 58.258 47.609 c 60.414 44.191 
58.652 42.16 58.453 41.953 c h
58.453 41.953 m f
38 76 m 17.047 76 0 58.953 0 38 c 0 17.047 17.047 0 38 0 c 58.953 0 76 
17.047 76 38 c 76 58.953 58.953 76 38 76 c h
38 9.602 m 22.34 9.602 9.602 22.34 9.602 38 c 9.602 44.102 11.539 
49.754 14.824 54.387 c 31.973 37.238 l 13.84 37.238 l 13.84 29.914 l 
39.297 29.914 l 54.387 14.824 l 49.754 11.539 44.102 9.602 38 9.602 c h
61.176 21.613 m 51.035 31.754 l 51.035 37.238 l 45.551 37.238 l 21.613 
61.172 l 26.246 64.461 31.898 66.398 38 66.398 c 53.66 66.398 66.398 
53.66 66.398 38 c 66.398 31.898 64.461 26.246 61.176 21.613 c h
61.176 21.613 m f
Q Q
showpage
%%Trailer
count op_count sub {pop} repeat
countdictstack dict_count sub {end} repeat
cairo_eps_state restore
%%EOF
