%!PS-Adobe-3.0 EPSF-3.0
%%Creator: cairo 1.10.2 (http://cairographics.org)
%%CreationDate: Fri Jul  4 08:48:26 2014
%%Pages: 1
%%BoundingBox: 0 -1 65 76
%%DocumentData: Clean7Bit
%%LanguageLevel: 2
%%EndComments
%%BeginProlog
/cairo_eps_state save def
/dict_count countdictstack def
/op_count count 1 sub def
userdict begin
/q { gsave } bind def
/Q { grestore } bind def
/cm { 6 array astore concat } bind def
/w { setlinewidth } bind def
/J { setlinecap } bind def
/j { setlinejoin } bind def
/M { setmiterlimit } bind def
/d { setdash } bind def
/m { moveto } bind def
/l { lineto } bind def
/c { curveto } bind def
/h { closepath } bind def
/re { exch dup neg 3 1 roll 5 3 roll moveto 0 rlineto
      0 exch rlineto 0 rlineto closepath } bind def
/S { stroke } bind def
/f { fill } bind def
/f* { eofill } bind def
/n { newpath } bind def
/W { clip } bind def
/W* { eoclip } bind def
/BT { } bind def
/ET { } bind def
/pdfmark where { pop globaldict /?pdfmark /exec load put }
    { globaldict begin /?pdfmark /pop load def /pdfmark
    /cleartomark load def end } ifelse
/BDC { mark 3 1 roll /BDC pdfmark } bind def
/EMC { mark /EMC pdfmark } bind def
/cairo_store_point { /cairo_point_y exch def /cairo_point_x exch def } def
/Tj { show currentpoint cairo_store_point } bind def
/TJ {
  {
    dup
    type /stringtype eq
    { show } { -0.001 mul 0 cairo_font_matrix dtransform rmoveto } ifelse
  } forall
  currentpoint cairo_store_point
} bind def
/cairo_selectfont { cairo_font_matrix aload pop pop pop 0 0 6 array astore
    cairo_font exch selectfont cairo_point_x cairo_point_y moveto } bind def
/Tf { pop /cairo_font exch def /cairo_font_matrix where
      { pop cairo_selectfont } if } bind def
/Td { matrix translate cairo_font_matrix matrix concatmatrix dup
      /cairo_font_matrix exch def dup 4 get exch 5 get cairo_store_point
      /cairo_font where { pop cairo_selectfont } if } bind def
/Tm { 2 copy 8 2 roll 6 array astore /cairo_font_matrix exch def
      cairo_store_point /cairo_font where { pop cairo_selectfont } if } bind def
/g { setgray } bind def
/rg { setrgbcolor } bind def
/d1 { setcachedevice } bind def
%%EndProlog
%%Page: 1 1
%%BeginPageSetup
%%PageBoundingBox: 0 -1 65 76
%%EndPageSetup
q 0 -1 65 77 rectclip q
0 75.245 65 -76 re W n
0 g
58.609 65.635 m 58.523 65.706 58.426 65.768 58.32 65.827 c 58.219 
66.503 57.844 67.116 57.281 67.507 c 56.188 68.268 54.559 67.975 53.801 
66.882 c 53.082 65.846 l 52.699 65.296 52.559 64.632 52.676 63.975 c 
52.793 63.319 53.16 62.745 53.711 62.366 c 54.168 62.046 54.719 61.889 
55.281 61.924 c 55.355 61.842 55.434 61.772 55.516 61.706 c 55.566 
61.671 60.109 57.956 59.316 52.905 c 58.613 48.421 53.664 41.526 34.074 
34.135 c 34.008 34.112 33.941 34.085 33.879 34.053 c 33.82 34.085 
33.766 34.116 33.707 34.143 c 30.262 35.854 l 30.148 35.909 30.039 
35.96 29.926 36.007 c 29.91 36.081 29.895 36.151 29.875 36.221 c 23.926 
56.299 26.426 64.409 29.574 67.678 c 33.172 71.413 38.855 69.975 38.879 
69.967 c 38.984 69.94 39.09 69.921 39.199 69.909 c 39.512 69.448 39.965 
69.1 40.5 68.928 c 41.789 68.51 43.234 69.245 43.652 70.53 c 44.043 
71.725 l 44.25 72.362 44.195 73.038 43.895 73.635 c 43.59 74.229 43.074 
74.674 42.441 74.882 c 41.789 75.092 41.066 75.022 40.469 74.694 c 
40.359 74.741 40.25 74.78 40.145 74.807 c 39.973 74.85 38.422 75.245 
36.258 75.245 c 33.379 75.245 29.258 74.542 26.004 71.182 c 20.219 
65.214 19.77 53.464 24.66 36.245 c 22.797 35.624 21.25 34.292 20.375 
32.534 c 19.5 30.772 19.363 28.772 19.992 26.901 c 20.602 25.1 21.844 
23.628 23.516 22.741 c 23 21.733 22.465 20.581 21.832 19.206 c 19.488 
14.139 15.949 6.475 11.914 5.186 c 10.773 4.819 9.617 5.007 8.324 5.749 
c 6.383 6.882 5.316 8.116 5.066 9.526 c 4.426 13.12 8.688 18.28 12.129 
22.444 c 14.578 25.405 16.691 27.964 17.453 30.257 c 20.223 37.354 
19.16 44.112 14.547 48.842 c 15.02 51.311 13.809 53.772 11.535 54.901 c 
10.754 55.288 9.918 55.487 9.047 55.487 c 6.902 55.487 4.977 54.296 
4.023 52.374 c 2.648 49.608 3.781 46.237 6.551 44.862 c 8.074 44.108 
9.895 44.092 11.43 44.811 c 14.242 41.503 14.723 36.979 12.773 32.01 c 
12.727 31.878 l 12.266 30.456 10.238 28.003 8.262 25.612 c 3.965 20.413 
-0.902 14.518 0.145 8.647 c 0.66 5.745 2.57 3.315 5.824 1.417 c 6.039 
1.292 6.258 1.178 6.473 1.069 c 7.902 0.358 9.352 -0.001 10.777 -0.001 
c 11.668 -0.001 12.562 0.143 13.438 0.421 c 19.57 2.378 23.344 10.549 
26.379 17.116 c 26.961 18.382 27.516 19.585 28.02 20.573 c 28.793 
20.307 29.602 20.171 30.422 20.171 c 30.426 20.171 l 33.25 20.171 
35.781 21.737 37.031 24.257 c 37.93 26.069 38.043 28.147 37.359 30.042 
c 53.961 36.534 63.012 43.979 64.266 52.174 c 65.484 60.139 58.891 
65.413 58.609 65.635 c h
23.953 30.753 m 24.527 31.913 25.691 32.632 26.988 32.632 c 27.508 
32.632 28.016 32.514 28.484 32.28 c 31.93 30.569 l 33.602 29.737 34.285 
27.706 33.453 26.034 c 32.879 24.878 31.715 24.155 30.422 24.155 c 
29.898 24.155 29.395 24.276 28.922 24.51 c 25.477 26.221 l 23.805 
27.049 23.121 29.085 23.953 30.753 c h
23.953 30.753 m f
Q Q
showpage
%%Trailer
count op_count sub {pop} repeat
countdictstack dict_count sub {end} repeat
cairo_eps_state restore
%%EOF
