%!PS-Adobe-3.0 EPSF-3.0
%%Creator: cairo 1.10.2 (http://cairographics.org)
%%CreationDate: Fri Jul  4 08:48:00 2014
%%Pages: 1
%%BoundingBox: 0 -1 43 75
%%DocumentData: Clean7Bit
%%LanguageLevel: 2
%%EndComments
%%BeginProlog
/cairo_eps_state save def
/dict_count countdictstack def
/op_count count 1 sub def
userdict begin
/q { gsave } bind def
/Q { grestore } bind def
/cm { 6 array astore concat } bind def
/w { setlinewidth } bind def
/J { setlinecap } bind def
/j { setlinejoin } bind def
/M { setmiterlimit } bind def
/d { setdash } bind def
/m { moveto } bind def
/l { lineto } bind def
/c { curveto } bind def
/h { closepath } bind def
/re { exch dup neg 3 1 roll 5 3 roll moveto 0 rlineto
      0 exch rlineto 0 rlineto closepath } bind def
/S { stroke } bind def
/f { fill } bind def
/f* { eofill } bind def
/n { newpath } bind def
/W { clip } bind def
/W* { eoclip } bind def
/BT { } bind def
/ET { } bind def
/pdfmark where { pop globaldict /?pdfmark /exec load put }
    { globaldict begin /?pdfmark /pop load def /pdfmark
    /cleartomark load def end } ifelse
/BDC { mark 3 1 roll /BDC pdfmark } bind def
/EMC { mark /EMC pdfmark } bind def
/cairo_store_point { /cairo_point_y exch def /cairo_point_x exch def } def
/Tj { show currentpoint cairo_store_point } bind def
/TJ {
  {
    dup
    type /stringtype eq
    { show } { -0.001 mul 0 cairo_font_matrix dtransform rmoveto } ifelse
  } forall
  currentpoint cairo_store_point
} bind def
/cairo_selectfont { cairo_font_matrix aload pop pop pop 0 0 6 array astore
    cairo_font exch selectfont cairo_point_x cairo_point_y moveto } bind def
/Tf { pop /cairo_font exch def /cairo_font_matrix where
      { pop cairo_selectfont } if } bind def
/Td { matrix translate cairo_font_matrix matrix concatmatrix dup
      /cairo_font_matrix exch def dup 4 get exch 5 get cairo_store_point
      /cairo_font where { pop cairo_selectfont } if } bind def
/Tm { 2 copy 8 2 roll 6 array astore /cairo_font_matrix exch def
      cairo_store_point /cairo_font where { pop cairo_selectfont } if } bind def
/g { setgray } bind def
/rg { setrgbcolor } bind def
/d1 { setcachedevice } bind def
%%EndProlog
%%Page: 1 1
%%BeginPageSetup
%%PageBoundingBox: 0 -1 43 75
%%EndPageSetup
q 0 -1 43 76 rectclip q
0 74.315 43 -75 re W n
0 g
29.355 35.108 m 29.355 64.022 l 29.355 69.698 24.738 74.315 19.062 
74.315 c 13.387 74.315 8.77 69.698 8.77 64.022 c 8.77 35.108 l 3.324 
31.612 0 25.596 0 19.061 c 0 8.55 8.551 -0.001 19.062 -0.001 c 29.574 
-0.001 38.125 8.55 38.125 19.061 c 38.125 25.596 34.801 31.612 29.355 
35.108 c h
19.062 4.971 m 11.293 4.971 4.973 11.292 4.973 19.061 c 4.973 24.268 
7.832 29.03 12.43 31.491 c 13.742 32.194 l 13.742 46.069 l 24.383 
46.069 l 24.383 32.194 l 25.695 31.491 l 30.297 29.03 33.152 24.268 
33.152 19.061 c 33.152 11.292 26.832 4.971 19.062 4.971 c h
19.062 4.971 m f
31.863 63.159 10.598 -4 re f
31.863 55.159 10.598 -4 re f
31.863 47.159 10.598 -4 re f
Q Q
showpage
%%Trailer
count op_count sub {pop} repeat
countdictstack dict_count sub {end} repeat
cairo_eps_state restore
%%EOF
