%!PS-Adobe-3.0 EPSF-3.0
%%Creator: cairo 1.10.2 (http://cairographics.org)
%%CreationDate: Fri Jul  4 08:49:24 2014
%%Pages: 1
%%BoundingBox: 0 -1 49 76
%%DocumentData: Clean7Bit
%%LanguageLevel: 2
%%EndComments
%%BeginProlog
/cairo_eps_state save def
/dict_count countdictstack def
/op_count count 1 sub def
userdict begin
/q { gsave } bind def
/Q { grestore } bind def
/cm { 6 array astore concat } bind def
/w { setlinewidth } bind def
/J { setlinecap } bind def
/j { setlinejoin } bind def
/M { setmiterlimit } bind def
/d { setdash } bind def
/m { moveto } bind def
/l { lineto } bind def
/c { curveto } bind def
/h { closepath } bind def
/re { exch dup neg 3 1 roll 5 3 roll moveto 0 rlineto
      0 exch rlineto 0 rlineto closepath } bind def
/S { stroke } bind def
/f { fill } bind def
/f* { eofill } bind def
/n { newpath } bind def
/W { clip } bind def
/W* { eoclip } bind def
/BT { } bind def
/ET { } bind def
/pdfmark where { pop globaldict /?pdfmark /exec load put }
    { globaldict begin /?pdfmark /pop load def /pdfmark
    /cleartomark load def end } ifelse
/BDC { mark 3 1 roll /BDC pdfmark } bind def
/EMC { mark /EMC pdfmark } bind def
/cairo_store_point { /cairo_point_y exch def /cairo_point_x exch def } def
/Tj { show currentpoint cairo_store_point } bind def
/TJ {
  {
    dup
    type /stringtype eq
    { show } { -0.001 mul 0 cairo_font_matrix dtransform rmoveto } ifelse
  } forall
  currentpoint cairo_store_point
} bind def
/cairo_selectfont { cairo_font_matrix aload pop pop pop 0 0 6 array astore
    cairo_font exch selectfont cairo_point_x cairo_point_y moveto } bind def
/Tf { pop /cairo_font exch def /cairo_font_matrix where
      { pop cairo_selectfont } if } bind def
/Td { matrix translate cairo_font_matrix matrix concatmatrix dup
      /cairo_font_matrix exch def dup 4 get exch 5 get cairo_store_point
      /cairo_font where { pop cairo_selectfont } if } bind def
/Tm { 2 copy 8 2 roll 6 array astore /cairo_font_matrix exch def
      cairo_store_point /cairo_font where { pop cairo_selectfont } if } bind def
/g { setgray } bind def
/rg { setrgbcolor } bind def
/d1 { setcachedevice } bind def
%%EndProlog
%%Page: 1 1
%%BeginPageSetup
%%PageBoundingBox: 0 -1 49 76
%%EndPageSetup
q 0 -1 49 77 rectclip q
0 75.3 49 -76 re W n
0 g
42.961 10.569 m 43.043 10.593 43.117 10.62 43.188 10.655 c 43.73 10.933 
44.117 11.745 44.293 12.898 c 44.02 13.366 43.727 13.851 43.406 14.339 
c 43.105 14.866 42.789 15.413 42.449 15.968 c 41.797 17.101 41.074 
18.304 40.359 19.616 c 39.992 20.257 39.609 20.929 39.246 21.624 c 
38.863 22.304 38.477 23.015 38.098 23.741 c 37.305 25.175 36.539 26.71 
35.727 28.257 c 35.328 29.038 34.941 29.843 34.43 30.589 c 33.965 
31.362 33.395 32.097 32.785 32.831 c 31.824 34.007 30.68 35.148 29.605 
36.335 c 28.188 34.663 28.387 28.667 32.07 21.378 c 35.996 13.616 41 
10.062 42.961 10.569 c h
42.961 10.569 m f
47.422 7.733 m 47.145 8.245 l 47.145 8.245 47.035 8.444 46.836 8.784 c 
46.332 8.081 45.715 7.519 44.965 7.136 c 44.645 6.976 44.305 6.847 
43.953 6.757 c 38.543 5.347 32.176 12.429 28.551 19.605 c 24.82 26.983 
23.266 35.995 27.129 39.444 c 26.57 40.292 26.082 41.159 25.688 42.038 
c 24.973 43.718 24.355 45.37 23.867 46.972 c 23.367 48.569 22.984 
50.105 22.688 51.534 c 22.094 54.394 21.91 56.831 21.879 58.519 c 
21.871 59.362 21.812 63.323 21.805 63.355 c 23.621 64.183 l 23.621 
64.183 26.711 73.933 20.73 75.3 c 13.797 73.8 10.523 74.03 10.523 74.03 
c 7.59 73.269 5.672 70.593 5.738 67.691 c 0 64.386 l 6.449 64.296 l 
7.234 61.589 9.664 59.78 12.359 59.683 c 12.387 59.593 12.414 59.495 
12.445 59.382 c 12.594 58.882 12.797 58.171 13.031 57.273 c 13.496 
55.476 14.113 52.941 14.738 49.89 c 15.07 48.366 15.379 46.706 15.73 
44.948 c 16.059 43.179 16.406 41.316 16.766 39.386 c 17.117 37.441 
17.23 35.343 17.27 33.128 c 17.285 32.019 17.285 30.882 17.348 29.749 c 
17.379 28.608 17.48 27.464 17.664 26.351 c 17.844 25.237 18.125 24.144 
18.48 23.093 c 18.863 22.042 19.316 21.034 19.836 20.062 c 20.855 
18.101 21.988 16.222 23.211 14.464 c 24.43 12.71 25.734 11.077 27.094 
9.62 c 28.438 8.155 29.84 6.862 31.203 5.757 c 31.902 5.21 32.555 4.687 
33.219 4.226 c 33.887 3.773 34.535 3.358 35.145 2.983 c 36.363 2.226 
37.535 1.702 38.449 1.253 c 39.414 0.847 40.199 0.589 40.723 0.409 c 
41.246 0.226 41.535 0.155 41.535 0.155 c 42.758 -0.145 44.098 -0.017 
45.293 0.628 c 47.844 1.999 48.797 5.183 47.422 7.733 c h
47.422 7.733 m f
Q Q
showpage
%%Trailer
count op_count sub {pop} repeat
countdictstack dict_count sub {end} repeat
cairo_eps_state restore
%%EOF
