%!PS-Adobe-3.0 EPSF-3.0
%%Creator: cairo 1.10.2 (http://cairographics.org)
%%CreationDate: Fri Jul  4 08:48:04 2014
%%Pages: 1
%%BoundingBox: 0 -1 56 75
%%DocumentData: Clean7Bit
%%LanguageLevel: 2
%%EndComments
%%BeginProlog
/cairo_eps_state save def
/dict_count countdictstack def
/op_count count 1 sub def
userdict begin
/q { gsave } bind def
/Q { grestore } bind def
/cm { 6 array astore concat } bind def
/w { setlinewidth } bind def
/J { setlinecap } bind def
/j { setlinejoin } bind def
/M { setmiterlimit } bind def
/d { setdash } bind def
/m { moveto } bind def
/l { lineto } bind def
/c { curveto } bind def
/h { closepath } bind def
/re { exch dup neg 3 1 roll 5 3 roll moveto 0 rlineto
      0 exch rlineto 0 rlineto closepath } bind def
/S { stroke } bind def
/f { fill } bind def
/f* { eofill } bind def
/n { newpath } bind def
/W { clip } bind def
/W* { eoclip } bind def
/BT { } bind def
/ET { } bind def
/pdfmark where { pop globaldict /?pdfmark /exec load put }
    { globaldict begin /?pdfmark /pop load def /pdfmark
    /cleartomark load def end } ifelse
/BDC { mark 3 1 roll /BDC pdfmark } bind def
/EMC { mark /EMC pdfmark } bind def
/cairo_store_point { /cairo_point_y exch def /cairo_point_x exch def } def
/Tj { show currentpoint cairo_store_point } bind def
/TJ {
  {
    dup
    type /stringtype eq
    { show } { -0.001 mul 0 cairo_font_matrix dtransform rmoveto } ifelse
  } forall
  currentpoint cairo_store_point
} bind def
/cairo_selectfont { cairo_font_matrix aload pop pop pop 0 0 6 array astore
    cairo_font exch selectfont cairo_point_x cairo_point_y moveto } bind def
/Tf { pop /cairo_font exch def /cairo_font_matrix where
      { pop cairo_selectfont } if } bind def
/Td { matrix translate cairo_font_matrix matrix concatmatrix dup
      /cairo_font_matrix exch def dup 4 get exch 5 get cairo_store_point
      /cairo_font where { pop cairo_selectfont } if } bind def
/Tm { 2 copy 8 2 roll 6 array astore /cairo_font_matrix exch def
      cairo_store_point /cairo_font where { pop cairo_selectfont } if } bind def
/g { setgray } bind def
/rg { setrgbcolor } bind def
/d1 { setcachedevice } bind def
%%EndProlog
%%Page: 1 1
%%BeginPageSetup
%%PageBoundingBox: 0 -1 56 75
%%EndPageSetup
q 0 -1 56 76 rectclip q
0 74.398 56 -75 re W n
0 g
32.957 63.316 m 32.957 63.316 10.492 34.875 10.492 22.465 c 10.492 
10.055 20.551 -0 32.957 -0 c 45.367 -0 55.426 10.055 55.426 22.465 c 
55.426 34.875 32.957 63.316 32.957 63.316 c h
32.785 8.504 m 25.113 8.504 18.871 14.746 18.871 22.422 c 18.871 23.672 
19.887 24.691 21.141 24.691 c 22.395 24.691 23.41 23.672 23.41 22.422 c 
23.41 17.25 27.617 13.043 32.785 13.043 c 34.039 13.043 35.059 12.027 
35.059 10.773 c 35.059 9.523 34.039 8.504 32.785 8.504 c h
32.785 8.504 m f
5.66 46.793 m 5.66 47.641 6.344 48.324 7.191 48.324 c 8.039 48.324 
8.723 47.641 8.723 46.793 c 8.723 44.172 10.324 41.918 12.594 40.961 c 
16.535 48.137 21.449 55.262 25.004 60.133 c 20.633 67.477 15.168 74.398 
15.168 74.398 c 15.168 74.398 0 55.199 0 46.824 c 0 40.742 3.586 35.516 
8.75 33.094 c 9.453 34.777 10.27 36.508 11.16 38.254 c 7.922 39.734 
5.66 43.004 5.66 46.793 c h
5.66 46.793 m f
Q Q
showpage
%%Trailer
count op_count sub {pop} repeat
countdictstack dict_count sub {end} repeat
cairo_eps_state restore
%%EOF
