%!PS-Adobe-3.0 EPSF-3.0
%%Creator: cairo 1.10.2 (http://cairographics.org)
%%CreationDate: Fri Jul  4 08:47:33 2014
%%Pages: 1
%%BoundingBox: 0 -1 71 76
%%DocumentData: Clean7Bit
%%LanguageLevel: 2
%%EndComments
%%BeginProlog
/cairo_eps_state save def
/dict_count countdictstack def
/op_count count 1 sub def
userdict begin
/q { gsave } bind def
/Q { grestore } bind def
/cm { 6 array astore concat } bind def
/w { setlinewidth } bind def
/J { setlinecap } bind def
/j { setlinejoin } bind def
/M { setmiterlimit } bind def
/d { setdash } bind def
/m { moveto } bind def
/l { lineto } bind def
/c { curveto } bind def
/h { closepath } bind def
/re { exch dup neg 3 1 roll 5 3 roll moveto 0 rlineto
      0 exch rlineto 0 rlineto closepath } bind def
/S { stroke } bind def
/f { fill } bind def
/f* { eofill } bind def
/n { newpath } bind def
/W { clip } bind def
/W* { eoclip } bind def
/BT { } bind def
/ET { } bind def
/pdfmark where { pop globaldict /?pdfmark /exec load put }
    { globaldict begin /?pdfmark /pop load def /pdfmark
    /cleartomark load def end } ifelse
/BDC { mark 3 1 roll /BDC pdfmark } bind def
/EMC { mark /EMC pdfmark } bind def
/cairo_store_point { /cairo_point_y exch def /cairo_point_x exch def } def
/Tj { show currentpoint cairo_store_point } bind def
/TJ {
  {
    dup
    type /stringtype eq
    { show } { -0.001 mul 0 cairo_font_matrix dtransform rmoveto } ifelse
  } forall
  currentpoint cairo_store_point
} bind def
/cairo_selectfont { cairo_font_matrix aload pop pop pop 0 0 6 array astore
    cairo_font exch selectfont cairo_point_x cairo_point_y moveto } bind def
/Tf { pop /cairo_font exch def /cairo_font_matrix where
      { pop cairo_selectfont } if } bind def
/Td { matrix translate cairo_font_matrix matrix concatmatrix dup
      /cairo_font_matrix exch def dup 4 get exch 5 get cairo_store_point
      /cairo_font where { pop cairo_selectfont } if } bind def
/Tm { 2 copy 8 2 roll 6 array astore /cairo_font_matrix exch def
      cairo_store_point /cairo_font where { pop cairo_selectfont } if } bind def
/g { setgray } bind def
/rg { setrgbcolor } bind def
/d1 { setcachedevice } bind def
%%EndProlog
%%Page: 1 1
%%BeginPageSetup
%%PageBoundingBox: 0 -1 71 76
%%EndPageSetup
q 0 -1 71 77 rectclip q
0 75.862 71 -76 re W n
0 g
65.207 57.456 m 68.07 57.456 70.391 59.776 70.391 62.636 c 70.391 
65.499 68.066 67.819 65.207 67.819 c 62.344 67.819 60.023 65.499 60.023 
62.636 c 60.023 61.519 60.379 60.487 60.98 59.64 c 54.211 54.362 41.207 
47.245 36.484 65.608 c 38.832 66.101 40.594 68.183 40.594 70.679 c 
40.594 73.542 38.273 75.862 35.41 75.862 c 32.551 75.862 30.23 73.542 
30.23 70.679 c 30.23 67.816 32.547 65.495 35.41 65.495 c 35.59 65.495 
35.766 65.507 35.941 65.523 c 35.754 52.214 36.215 40.077 22.109 47.808 
c 22.332 48.382 22.457 49.007 22.457 49.659 c 22.457 52.523 20.137 
54.843 17.273 54.843 c 14.41 54.843 12.09 52.523 12.09 49.659 c 12.09 
46.796 14.41 44.476 17.273 44.476 c 18.848 44.476 20.25 45.179 21.203 
46.284 c 29.836 36.062 25.617 33.995 10.277 33.804 c 10.332 34.105 
10.367 34.417 10.367 34.737 c 10.367 37.601 8.047 39.921 5.184 39.921 c 
2.32 39.921 0 37.601 0 34.737 c 0 31.874 2.32 29.554 5.184 29.554 c 
7.637 29.554 9.684 31.257 10.223 33.546 c 20.496 29.933 23.121 26.796 
18.633 19.706 c 17.77 20.351 16.703 20.733 15.547 20.733 c 12.684 
20.733 10.363 18.413 10.363 15.55 c 10.363 12.687 12.684 10.366 15.547 
10.366 c 18.41 10.366 20.73 12.687 20.73 15.55 c 20.73 16.761 20.312 
17.87 19.617 18.753 c 30.238 26.573 35.27 26.386 35.824 10.265 c 33.453 
9.788 31.668 7.694 31.668 5.183 c 31.668 2.319 33.988 -0.001 36.852 
-0.001 c 39.715 -0.001 42.035 2.319 42.035 5.183 c 42.035 7.503 40.508 
9.472 38.402 10.128 c 43.059 18.304 47.07 19.608 55.422 15.429 c 55.145 
14.796 54.992 14.097 54.992 13.362 c 54.992 10.499 57.312 8.179 60.176 
8.179 c 63.035 8.179 65.359 10.499 65.359 13.362 c 65.359 16.226 63.039 
18.546 60.176 18.546 c 58.586 18.546 57.168 17.831 56.215 16.706 c 
50.074 23.007 45.402 31.581 57.07 35.366 c 57.59 33.05 59.652 31.319 
62.125 31.319 c 64.988 31.319 67.309 33.64 67.309 36.499 c 67.309 
39.362 64.988 41.683 62.125 41.683 c 59.863 41.683 57.945 40.233 57.238 
38.214 c 49.656 43.577 56.434 53.605 61.293 59.241 c 62.246 58.148 
63.645 57.456 65.207 57.456 c h
30.938 29.73 m 29.789 29.73 28.855 30.663 28.855 31.812 c 28.855 32.96 
29.789 33.89 30.938 33.89 c 32.086 33.89 33.016 32.96 33.016 31.812 c 
33.016 30.663 32.086 29.73 30.938 29.73 c h
42.035 39.487 m 40.34 39.487 38.969 40.858 38.969 42.558 c 38.969 
44.253 40.34 45.624 42.035 45.624 c 43.73 45.624 45.105 44.253 45.105 
42.558 c 45.105 40.858 43.73 39.487 42.035 39.487 c h
42.035 39.487 m f
Q Q
showpage
%%Trailer
count op_count sub {pop} repeat
countdictstack dict_count sub {end} repeat
cairo_eps_state restore
%%EOF
