%!PS-Adobe-3.0 EPSF-3.0
%%Creator: cairo 1.10.2 (http://cairographics.org)
%%CreationDate: Fri Jul  4 08:49:07 2014
%%Pages: 1
%%BoundingBox: 0 0 75 57
%%DocumentData: Clean7Bit
%%LanguageLevel: 2
%%EndComments
%%BeginProlog
/cairo_eps_state save def
/dict_count countdictstack def
/op_count count 1 sub def
userdict begin
/q { gsave } bind def
/Q { grestore } bind def
/cm { 6 array astore concat } bind def
/w { setlinewidth } bind def
/J { setlinecap } bind def
/j { setlinejoin } bind def
/M { setmiterlimit } bind def
/d { setdash } bind def
/m { moveto } bind def
/l { lineto } bind def
/c { curveto } bind def
/h { closepath } bind def
/re { exch dup neg 3 1 roll 5 3 roll moveto 0 rlineto
      0 exch rlineto 0 rlineto closepath } bind def
/S { stroke } bind def
/f { fill } bind def
/f* { eofill } bind def
/n { newpath } bind def
/W { clip } bind def
/W* { eoclip } bind def
/BT { } bind def
/ET { } bind def
/pdfmark where { pop globaldict /?pdfmark /exec load put }
    { globaldict begin /?pdfmark /pop load def /pdfmark
    /cleartomark load def end } ifelse
/BDC { mark 3 1 roll /BDC pdfmark } bind def
/EMC { mark /EMC pdfmark } bind def
/cairo_store_point { /cairo_point_y exch def /cairo_point_x exch def } def
/Tj { show currentpoint cairo_store_point } bind def
/TJ {
  {
    dup
    type /stringtype eq
    { show } { -0.001 mul 0 cairo_font_matrix dtransform rmoveto } ifelse
  } forall
  currentpoint cairo_store_point
} bind def
/cairo_selectfont { cairo_font_matrix aload pop pop pop 0 0 6 array astore
    cairo_font exch selectfont cairo_point_x cairo_point_y moveto } bind def
/Tf { pop /cairo_font exch def /cairo_font_matrix where
      { pop cairo_selectfont } if } bind def
/Td { matrix translate cairo_font_matrix matrix concatmatrix dup
      /cairo_font_matrix exch def dup 4 get exch 5 get cairo_store_point
      /cairo_font where { pop cairo_selectfont } if } bind def
/Tm { 2 copy 8 2 roll 6 array astore /cairo_font_matrix exch def
      cairo_store_point /cairo_font where { pop cairo_selectfont } if } bind def
/g { setgray } bind def
/rg { setrgbcolor } bind def
/d1 { setcachedevice } bind def
%%EndProlog
%%Page: 1 1
%%BeginPageSetup
%%PageBoundingBox: 0 0 75 57
%%EndPageSetup
q 0 0 75 57 rectclip q
0 g
73.68 24.558 m 72.434 25.288 70.832 24.874 70.098 23.628 c 66.602 
17.695 65.152 15.749 64.199 16.066 c 63.25 16.386 62.789 18.597 62.23 
20.07 c 60.512 24.589 58.156 30.777 52.527 32.628 c 45.555 35.066 
43.066 28.023 41.582 23.812 c 39.777 18.698 38.922 17.554 37.273 17.808 
c 35.797 18.038 35.289 23.745 34.945 26.484 c 34.141 32.843 33.023 
41.538 25.645 41.132 c 25.613 41.128 25.586 41.128 25.559 41.124 c 
21.59 40.765 19.871 36.566 18.047 32.12 c 15.344 25.527 13.68 22.878 
10.398 23.55 c 6.434 24.417 6.359 30.386 6.66 37.511 c 6.75 39.616 
6.824 41.437 6.688 42.941 c 6.559 44.382 5.281 45.433 3.848 45.308 c 
2.41 45.179 1.348 43.906 1.48 42.468 c 1.586 41.308 1.512 39.57 1.434 
37.73 c 1.141 30.796 0.699 20.316 9.312 18.433 c 17.41 16.773 20.707 
24.816 22.891 30.136 c 23.68 32.07 24.91 35.827 26.016 35.913 c 28.297 
35.933 29.031 31.558 29.754 25.827 c 30.516 19.831 31.301 13.628 36.234 
12.683 c 42.715 11.308 45.004 17.784 46.516 22.07 c 48.57 27.89 49.289 
28.222 50.82 27.683 c 50.84 27.675 50.859 27.667 50.879 27.663 c 54.148 
26.597 55.844 22.14 57.34 18.206 c 58.828 14.3 60.234 10.609 63.664 
10.32 c 63.801 10.308 63.938 10.3 64.078 10.3 c 67.16 10.304 70.074 
13.281 74.605 20.976 c 75.34 22.222 74.926 23.823 73.68 24.558 c h
73.68 24.558 m f
25.215 9.882 m 22.203 8.573 20.039 5.933 16.559 5.8 c 13.887 5.698 
11.844 8.304 9.332 8.929 c 5.453 9.894 2.582 6.456 0.516 3.745 c -1.527 
1.058 3.02 -1.54 5.035 1.105 c 5.578 1.82 6.84 3.734 7.902 3.847 c 
8.535 3.917 9.273 3.292 9.797 2.964 c 12.098 1.515 14.383 0.488 17.16 
0.593 c 20.047 0.702 22.609 2.05 24.941 3.636 c 27.562 5.413 28.559 
5.874 31.008 3.452 c 33.406 1.077 37.105 4.777 34.707 7.152 c 32.059 
9.773 28.875 11.468 25.215 9.882 c h
25.215 9.882 m f
29.035 46.042 m 31.055 43.948 34.199 43.788 36.738 44.925 c 38.801 
45.847 40.281 47.554 41.805 49.167 c 43.637 51.105 45.051 50.691 46.582 
48.37 c 47.633 46.781 48.113 44.675 49.301 43.07 c 50.875 40.941 53.203 
40.683 55.637 41.316 c 56.93 41.652 58.379 42.257 59.414 43.105 c 
59.883 43.488 60.211 43.866 60.582 44.347 c 60.73 44.538 60.809 44.663 
60.852 44.749 c 60.859 44.726 63.191 39.878 65.93 38.488 c 68.934 36.96 
71.582 41.472 68.57 43.003 c 66.539 44.034 65.906 47.132 64.25 48.706 c 
62.297 50.566 59.246 50.386 57.34 48.632 c 56.34 47.706 56.234 47.101 
54.879 46.57 c 54.445 46.398 53.961 46.241 53.488 46.195 c 53.465 46.23 
51.684 50.304 50.336 52.007 c 46.863 56.398 42.082 56.929 38.105 52.866 
c 36.957 51.691 35.25 49.097 33.297 49.433 c 31.629 49.722 30.277 53.64 
29.359 54.882 c 27.379 57.562 22.836 54.96 24.844 52.241 c 26.336 
50.222 27.277 47.866 29.035 46.042 c h
29.035 46.042 m f
Q Q
showpage
%%Trailer
count op_count sub {pop} repeat
countdictstack dict_count sub {end} repeat
cairo_eps_state restore
%%EOF
