%!PS-Adobe-3.0 EPSF-3.0
%%Creator: cairo 1.10.2 (http://cairographics.org)
%%CreationDate: Fri Jul  4 08:47:54 2014
%%Pages: 1
%%BoundingBox: 0 -1 60 76
%%DocumentData: Clean7Bit
%%LanguageLevel: 2
%%EndComments
%%BeginProlog
/cairo_eps_state save def
/dict_count countdictstack def
/op_count count 1 sub def
userdict begin
/q { gsave } bind def
/Q { grestore } bind def
/cm { 6 array astore concat } bind def
/w { setlinewidth } bind def
/J { setlinecap } bind def
/j { setlinejoin } bind def
/M { setmiterlimit } bind def
/d { setdash } bind def
/m { moveto } bind def
/l { lineto } bind def
/c { curveto } bind def
/h { closepath } bind def
/re { exch dup neg 3 1 roll 5 3 roll moveto 0 rlineto
      0 exch rlineto 0 rlineto closepath } bind def
/S { stroke } bind def
/f { fill } bind def
/f* { eofill } bind def
/n { newpath } bind def
/W { clip } bind def
/W* { eoclip } bind def
/BT { } bind def
/ET { } bind def
/pdfmark where { pop globaldict /?pdfmark /exec load put }
    { globaldict begin /?pdfmark /pop load def /pdfmark
    /cleartomark load def end } ifelse
/BDC { mark 3 1 roll /BDC pdfmark } bind def
/EMC { mark /EMC pdfmark } bind def
/cairo_store_point { /cairo_point_y exch def /cairo_point_x exch def } def
/Tj { show currentpoint cairo_store_point } bind def
/TJ {
  {
    dup
    type /stringtype eq
    { show } { -0.001 mul 0 cairo_font_matrix dtransform rmoveto } ifelse
  } forall
  currentpoint cairo_store_point
} bind def
/cairo_selectfont { cairo_font_matrix aload pop pop pop 0 0 6 array astore
    cairo_font exch selectfont cairo_point_x cairo_point_y moveto } bind def
/Tf { pop /cairo_font exch def /cairo_font_matrix where
      { pop cairo_selectfont } if } bind def
/Td { matrix translate cairo_font_matrix matrix concatmatrix dup
      /cairo_font_matrix exch def dup 4 get exch 5 get cairo_store_point
      /cairo_font where { pop cairo_selectfont } if } bind def
/Tm { 2 copy 8 2 roll 6 array astore /cairo_font_matrix exch def
      cairo_store_point /cairo_font where { pop cairo_selectfont } if } bind def
/g { setgray } bind def
/rg { setrgbcolor } bind def
/d1 { setcachedevice } bind def
%%EndProlog
%%Page: 1 1
%%BeginPageSetup
%%PageBoundingBox: 0 -1 60 76
%%EndPageSetup
q 0 -1 60 77 rectclip q
0 75.2 60 -76 re W n
0 g
0 75.2 m 0 0.001 l 59.332 0.001 l 59.332 75.2 l h
44.98 28.977 m 44.98 25.696 l 35.133 25.696 l 35.133 40.727 l 39.191 
40.727 l 39.191 28.977 l h
14.336 8.266 m 10.973 8.266 l 8.793 12.481 l 7.91 11.954 l 7.91 8.266 l 
4.914 8.266 l 4.914 19.294 l 7.91 19.294 l 7.91 14.501 l 11.141 19.294 
l 14.398 19.294 l 10.922 14.352 l h
26.09 16.903 m 22.523 16.903 l 22.523 15.169 l 25.828 15.169 l 25.828 
12.774 l 22.523 12.774 l 22.523 10.692 l 26.09 10.692 l 26.09 8.262 l 
19.543 8.262 l 19.543 19.294 l 26.09 19.294 l h
26.414 25.696 m 22.332 25.696 l 22.332 31.825 l 17.613 31.825 l 17.613 
25.696 l 13.535 25.696 l 13.535 40.727 l 17.613 40.727 l 17.613 35.153 
l 22.332 35.153 l 22.332 40.727 l 26.414 40.727 l h
22.469 49.427 m 20.805 51.192 19.977 53.712 19.977 56.981 c 19.977 
60.169 20.883 62.649 22.703 64.423 c 24.523 66.2 27.074 67.087 30.352 
67.087 c 31.594 67.087 32.766 66.97 33.871 66.735 c 34.973 66.501 
35.934 66.204 36.754 65.845 c 35.066 61.657 l 33.641 62.356 32.078 
62.708 30.379 62.708 c 28.82 62.708 27.613 62.204 26.762 61.188 c 25.91 
60.177 25.488 58.727 25.488 56.845 c 25.488 55.001 25.871 53.591 26.641 
52.622 c 27.41 51.657 28.523 51.173 29.969 51.173 c 30.762 51.173 
31.492 51.247 32.16 51.399 c 32.16 54.493 l 28.633 54.493 l 28.633 
58.614 l 37.16 58.614 l 37.16 47.97 l 34.844 47.177 32.301 46.778 
29.523 46.778 c 26.48 46.778 24.129 47.665 22.469 49.427 c h
39.262 8.266 m 32.035 8.266 l 32.035 19.294 l 35.012 19.294 l 35.012 
10.669 l 39.262 10.669 l h
54.414 12.657 m 54.414 11.212 54.008 10.095 53.191 9.302 c 52.371 8.509 
51.195 8.114 49.656 8.114 c 48.152 8.114 46.996 8.497 46.191 9.266 c 
45.383 10.036 44.98 11.145 44.98 12.587 c 44.98 19.294 l 47.973 19.294 
l 47.973 12.821 l 47.973 12.04 48.117 11.473 48.41 11.122 c 48.703 
10.77 49.133 10.595 49.699 10.595 c 50.309 10.595 50.75 10.77 51.023 
11.118 c 51.297 11.47 51.438 12.04 51.438 12.837 c 51.438 19.294 l 
54.414 19.294 l h
54.414 12.657 m f
Q Q
showpage
%%Trailer
count op_count sub {pop} repeat
countdictstack dict_count sub {end} repeat
cairo_eps_state restore
%%EOF
