%!PS-Adobe-3.0 EPSF-3.0
%%Creator: cairo 1.10.2 (http://cairographics.org)
%%CreationDate: Fri Jul  4 08:47:49 2014
%%Pages: 1
%%BoundingBox: 0 -1 78 71
%%DocumentData: Clean7Bit
%%LanguageLevel: 2
%%EndComments
%%BeginProlog
/cairo_eps_state save def
/dict_count countdictstack def
/op_count count 1 sub def
userdict begin
/q { gsave } bind def
/Q { grestore } bind def
/cm { 6 array astore concat } bind def
/w { setlinewidth } bind def
/J { setlinecap } bind def
/j { setlinejoin } bind def
/M { setmiterlimit } bind def
/d { setdash } bind def
/m { moveto } bind def
/l { lineto } bind def
/c { curveto } bind def
/h { closepath } bind def
/re { exch dup neg 3 1 roll 5 3 roll moveto 0 rlineto
      0 exch rlineto 0 rlineto closepath } bind def
/S { stroke } bind def
/f { fill } bind def
/f* { eofill } bind def
/n { newpath } bind def
/W { clip } bind def
/W* { eoclip } bind def
/BT { } bind def
/ET { } bind def
/pdfmark where { pop globaldict /?pdfmark /exec load put }
    { globaldict begin /?pdfmark /pop load def /pdfmark
    /cleartomark load def end } ifelse
/BDC { mark 3 1 roll /BDC pdfmark } bind def
/EMC { mark /EMC pdfmark } bind def
/cairo_store_point { /cairo_point_y exch def /cairo_point_x exch def } def
/Tj { show currentpoint cairo_store_point } bind def
/TJ {
  {
    dup
    type /stringtype eq
    { show } { -0.001 mul 0 cairo_font_matrix dtransform rmoveto } ifelse
  } forall
  currentpoint cairo_store_point
} bind def
/cairo_selectfont { cairo_font_matrix aload pop pop pop 0 0 6 array astore
    cairo_font exch selectfont cairo_point_x cairo_point_y moveto } bind def
/Tf { pop /cairo_font exch def /cairo_font_matrix where
      { pop cairo_selectfont } if } bind def
/Td { matrix translate cairo_font_matrix matrix concatmatrix dup
      /cairo_font_matrix exch def dup 4 get exch 5 get cairo_store_point
      /cairo_font where { pop cairo_selectfont } if } bind def
/Tm { 2 copy 8 2 roll 6 array astore /cairo_font_matrix exch def
      cairo_store_point /cairo_font where { pop cairo_selectfont } if } bind def
/g { setgray } bind def
/rg { setrgbcolor } bind def
/d1 { setcachedevice } bind def
%%EndProlog
%%Page: 1 1
%%BeginPageSetup
%%PageBoundingBox: 0 -1 78 71
%%EndPageSetup
q 0 -1 78 72 rectclip q
0 70.729 78 -71 re W n
0 g
76.918 37.268 m 58.668 69.045 l 58.07 70.084 56.953 70.729 55.754 
70.729 c 55.172 70.729 54.594 70.576 54.086 70.283 c 48.543 67.1 l 
47.066 66.252 46.477 64.448 47.109 62.916 c 46.141 62.362 44.727 61.838 
42.832 61.838 c 39.578 61.838 35.812 63.33 31.703 66.233 c 31.145 
66.709 28.184 69.1 24.824 69.1 c 23.641 69.1 22.531 68.807 21.52 68.225 
c 20.418 67.592 18.543 65.787 18.516 63.041 c 18.488 59.619 21.355 
55.971 27.035 52.19 c 26.734 51.975 26.41 51.764 26.059 51.565 c 5.586 
39.803 l 2.145 37.826 0.949 33.416 2.926 29.975 c 3.41 29.139 4.043 
28.416 4.801 27.842 c 3.711 27.217 l 0.176 25.186 -1.051 20.655 0.98 
17.116 c 2.297 14.826 4.762 13.405 7.41 13.405 c 8.691 13.405 9.957 
13.741 11.07 14.381 c 11.188 13.576 11.438 12.819 11.809 12.17 c 13.195 
9.752 15.742 8.194 18.293 8.194 c 19.324 8.194 20.277 8.44 21.133 8.932 
c 24.543 10.889 l 24.664 10.229 24.898 9.592 25.238 9.002 c 25.453 
8.631 l 26.531 6.748 28.555 5.58 30.727 5.58 c 31.785 5.58 32.828 5.862 
33.746 6.389 c 51.672 16.686 l 52.207 16.983 52.746 17.291 53.273 
17.604 c 54.695 18.44 l 54.68 18.467 l 57.316 20.131 59.258 21.705 
60.457 23.143 c 61.992 24.967 62.734 26.248 63.344 27.299 c 64.023 
28.471 64.434 29.178 65.875 30.276 c 66.508 29.514 67.457 29.057 68.469 
29.057 c 69.051 29.057 69.629 29.209 70.137 29.502 c 75.68 32.686 l 
77.285 33.608 77.84 35.662 76.918 37.268 c h
59.516 29.494 m 58.977 28.569 58.367 27.518 57.074 25.979 c 56.336 
25.096 55.145 24.096 53.582 23.022 c 53.582 37.26 l 52.016 37.26 l 
50.98 29.201 l 50.391 28.518 48.371 26.104 48.371 24.791 c 48.371 
23.635 49.082 22.643 50.09 22.225 c 49.898 20.752 l 49.824 20.709 
49.758 20.67 49.684 20.627 c 48.793 20.131 l 48.832 20.092 l 31.57 
10.174 l 30.777 9.721 29.688 10.026 29.242 10.803 c 29.023 11.182 l 
28.797 11.573 28.738 12.033 28.859 12.475 c 28.977 12.916 29.258 13.283 
29.652 13.51 c 39.117 18.948 l 36.691 22.951 l 18.934 12.76 l 18.766 
12.662 18.555 12.612 18.316 12.612 c 17.363 12.612 16.215 13.366 15.641 
14.366 c 15.164 15.194 15.398 16.866 16.285 17.373 c 30.051 25.28 l 
27.852 29.108 l 8.879 18.213 l 8.43 17.955 7.918 17.819 7.402 17.819 c 
6.332 17.819 5.34 18.393 4.812 19.315 c 4.414 20.002 4.312 20.807 4.52 
21.576 c 4.73 22.346 5.223 22.987 5.914 23.385 c 27.219 35.623 l 25.023 
39.451 l 10.555 31.143 l 10.137 30.905 9.66 30.776 9.176 30.776 c 8.18 
30.776 7.254 31.311 6.758 32.174 c 5.996 33.502 6.457 35.205 7.785 
35.971 c 28.266 47.733 l 31.34 49.498 32.32 51.346 32.488 51.701 c 
33.324 53.506 l 31.613 54.526 l 23.535 59.35 22.93 62.233 22.938 63.002 
c 22.945 63.893 23.707 64.385 23.727 64.397 c 24.055 64.584 24.422 
64.678 24.848 64.678 c 26.414 64.678 28.266 63.369 28.875 62.838 c 
29.035 62.713 l 34.977 58.502 40.473 56.791 45.25 57.635 c 46.688 
57.889 48.039 58.373 49.277 59.084 c 63.625 34.104 l 61.316 32.424 
60.512 31.217 59.516 29.494 c h
59.516 29.494 m f
48.168 5.709 m 48.168 2.557 50.727 -0.002 53.883 -0.002 c 57.035 -0.002 
59.594 2.557 59.594 5.709 c 59.594 8.866 53.883 15.162 53.883 15.162 c 
53.883 15.162 48.168 8.866 48.168 5.709 c h
48.168 5.709 m f
Q Q
showpage
%%Trailer
count op_count sub {pop} repeat
countdictstack dict_count sub {end} repeat
cairo_eps_state restore
%%EOF
