%!PS-Adobe-3.0 EPSF-3.0
%%Creator: cairo 1.10.2 (http://cairographics.org)
%%CreationDate: Fri Jul  4 09:52:52 2014
%%Pages: 1
%%BoundingBox: 0 -1 76 75
%%DocumentData: Clean7Bit
%%LanguageLevel: 2
%%EndComments
%%BeginProlog
/cairo_eps_state save def
/dict_count countdictstack def
/op_count count 1 sub def
userdict begin
/q { gsave } bind def
/Q { grestore } bind def
/cm { 6 array astore concat } bind def
/w { setlinewidth } bind def
/J { setlinecap } bind def
/j { setlinejoin } bind def
/M { setmiterlimit } bind def
/d { setdash } bind def
/m { moveto } bind def
/l { lineto } bind def
/c { curveto } bind def
/h { closepath } bind def
/re { exch dup neg 3 1 roll 5 3 roll moveto 0 rlineto
      0 exch rlineto 0 rlineto closepath } bind def
/S { stroke } bind def
/f { fill } bind def
/f* { eofill } bind def
/n { newpath } bind def
/W { clip } bind def
/W* { eoclip } bind def
/BT { } bind def
/ET { } bind def
/pdfmark where { pop globaldict /?pdfmark /exec load put }
    { globaldict begin /?pdfmark /pop load def /pdfmark
    /cleartomark load def end } ifelse
/BDC { mark 3 1 roll /BDC pdfmark } bind def
/EMC { mark /EMC pdfmark } bind def
/cairo_store_point { /cairo_point_y exch def /cairo_point_x exch def } def
/Tj { show currentpoint cairo_store_point } bind def
/TJ {
  {
    dup
    type /stringtype eq
    { show } { -0.001 mul 0 cairo_font_matrix dtransform rmoveto } ifelse
  } forall
  currentpoint cairo_store_point
} bind def
/cairo_selectfont { cairo_font_matrix aload pop pop pop 0 0 6 array astore
    cairo_font exch selectfont cairo_point_x cairo_point_y moveto } bind def
/Tf { pop /cairo_font exch def /cairo_font_matrix where
      { pop cairo_selectfont } if } bind def
/Td { matrix translate cairo_font_matrix matrix concatmatrix dup
      /cairo_font_matrix exch def dup 4 get exch 5 get cairo_store_point
      /cairo_font where { pop cairo_selectfont } if } bind def
/Tm { 2 copy 8 2 roll 6 array astore /cairo_font_matrix exch def
      cairo_store_point /cairo_font where { pop cairo_selectfont } if } bind def
/g { setgray } bind def
/rg { setrgbcolor } bind def
/d1 { setcachedevice } bind def
%%EndProlog
%%Page: 1 1
%%BeginPageSetup
%%PageBoundingBox: 0 -1 76 75
%%EndPageSetup
q 0 -1 76 76 rectclip q
0 74.626 76 -75 re W n
0 g
74.125 3.438 m 61.211 25.028 l 60.43 26.337 59.27 27.262 57.961 27.801 
c 49.109 31.88 l 44.859 35.465 l 37.551 28.196 l 30.227 35.465 l 25.973 
31.88 l 17.125 27.801 l 15.812 27.262 14.652 26.337 13.871 25.028 c 
0.957 3.438 l 0.324 2.38 0.008 1.192 0 0.001 c 75.082 0.001 l 75.074 
1.192 74.758 2.38 74.125 3.438 c h
74.125 3.438 m f
29.879 37.59 m 32.07 35.954 34.641 35.153 37.512 35.094 c 37.52 35.094 
l 37.523 35.09 37.527 35.09 37.531 35.09 c 37.551 35.09 l 37.555 35.09 
37.559 35.09 37.562 35.094 c 37.57 35.094 l 40.441 35.153 43.012 35.954 
45.203 37.59 c 50.254 32.926 64.887 29.821 59.098 33.934 c 52.223 
38.821 53.059 54.922 53.059 54.922 c 53.168 56.172 53.223 57.469 53.219 
58.809 c 53.219 59.313 53.191 59.801 53.16 60.29 c 53.039 62.712 52.441 
64.481 52.441 64.481 c 50.555 70.883 45.293 74.567 37.57 74.626 c 
37.559 74.626 37.551 74.626 37.539 74.626 c 37.531 74.626 37.523 74.626 
37.512 74.626 c 29.789 74.567 24.527 70.883 22.641 64.481 c 22.641 
64.481 22.047 62.712 21.922 60.29 c 21.891 59.805 21.863 59.313 21.863 
58.809 c 21.859 57.465 21.914 56.169 22.023 54.922 c 22.023 54.922 
22.863 38.821 15.984 33.934 c 10.195 29.821 24.828 32.926 29.879 37.59 
c h
29.879 37.59 m f
Q Q
showpage
%%Trailer
count op_count sub {pop} repeat
countdictstack dict_count sub {end} repeat
cairo_eps_state restore
%%EOF
