%!PS-Adobe-3.0 EPSF-3.0
%%Creator: cairo 1.10.2 (http://cairographics.org)
%%CreationDate: Fri Jul  4 09:53:03 2014
%%Pages: 1
%%BoundingBox: 0 -1 76 72
%%DocumentData: Clean7Bit
%%LanguageLevel: 2
%%EndComments
%%BeginProlog
/cairo_eps_state save def
/dict_count countdictstack def
/op_count count 1 sub def
userdict begin
/q { gsave } bind def
/Q { grestore } bind def
/cm { 6 array astore concat } bind def
/w { setlinewidth } bind def
/J { setlinecap } bind def
/j { setlinejoin } bind def
/M { setmiterlimit } bind def
/d { setdash } bind def
/m { moveto } bind def
/l { lineto } bind def
/c { curveto } bind def
/h { closepath } bind def
/re { exch dup neg 3 1 roll 5 3 roll moveto 0 rlineto
      0 exch rlineto 0 rlineto closepath } bind def
/S { stroke } bind def
/f { fill } bind def
/f* { eofill } bind def
/n { newpath } bind def
/W { clip } bind def
/W* { eoclip } bind def
/BT { } bind def
/ET { } bind def
/pdfmark where { pop globaldict /?pdfmark /exec load put }
    { globaldict begin /?pdfmark /pop load def /pdfmark
    /cleartomark load def end } ifelse
/BDC { mark 3 1 roll /BDC pdfmark } bind def
/EMC { mark /EMC pdfmark } bind def
/cairo_store_point { /cairo_point_y exch def /cairo_point_x exch def } def
/Tj { show currentpoint cairo_store_point } bind def
/TJ {
  {
    dup
    type /stringtype eq
    { show } { -0.001 mul 0 cairo_font_matrix dtransform rmoveto } ifelse
  } forall
  currentpoint cairo_store_point
} bind def
/cairo_selectfont { cairo_font_matrix aload pop pop pop 0 0 6 array astore
    cairo_font exch selectfont cairo_point_x cairo_point_y moveto } bind def
/Tf { pop /cairo_font exch def /cairo_font_matrix where
      { pop cairo_selectfont } if } bind def
/Td { matrix translate cairo_font_matrix matrix concatmatrix dup
      /cairo_font_matrix exch def dup 4 get exch 5 get cairo_store_point
      /cairo_font where { pop cairo_selectfont } if } bind def
/Tm { 2 copy 8 2 roll 6 array astore /cairo_font_matrix exch def
      cairo_store_point /cairo_font where { pop cairo_selectfont } if } bind def
/g { setgray } bind def
/rg { setrgbcolor } bind def
/d1 { setcachedevice } bind def
%%EndProlog
%%Page: 1 1
%%BeginPageSetup
%%PageBoundingBox: 0 -1 76 72
%%EndPageSetup
q 0 -1 76 73 rectclip q
0 71.466 76 -72 re W n
0 g
74.125 3.439 m 61.211 25.029 l 60.43 26.334 59.27 27.263 57.961 27.802 
c 49.109 31.877 l 44.859 35.462 l 37.551 28.197 l 30.227 35.462 l 
25.973 31.877 l 17.125 27.802 l 15.812 27.263 14.652 26.334 13.871 
25.029 c 0.957 3.439 l 0.324 2.377 0.008 1.189 0 0.002 c 75.082 0.002 l 
75.074 1.189 74.758 2.377 74.125 3.439 c h
74.125 3.439 m f
37.789 34.951 m 37.781 34.959 l 37.898 34.955 38.012 34.951 38.133 
34.951 c 49.266 34.951 56.391 43.123 56.391 53.209 c 56.391 63.291 
48.215 71.466 38.133 71.466 c 28.047 71.466 19.875 63.291 19.875 53.209 
c 19.875 50.619 20.414 48.158 21.387 45.927 c 19.406 46.259 17.297 
46.896 16.391 47.591 c 18.859 38.252 32.184 34.951 37.789 34.951 c h
37.789 34.951 m f
Q Q
showpage
%%Trailer
count op_count sub {pop} repeat
countdictstack dict_count sub {end} repeat
cairo_eps_state restore
%%EOF
