%!PS-Adobe-3.0 EPSF-3.0
%%Creator: cairo 1.10.2 (http://cairographics.org)
%%CreationDate: Fri Jul  4 08:48:10 2014
%%Pages: 1
%%BoundingBox: 0 -1 70 76
%%DocumentData: Clean7Bit
%%LanguageLevel: 2
%%EndComments
%%BeginProlog
/cairo_eps_state save def
/dict_count countdictstack def
/op_count count 1 sub def
userdict begin
/q { gsave } bind def
/Q { grestore } bind def
/cm { 6 array astore concat } bind def
/w { setlinewidth } bind def
/J { setlinecap } bind def
/j { setlinejoin } bind def
/M { setmiterlimit } bind def
/d { setdash } bind def
/m { moveto } bind def
/l { lineto } bind def
/c { curveto } bind def
/h { closepath } bind def
/re { exch dup neg 3 1 roll 5 3 roll moveto 0 rlineto
      0 exch rlineto 0 rlineto closepath } bind def
/S { stroke } bind def
/f { fill } bind def
/f* { eofill } bind def
/n { newpath } bind def
/W { clip } bind def
/W* { eoclip } bind def
/BT { } bind def
/ET { } bind def
/pdfmark where { pop globaldict /?pdfmark /exec load put }
    { globaldict begin /?pdfmark /pop load def /pdfmark
    /cleartomark load def end } ifelse
/BDC { mark 3 1 roll /BDC pdfmark } bind def
/EMC { mark /EMC pdfmark } bind def
/cairo_store_point { /cairo_point_y exch def /cairo_point_x exch def } def
/Tj { show currentpoint cairo_store_point } bind def
/TJ {
  {
    dup
    type /stringtype eq
    { show } { -0.001 mul 0 cairo_font_matrix dtransform rmoveto } ifelse
  } forall
  currentpoint cairo_store_point
} bind def
/cairo_selectfont { cairo_font_matrix aload pop pop pop 0 0 6 array astore
    cairo_font exch selectfont cairo_point_x cairo_point_y moveto } bind def
/Tf { pop /cairo_font exch def /cairo_font_matrix where
      { pop cairo_selectfont } if } bind def
/Td { matrix translate cairo_font_matrix matrix concatmatrix dup
      /cairo_font_matrix exch def dup 4 get exch 5 get cairo_store_point
      /cairo_font where { pop cairo_selectfont } if } bind def
/Tm { 2 copy 8 2 roll 6 array astore /cairo_font_matrix exch def
      cairo_store_point /cairo_font where { pop cairo_selectfont } if } bind def
/g { setgray } bind def
/rg { setrgbcolor } bind def
/d1 { setcachedevice } bind def
%%EndProlog
%%Page: 1 1
%%BeginPageSetup
%%PageBoundingBox: 0 -1 70 76
%%EndPageSetup
q 0 -1 70 77 rectclip q
0 75.137 70 -76 re W n
0 g
54.152 37.051 m 54.152 37.047 l 54.145 37.047 l 54.121 37.617 53.965 
38.18 53.66 38.688 c 47.031 49.774 l 46.629 50.441 46.035 50.918 45.363 
51.195 c 40.816 53.289 l 38.633 55.129 l 34.883 51.399 l 31.121 55.129 
l 28.938 53.289 l 24.395 51.195 l 23.723 50.918 23.125 50.441 22.727 
49.774 c 16.094 38.688 l 15.793 38.18 15.637 37.617 15.613 37.047 c 
15.602 37.047 l 15.602 37.051 l 0 37.051 l 0 26.367 l 69.895 26.367 l 
69.895 37.051 l h
32.922 37.051 m 34.879 49.277 l 36.836 37.051 l h
46.344 41.566 m 44.555 41.566 l 44.555 39.777 l 42.453 39.777 l 42.453 
41.566 l 40.664 41.566 l 40.664 43.668 l 42.453 43.668 l 42.453 45.457 
l 44.555 45.457 l 44.555 43.668 l 46.344 43.668 l h
46.344 41.566 m f
31.012 56.125 m 32.137 55.281 33.457 54.871 34.93 54.84 c 34.934 54.84 
l 34.938 54.84 34.938 54.84 34.938 54.84 c 34.949 54.84 l 34.953 54.84 
34.953 54.84 34.957 54.84 c 34.961 54.84 l 36.434 54.871 37.754 55.281 
38.875 56.125 c 41.469 53.727 48.984 52.133 46.012 54.246 c 42.48 
56.754 42.91 65.02 42.91 65.02 c 42.965 65.664 42.992 66.328 42.992 
67.016 c 42.992 67.277 42.98 67.527 42.965 67.777 c 42.898 69.02 42.594 
69.93 42.594 69.93 c 41.625 73.215 38.926 75.109 34.961 75.137 c 34.93 
75.137 l 30.961 75.106 28.262 73.215 27.293 69.93 c 27.293 69.93 26.988 
69.02 26.926 67.777 c 26.91 67.527 26.895 67.277 26.895 67.016 c 26.895 
66.426 26.922 65.856 26.965 65.297 c 27.91 64.102 29.586 62.688 32.379 
62.285 c 32.68 62.578 33.082 62.746 33.512 62.746 c 35.137 62.746 l 
36.035 62.746 36.766 62.02 36.766 61.121 c 36.766 60.227 36.035 59.496 
35.137 59.496 c 33.512 59.496 l 33.129 59.496 32.758 59.637 32.469 
59.883 c 30.051 60.152 28.242 61.055 26.914 62.102 c 26.711 59.469 
26.035 55.781 23.875 54.246 c 20.902 52.133 28.418 53.727 31.012 56.125 
c h
31.012 56.125 m f
4.445 24.359 61.008 -24.359 re f
Q Q
showpage
%%Trailer
count op_count sub {pop} repeat
countdictstack dict_count sub {end} repeat
cairo_eps_state restore
%%EOF
