%!PS-Adobe-3.0 EPSF-3.0
%%Creator: cairo 1.10.2 (http://cairographics.org)
%%CreationDate: Fri Jul  4 08:47:33 2014
%%Pages: 1
%%BoundingBox: 0 -1 64 76
%%DocumentData: Clean7Bit
%%LanguageLevel: 2
%%EndComments
%%BeginProlog
/cairo_eps_state save def
/dict_count countdictstack def
/op_count count 1 sub def
userdict begin
/q { gsave } bind def
/Q { grestore } bind def
/cm { 6 array astore concat } bind def
/w { setlinewidth } bind def
/J { setlinecap } bind def
/j { setlinejoin } bind def
/M { setmiterlimit } bind def
/d { setdash } bind def
/m { moveto } bind def
/l { lineto } bind def
/c { curveto } bind def
/h { closepath } bind def
/re { exch dup neg 3 1 roll 5 3 roll moveto 0 rlineto
      0 exch rlineto 0 rlineto closepath } bind def
/S { stroke } bind def
/f { fill } bind def
/f* { eofill } bind def
/n { newpath } bind def
/W { clip } bind def
/W* { eoclip } bind def
/BT { } bind def
/ET { } bind def
/pdfmark where { pop globaldict /?pdfmark /exec load put }
    { globaldict begin /?pdfmark /pop load def /pdfmark
    /cleartomark load def end } ifelse
/BDC { mark 3 1 roll /BDC pdfmark } bind def
/EMC { mark /EMC pdfmark } bind def
/cairo_store_point { /cairo_point_y exch def /cairo_point_x exch def } def
/Tj { show currentpoint cairo_store_point } bind def
/TJ {
  {
    dup
    type /stringtype eq
    { show } { -0.001 mul 0 cairo_font_matrix dtransform rmoveto } ifelse
  } forall
  currentpoint cairo_store_point
} bind def
/cairo_selectfont { cairo_font_matrix aload pop pop pop 0 0 6 array astore
    cairo_font exch selectfont cairo_point_x cairo_point_y moveto } bind def
/Tf { pop /cairo_font exch def /cairo_font_matrix where
      { pop cairo_selectfont } if } bind def
/Td { matrix translate cairo_font_matrix matrix concatmatrix dup
      /cairo_font_matrix exch def dup 4 get exch 5 get cairo_store_point
      /cairo_font where { pop cairo_selectfont } if } bind def
/Tm { 2 copy 8 2 roll 6 array astore /cairo_font_matrix exch def
      cairo_store_point /cairo_font where { pop cairo_selectfont } if } bind def
/g { setgray } bind def
/rg { setrgbcolor } bind def
/d1 { setcachedevice } bind def
%%EndProlog
%%Page: 1 1
%%BeginPageSetup
%%PageBoundingBox: 0 -1 64 76
%%EndPageSetup
q 0 -1 64 77 rectclip q
0 75.067 64 -76 re W n
0 g
63.902 34.106 m 63.902 42.829 l 50.52 42.821 l 41.945 29.548 l 39.387 
33.587 l 39.387 33.587 35.023 41.247 31.586 44.196 c 36.855 47.118 
39.906 52.243 39.906 58.438 c 39.906 63.208 38.164 67.368 35.02 70.145 
c 31.258 73.548 26.012 75.067 18.008 75.067 c 0 75.067 l 0 62.759 l 
2.68 62.759 l 2.68 28.72 l 0 28.72 l 0 16.411 l 13.336 16.454 l 13.336 
40.106 l 18.102 40.106 l 21.328 39.989 22.676 39.54 24.203 38.063 c 
35.441 21.817 l 26.324 8.723 l 19.664 8.723 l 19.664 0.001 l 32.551 
0.001 l 38.77 9.684 l 39.773 11.294 l 40.352 12.212 40.914 13.106 
41.461 14.009 c 42.348 12.532 43.242 11.102 44.227 9.653 c 50.512 0.001 
l 63.898 0.001 l 63.898 8.723 l 57.07 8.723 l 48.02 22.04 l 56.527 
34.106 l h
18.738 49.063 m 13.336 49.063 l 13.336 65.712 l 14.523 65.888 16.27 
66.028 18.488 66.028 c 25.629 65.95 29.246 63.122 29.246 57.626 c 
29.246 52.345 25.223 49.063 18.738 49.063 c h
18.738 49.063 m f
Q Q
showpage
%%Trailer
count op_count sub {pop} repeat
countdictstack dict_count sub {end} repeat
cairo_eps_state restore
%%EOF
