<?xml version="1.0" encoding="utf-8"?>
<!-- Generator: Adobe Illustrator 22.1.0, SVG Export Plug-In . SVG Version: 6.00 Build 0)  -->
<svg version="1.1" id="Warstwa_1" xmlns="http://www.w3.org/2000/svg" xmlns:xlink="http://www.w3.org/1999/xlink" x="0px" y="0px"
	 viewBox="0 0 292.3 127.2" style="enable-background:new 0 0 292.3 127.2;" xml:space="preserve">
<style type="text/css">
	.st0{fill:url(#SVGID_1_);}
	.st1{fill:#D8B7AC;}
	.st2{fill:#B4ABAC;}
	.st3{fill:#B4ADAA;}
</style>
<g>
	
		<linearGradient id="SVGID_1_" gradientUnits="userSpaceOnUse" x1="82.5213" y1="84.6239" x2="205.6041" y2="84.6239" gradientTransform="matrix(1 0 0 -1 0 127.7323)">
		<stop  offset="0" style="stop-color:#BE8675"/>
		<stop  offset="0.2312" style="stop-color:#E5CFC9"/>
		<stop  offset="0.4422" style="stop-color:#E5CFC9"/>
		<stop  offset="0.7586" style="stop-color:#AF7D6D"/>
		<stop  offset="0.9018" style="stop-color:#AA7665"/>
		<stop  offset="1" style="stop-color:#BE8675"/>
	</linearGradient>
	<path class="st0" d="M160.7,33.5c2.2-1.9,4.3-3.7,6.5-5.2c6.2-4.3,12.9-7.3,20.4-8c2.9-0.3,5.8-0.3,8.7,0.2
		c4.2,0.8,6.8,3.6,8.9,7.1c0.3,0.5,0.2,0.9-0.2,1.3c-0.5,0.4-1,0.2-1.3-0.3c-0.5-0.7-1-1.5-1.6-2.3c-2.3-3-5.6-4-9.3-4.2
		c-7.6-0.3-14.6,1.9-21.1,5.6c-3.6,2-6.8,4.5-9.9,7.2c-0.9,0.8-1.2,1.7-1.2,2.8c-0.2,9-1.7,17.7-5.8,25.9c-1.1,2.3-2.7,4.4-4.6,6.1
		c-3.1,2.8-7.8,3-10.6,0.3c-2.5-2.4-2.9-5.5-2.5-8.8c0.6-4.2,2.8-7.5,5.5-10.6c3.8-4.4,8.3-8,12.4-12c0.9-0.9,1.3-1.7,1.3-2.9
		c0-3.7-0.2-7.4-0.9-11.1c-0.1-0.3,0-0.7-0.4-0.8c-0.4-0.1-0.5,0.4-0.6,0.6c-2.5,4-5.4,7.7-9.4,10.4c-1,0.7-2.1,1.1-3.4,1.2
		c-2,0.1-3.2-0.7-3.8-2.6c-0.7-2.1-0.8-4.2-0.6-6.4c0.2-2.9,0.8-5.7,1.3-8.5c0-0.2,0.1-0.3,0.1-0.5c0.2-2,0-2.2-2-2
		c-3.2,0.3-6,1.6-8.8,2.9c-6.7,3.2-13.3,6.5-20,9.6c-4.1,1.9-8.3,3.6-12.8,4.3c-5.1,0.8-8.9-1.6-12.1-5.2c-0.4-0.5-0.6-1.1,0-1.6
		s1.1-0.1,1.4,0.4c0.9,1,1.7,2,2.8,2.8c2.9,2.2,6.2,2.2,9.5,1.4c4.7-1.1,9-3,13.3-5.1c6.2-3,12.2-6.2,18.6-8.7
		c3.2-1.3,6.5-2.5,10-2.5c0.6,0,1.2,0.1,1.8,0.2c2.2,0.4,2.7,1,2.6,3.2c-0.2,3.3-0.8,6.5-1.3,9.7c-0.2,1.6-0.4,3.2-0.4,4.8
		c0.1,1.7,0.7,2.1,2.2,1.4c1.9-0.8,3.5-2.1,4.9-3.6c2.2-2.3,4.1-4.9,5.7-7.7c0.3-0.6,0.6-1.1,0.4-1.8c-0.1-0.7,0.2-1.1,0.9-1.2
		c1.3-0.2,3,0.8,3.4,2.1c1.1,3.6,1.7,7.4,1.9,11.2C160.7,32.8,160.7,33,160.7,33.5z M156,40.6c-0.3,0.2-0.4,0.2-0.5,0.3
		c-4,3.6-7.8,7.3-11.3,11.4c-1.5,1.7-2.8,3.6-3.8,5.7c-1.2,2.5-1.4,5.1-0.7,7.7c1,3.8,4.5,4.8,7.4,2.1c1.4-1.3,2.4-2.9,3.3-4.5
		c2.9-5.5,4.3-11.4,5.2-17.5C155.8,44.1,156.1,42.4,156,40.6z"/>
	<path class="st1" d="M139,8.4c0-1.6,1-2.7,2.5-2.8c1.7,0,2.8,1.2,2.8,2.9c0,1.5-1.1,2.7-2.6,2.7C140.1,11.3,139,10.1,139,8.4z"/>
	<path class="st1" d="M152.9,6.8c1.6,0,2.7,1.2,2.7,2.7c0,1.7-1.1,2.8-2.6,2.8c-1.8-0.1-2.7-1-2.6-2.8
		C150.3,7.7,151.2,6.7,152.9,6.8z"/>
</g>
<path class="st2" d="M7.3,85.6h2.1V100H7.3V85.6z"/>
<path class="st2" d="M17.1,98.3l8.3-10.8h-8.2v-2h11.1v1.7L20,98h8.4v2H17.1L17.1,98.3z"/>
<path class="st2" d="M46.2,97h-7.5l-1.3,2.9h-2.4l6.2-14.4h2.4l6.2,14.4h-2.4L46.2,97z M45.4,95.1l-2.9-6.8l-2.9,6.8H45.4z"/>
<path class="st2" d="M57.2,85.6H64c2.4,0,4.1,1.5,4.1,3.6c0,1.5-0.8,2.5-2.1,3.2c1.7,0.8,2.6,2.1,2.6,3.7c0,2.3-1.8,3.9-4.4,3.9
	h-7.1V85.6z M63.5,91.6c1.4,0,2.5-0.9,2.5-2.1c0-1.2-1-2.1-2.5-2.1h-4.2v4.1H63.5z M63.8,98.1c1.6,0,2.8-1,2.8-2.4s-1.1-2.4-2.8-2.4
	h-4.5v4.7H63.8z"/>
<path class="st2" d="M78.5,87.5v4.1h7.6v2h-7.6V98H87v2H76.4V85.6H87v2H78.5z"/>
<path class="st2" d="M104.3,98v2h-9.8V85.6h2.1V98H104.3z"/>
<path class="st2" d="M121.6,97h-7.5l-1.3,2.9h-2.4l6.2-14.4h2.4l6.2,14.4h-2.4L121.6,97z M120.8,95.1l-2.9-6.8l-2.9,6.8H120.8z"/>
<path class="st2" d="M142.2,97.8l1.5-1.4c0.5,1.1,1.8,1.9,3,1.9c1.6,0,2.7-1.3,2.7-3.1v-9.6h2.1v9.7c0,2.9-1.9,5-4.7,5
	C145,100.2,143.1,99.3,142.2,97.8z"/>
<path class="st2" d="M159.8,93.9v-8.4h2.1v8.3c0,2.6,1.7,4.4,4.1,4.4c2.4,0,4.1-1.8,4.1-4.4v-8.3h2.1v8.4c0,3.7-2.6,6.3-6.2,6.3
	C162.4,100.2,159.8,97.6,159.8,93.9z"/>
<path class="st2" d="M188.2,94.8l3.7,5.2h-2.4l-3.5-5h-3.3v5h-2.1V85.6h6.1c3,0,5.4,2,5.4,4.7C191.9,92.5,190.3,94.2,188.2,94.8z
	 M182.5,93h3.7c2.1,0,3.5-1,3.5-2.7c0-1.7-1.4-2.7-3.5-2.7h-3.7V93z"/>
<path class="st2" d="M198.7,92.8c0-4.1,3.4-7.5,7.5-7.5c2.1,0,3.9,0.9,5.3,2.3L210,89c-1-1.1-2.3-1.7-3.8-1.7
	c-2.9,0-5.3,2.5-5.3,5.5c0,3,2.4,5.5,5.3,5.5c1.5,0,2.9-0.7,3.8-1.7l1.5,1.4c-1.4,1.4-3.3,2.3-5.3,2.3
	C202.1,100.2,198.7,96.8,198.7,92.8z"/>
<path class="st2" d="M218.2,98.3l8.3-10.8h-8.2v-2h11.1v1.7L221.1,98h8.4v2h-11.3L218.2,98.3z"/>
<path class="st2" d="M247.3,97h-7.5l-1.3,2.9h-2.4l6.2-14.4h2.4l6.2,14.4h-2.4L247.3,97z M246.5,95.1l-2.9-6.8l-2.9,6.8H246.5z"/>
<path class="st2" d="M258.3,85.6h2.1v7.5l6.8-7.5h2.7l-5.9,6.5l6.3,7.9h-2.7l-5.1-6.5l-2.1,2.2v4.2h-2.1V85.6z"/>
<path class="st3" d="M114.9,110.8h1.6l2.3,4.3l2.3-4.3h1.6v7.6h-1.6v-4.7l-2.3,4.3l-2.3-4.3v4.7h-1.6V110.8z"/>
<path class="st3" d="M132.4,117.1H129l-0.5,1.2h-1.8l3.1-7.6h1.8l3.1,7.6h-1.8L132.4,117.1z M131.8,115.8l-1.1-2.8l-1.1,2.8H131.8z"
	/>
<path class="st3" d="M138.6,110.8h1.6v3.5l3.1-3.5h2l-2.9,3.3l3.2,4.3h-2l-2.3-3.1l-0.9,1v2.1h-1.6V110.8z"/>
<path class="st3" d="M150.9,112.2v1.5h3.8v1.5h-3.8v1.7h4.2v1.5h-5.8v-7.6h5.8v1.5H150.9z"/>
<path class="st3" d="M159.3,115.1v-4.3h1.6v4.2c0,1.2,0.7,2,1.8,2c1,0,1.8-0.8,1.8-2v-4.2h1.6v4.3c0,2-1.4,3.4-3.4,3.4
	C160.7,118.5,159.3,117,159.3,115.1z"/>
<path class="st3" d="M170.6,110.8h3.4c1.6,0,2.8,1.1,2.8,2.6s-1.2,2.6-2.8,2.6h-1.8v2.5h-1.6V110.8z M173.8,114.4
	c0.8,0,1.4-0.4,1.4-1.1s-0.5-1.1-1.4-1.1h-1.6v2.1H173.8z"/>
</svg>
